{
  "seleniumDriverPath": "c:\\Selenium",
  "recordName": "*Gabriel Reyes*",
  "url": "https://Administrator:Index139240!@195.88.73.217/EfficiencyOneDDSM/main.aspx#465963008",
  "frame": "contentIFrame0",
  "rowAccSelector": ".ms-crm-List-DataCell:nth-child(3) a",
  "pageTitle": "Accounts Accounts - Microsoft Dynamics CRM",
  "resultFolder": "TestResult//",
  "correctView": {
    "dropDownSelector": "#crmGrid_SavedNewQuerySelector",
    "menuItemSelector": "ul.ms-crm-VS-Menu li a.ms-crm-VS-MenuItem-Anchor[title=\"Accounts\"] nobr"
  },
  "isSelectedForm": true,
  "uploadConfig": {
    "isExecute": false,
    "path": "upload_config"
  },
  "correctForm": {
    "dropDownSelector": "#formselectorcontainer .ms-crm-FormSelector",
    "menuItemSelector": "ul.ms-crm-FS-Menu li a.ms-crm-FS-MenuItem-Anchor[title=\"E1 Account\"] nobr"
  },
  "timeSpan": "30",
  "jqFields": {
    "IterationCount": 30,
    "IterationTime": 2
  },
  "fields": {
    "formselectorcontainer": "MEASURE : E1 MEASURE",
    //Program information
    "ddsm_programid_d": "Efficient Product Rebates (BNI) 2017",
    "ddsm_programofferingsid_d": "BER-Instant Rebates 2017",
    "ddsm_selectableprogramoffering_d": "BER-IR",
    //Project ddsm_measurelife_d
    "ddsm_accountid_d": "Gabriel Reyes",
    "ddsm_parentsite_d": "Gabriel Reyes",
    "ddsm_implementationsite_d": "Gabriel Reyes",
    "ddsm_projectphasename_d": "4. Completed",
    "ddsm_projectstatus_d": "7-Completed",
    //Measure Information
    "ddsm_name_d": "Occupancy Sensors: ceiling remote mounted",
    "ddsm_measuregroup_d": "Occupancy Sensors",
    "ddsm_measureidlegacy_d": "N/A",
    "ddsm_numberofpackages_d": "--",
    "ddsm_units_d": "2.00",
    "ddsm_categoryoption_d": ["--", "$0.00", "H-Lighting Occ. Sensors"],
    "ddsm_measuremodelingtype_d": "Non-Modeled Measure",
    "ddsm_deliveryagentid_d": "Gabriel Reyes",
    "ddsm_enduse_d": "Lighting Controls",
    "ddsm_measurelife_d": "10.00",
    "ddsm_annualhoursofoperation_d": ["--", "$0.00", "0"],
    "ddsm_solarcollectors_d": ["--", "$0.00"],
    "ddsm_partner_d": ["--", "$0.00"],
    "ddsm_partnercontact_d": ["--", "$0.00"],
    //Heat Pump Technical Information
    "ddsm_numberofindoorunits_d": ["--", "$0.00"],
    "ddsm_isthisthefirstductlesshpforthisproject_d": ["--", "$0.00"],
    "ddsm_heatpumpsystemtype_d": ["--", "$0.00"],
    "ddsm_heatpumpbrand_d": ["--", "$0.00"],
    "ddsm_heatpumpindoorunitmodel1_d": ["--", "$0.00"],
    "ddsm_heatpumpindoorunitmodel2_d": ["--", "$0.00"],
    "ddsm_heatpumpindoorunitmodel3_d": ["--", "$0.00"],
    "ddsm_heatpumpindoorunitmodel4_d": ["--", "$0.00"],
    "ddsm_heatpumpheatingcapacity_nominal_btuperh_d": ["--", "$0.00"],
    "ddsm_heatpumphspf_region5_btuperwh_d": ["--", "$0.00"],
    "ddsm_coolingcapacity_nominal_btuperhr_d": ["--", "$0.00"],
    "ddsm_heatpumpseer_btuperwh_d": ["--", "$0.00"],
    "ddsm_heatpumplowtempcapacity_15c_btuperh_d": ["--", "$0.00"],
    "ddsm_heatpumpcop15c_btuperwh_d": ["--", "$0.00"],
    "ddsm_heatpumpeer_8c_d": ["--", "$0.00"],
    //Green Heat - Additional Measure Details
    "ddsm_emissionsrating_gperhr_d": ["--", "$0.00"],
    "ddsm_ahricertificatenumber_d": ["--", "$0.00"],
    "ddsm_installercertificationtype_d": ["--", "$0.00"],
    "ddsm_installercertificatenumber_d": ["--", "$0.00"],
    //Implementation Costs
    "ddsm_costlabor_d": ["--", "$0.00"],
    "ddsm_costequipment_d": ["--", "$0.00"],
    "ddsm_costengineering_d": ["--", "$0.00"],
    "ddsm_costother_d": ["--", "$0.00"],
    "ddsm_costsubtotal_d": ["--", "$0.00"],
    "ddsm_costtax_d": ["--", "$0.00"],
    "ddsm_costtotal_d": ["--", "$0.00"],
    "ddsm_purchasepriceactual_d": ["--", "$0.00"],
    "ddsm_purchasepricefinancing_d": ["--", "$0.00"],
    //Incentive Information
    "ddsm_fundingsourcecalculationtype_d": "DSM",
    "ddsm_incentivepaymentgross_d": "$0.00",
    "ddsm_incentivepaymentnet_d": "$0.00",
    "ddsm_incentivepaymentnetdsm_d": "$0.00",
    "ddsm_incentivepaymentnetpns_d": ["--", "$0.00"],
    "ddsm_oemrecoverycost_d": ["--", "$0.00"],
    "ddsm_incentivecostmeasureperunit_d": "$40.00",
    "ddsm_incentivecostmeasure_d": "$30.00",
    "ddsm_incentivecostmeasuredsm_d": "$30.00",
    "ddsm_incentivecostmeasurepns_d": ["--", "$0.00"],
    "ddsm_incentivecostpartner_d": ["--", "$0.00"],
    "ddsm_incentivecostfinancing_d": ["--", "$0.00"],
    "ddsm_incentivecostproject_d": ["--", "$0.00"],
    "ddsm_incentivecosttotal_d": "$30.00",
    "ddsm_totalincentive_d": "$30.00",
    "ddsm_totalincentivedsm_d": "$30.00",
    "ddsm_totalincentivepns_d": ["--", "$0.00"],
    "ddsm_incentivepaymentgrosslevel1perunit_d": ["--", "$0.00"],
    "ddsm_incentivepaymentgrosslevel2perunit_d": ["--", "$0.00"],
    "ddsm_incentivepaymentgrosslevel3perunit_d": ["--", "$0.00"],
    //Savings Information
    "ddsm_kwhunitarysavingsatmeterperunit_d": "100.0000",
    "ddsm_kwhgrosssavingsatmeterperunit_d": "100.0000",
    "ddsm_kwhgrosssavingsatmeter_d": "54.4320",
    "ddsm_kwhgrosssavingsatgenerator_d": "70.7616",
    "ddsm_kwhnetsavingsatgenerator_d": "70.7616",
    "ddsm_kwunitarysavingsatmeterperunit_d": "100.0000",
    "ddsm_kwgrosssavingsatmeterperunit_d": "100.0000",
    "ddsm_kwgrosssavingsatmeter_d": "19.5955",
    "ddsm_kwgrosssavingsatgenerator_d": "25.4742",
    "ddsm_kwnetsavingsatgenerator_d": ["--", "$0.00", "0.0000"],
    "ddsm_gjunitarysavingsperunit_d": ["--", "$0.00", "0.0000"],
    "ddsm_gjsavingsatmeterperunit_d": ["--", "$0.00"],
    "ddsm_gjsavingsatmeter_d": "0.0000",
    "ddsm_evaluatedkwhnetsavingsatgenerator_d": ["--", "$0.00"],
    "ddsm_evaluatedkwhnetsavingsatgeneratordsm_d": ["--", "$0.00"],
    "ddsm_evaluatedkwnetsavingsatgenerator_d": ["--", "$0.00"],
    "ddsm_evaluatedkwnetsavingsatgeneratordsm_d": ["--", "$0.00"],
    //Gross Distortion Effects
    "ddsm_interactiveeffects_d": "0.7560",
    "ddsm_lightinginteffelectricheatwithac_d": ["--", "$0.00"],
    "ddsm_lightinginteffelectricheatnoac_d": ["--", "$0.00"],
    "ddsm_lightinginteffnonelectricheatwithac_d": ["--", "$0.00"],
    "ddsm_lightinginteffnonelectricheatnoac_d": ["--", "$0.00"],
    "ddsm_dhwinteffelectricwithac_d": ["--", "$0.00"],
    "ddsm_dhwinteffelectricnoac_d": ["--", "$0.00"],
    "ddsm_dhwinteffnonelectricwithac_d": ["--", "$0.00"],
    "ddsm_dhwinteffnonelectricnoac_d": ["--", "$0.00"],
    "ddsm_installationrate_d": "--",
    "ddsm_inservicerate_d": ["--", "$0.00", "0.3600"],
    "ddsm_selfdeclarationratio_d": ["--", "$0.00"],
    "ddsm_adjustmentratio_d": ["--", "$0.00"],
    "ddsm_lossfactor_d": "0.300",
    "ddsm_interactiveeffectsdemand_d": "0.7560",
    "ddsm_lightinginteffelectricheatwithacdemand_d": ["--", "$0.00"],
    "ddsm_lightinginteffelectricheatnoacdemand_d": ["--", "$0.00"],
    "ddsm_lightinginteffnonelectricheatwithacdemand_d": ["--", "$0.00"],
    "ddsm_lightinginteffnonelectricheatnoacdemand_d": ["--", "$0.00"],
    "ddsm_dhwinteffelectricwithacdemand_d": ["--", "$0.00"],
    "ddsm_dhwinteffelectricnoacdemand_d": ["--", "$0.00"],
    "ddsm_dhwinteffnonelectricwithacdemand_d": ["--", "$0.00"],
    "ddsm_dhwinteffnonelectricnoacdemand_d": ["--", "$0.00"],
    //Net Distortion Effects
    "ddsm_nettogrossratioapplied_d": ["--", "$0.00", "1.000"],
    "ddsm_nettogrossratio_d": ["--", "$0.00"],
    "ddsm_nettogrossratiostandard_d": "1.000",
    "ddsm_nettogrossratiolowincome_d": "--",
    "ddsm_installdate_d": ["--", "$0.00"],
    "ddsm_primaryheatsource_d": "--",
    "ddsm_dhwheatingfueltype_d": ["--", "$0.00"],
    "ddsm_airconditioner_d": "No",
    "ddsm_buildingtype_d": ["--", "$0.00"],
    "ddsm_buildingsubtype_d": ["--", "$0.00"],
    "ddsm_incomelevel_d": ["--", "$0.00"],
    "ddsm_numberofoccupantsinhousehold_d": ["--", "$0.00"],
    "ddsm_linotlidk_d": ["--", "$0.00"],
    "ddsm_county_d": ["--", "$0.00"],
    //Additional Measure Details
    "ddsm_wattsbase_d": ["--", "$0.00", "0.0000"],
    "ddsm_wattseff_d": ["--", "$0.00"],
    "ddsm_baseequipdescr_d": ["--", "$0.00"],
    "ddsm_effequipdescr_d": ["--", "$0.00"],
    "ddsm_manufacturer_d": "Cooper",
    "ddsm_modelnumberapprovalid_d": ["--", "$0.00"],
    //Rate Class Information
    "ddsm_ratecodenameid_d": "--",
    "ddsm_ratecodedescription_d": "--",
    "ddsm_utility_d": "--",
    "ddsm_ratecode_d": "X_BER_IR",
    "ddsm_demandcharge_d": "--",
    "ddsm_energycharge_d": "--",
    "ddsm_rateclass_d": "Other",
    "ddsm_demandunit_d": ["--", "$0.00"],
    "ddsm_ratecodeyear_d": "2017",
    "ddsm_powerfactor_d": ["--", "$0.00"],
    //Master Measure List - CURRENTLY NOT IN USE
    "ddsm_annualfixedcosts_d": ["--", "$0.00"],
    "ddsm_annualhoursafter_d": ["--", "$0.00"],
    "ddsm_annualhoursbefore_d": ["--", "$0.00"],
    "ddsm_energytype_d": "Electric",
    "ddsm_equipmentdescription_d": ["--", "$0.00"],
    "ddsm_equipmentlibraryrecord_d": ["--", "$0.00"],
    "ddsm_eul_d": ["--", "$0.00"],
    "ddsm_incratekw_d": ["--", "$0.00"],
    "ddsm_incratekwh_d": ["--", "$0.00"],
    "ddsm_incratethm_d": ["--", "$0.00"],
    "ddsm_incrateunit_d": ["--", "$0.00"],
    "ddsm_incrementalcost_d": ["--", "$0.00"],
    "ddsm_loadfactorkwh_d": ["--", "$0.00"],
    "ddsm_measurecode_d": ["--", "$0.00"],
    "ddsm_measurenotes_d": ["--", "$0.00"],
    "ddsm_measureselector_d": "Occupancy Sensors: ceiling remote mounted",
    "ddsm_measuresubgroup_d": ["--", "$0.00"],
    "ddsm_measuresubgroup2_d": ["--", "$0.00"],
    "ddsm_measuretype_d": ["--", "$0.00"],
    "ddsm_motorhp_d": ["--", "$0.00"],
    "ddsm_motortype_d": ["--", "$0.00"],
    "ddsm_showerheadflowrate_d": ["--", "$0.00"],
    "ddsm_size_d": ["--", "$0.00"],
    "ddsm_source_d": ["--", "$0.00", "Manual"],
    "ddsm_studymeasure_d": "No",
    "ddsm_unit_d": ["--", "$0.00"],
    "ddsm_climatezone_d": ["--", "$0.00"],
    "ddsm_winterdemandreductionkw_d": ["--", "$0.00"],
    "ddsm_measurerelevance_d": ["--", "$0.00"],
    "ddsm_importld_d": ["--", "$0.00"],
    "ddsm_affordablehousing_d": ["--", "$0.00"],
    "ddsm_category_d": ["--", "$0.00", "H-Lighting Occ. Sensors"],
    "ddsm_contractorinvoicenumber_d": "UBER070",
    "ddsm_costdisposal_d": ["--", "$0.00"],
    "ddsm_costequipment1_d": ["--", "$0.00"],
    "ddsm_costlabor1_d": ["--", "$0.00"],
    "ddsm_costother1_d": ["--", "$0.00"],
    "ddsm_costtotal1_d": ["--", "$0.00"],
    "ddsm_deemedsavingskw_d": ["--", "$0.00"],
    "ddsm_deemedsavingskwh_d": ["--", "$0.00"],
    "ddsm_distributor_d": ["--", "$0.00"],
    "ddsm_equipkwbase_d": ["--", "$0.00"],
    "ddsm_equipkweff_d": ["--", "$0.00"],
    "ddsm_failuredate_d": ["--", "$0.00"],
    "ddsm_failurereason_d": ["--", "$0.00"],
    "ddsm_incrementalinstalledcosts_d": ["--", "$0.00"],
    "ddsm_measureleadsource_d": ["--", "$0.00"],
    "ddsm_measureleadsourceprojtpl_d": ["--", "$0.00"],
    "ddsm_partnerreviewrequired_d": "No",
    "ddsm_purchasepriceactual1_d": ["--", "$0.00"],
    "ddsm_purchasepricefinancing1_d": ["--", "$0.00"],
    "ddsm_quantityofmajormeasures_d": ["--", "$0.00"],
    "ddsm_sqft_d": ["--", "$0.00"],
    "ddsm_suto_d": ["--", "$0.00"],
    "ddsm_totalenergyusage_d": ["--", "$0.00"],
    "ddsm_uptodatephase_d": "3",
    "ddsm_verificationcomment_d": ["--", "$0.00"],
    "ddsm_verificationdate_d": ["--", "$0.00"],
    "ddsm_verificationofmeasuresinstalled_d": ["--", "$0.00"],
    "ddsm_brand_d": "OAC-P-1500-MV-W",
    "ddsm_serialnumber_d": ["--", "$0.00"],
    //System
    //Manual Override
    "ddsm_overridereason_mnl_d": ["--", "$0.00"]
  },
  "transist": [
    //Second step tabs
    {
      "subgridId": "Cycle_Projects_divDataArea",
      "columnNumber": 2,
      "subgridRecordName": "BER-IR-Gabriel Reyes",
      "subgridFrameId": "contentIFrame0",
      "formFrameId": "contentIFrame0",
      "correctTransistForm": {
        "dropDownSelector": "#formselectorcontainer .ms-crm-FormSelector",
        "menuItemSelector": "ul.ms-crm-FS-Menu li a.ms-crm-FS-MenuItem-Anchor[title=\"E1 Project\"] nobr"
      },
      "iSelectedForm": true,
      "tabs": [
        "tab_20_content",
        "Tab_ProjectSummary_content",
        "tab_26_content",
        "tab_22_content",
        "Tab_Measures_content",
        "tab_23_content",
        "tab_24_content",
        "Tab_Financials_content",
        "Tab_Notes_content",
        "Tab_OnHoldDiscontinued_content",
        "Tab_System_content"
      ]
    },
    //Third step tabs
    {
      "subgridId": "SmartMeasure_view_divDataArea",
      "columnNumber": 2,
      "subgridRecordName": "Occupancy Sensors: ceiling remote mounted",
      "subgridFrameId": "contentIFrame0",
      "formFrameId": "contentIFrame0",
      "correctTransistForm": {
        "dropDownSelector": "#formselectorcontainer .ms-crm-FormSelector",
        "menuItemSelector": "ul.ms-crm-FS-Menu li a.ms-crm-FS-MenuItem-Anchor[title=\"E1 Measure\"] nobr"
      },
      "iSelectedForm": true,
      "tabs": [
        "tab_13_content",
        "tab_21_content",
        "tab_14_content",
        "Heat Pump Technical Information_content",
        "Green Heat - Additional Measure Details_content",
        "tab_23_content",
        "tab_11_content",
        "tab_16_content",
        "tab_18_content",
        "tab_17_content",
        "tab_19_content",
        "tab_20_content",
        "tab_8_content",
        "General_content",
        "tab_22_content",
        "tab_24_content",
        "tab_15_content",
        "tab_10_content"
      ]
    }
  ],
  "visibleElements": [
    "table[name=\"tab_8_section_1\"]"
  ],
  "invisibleFields": [],
  //First step tabs
  "tabs": [
    "tab_NotesActivities_content",
    "tab_9_content"
  ],
     "visibleTabs": [
    "Program Information",
    "Project Information",
    "Measure Information",
    "Heat Pump Technical Information",
    "Green Heat - Additional Measure Details",
    "Implementation Costs",
    "Incentive Information",
    "Savings Information",
    "Gross Distortion Effects",
    "Net Distortion Effects",
    "MSD Fields",
    "Model Information",
    "SKU Information",
    "Additional Measure Details",
    "Rate Class Information",
    "Measure Verification",
    "Master Measure List - CURRENTLY NOT IN USE",
    "System",
    "Manual Override"
  ],
  "fieldsCorrectFormat": [
    {
      "fieldSelector": "#ddsm_measure_id_d",
      "format": "BERIR[0-9]{4}"
    },
    {
      "fieldSelector": "#ddsm_measurenumber_d",
      "format": "BERIR[0-9]{7}"
    },
    {
      "fieldSelector": "#ownerid_d",
      "format": "[a-zA-Z0-9]"
    },
    {
      "fieldSelector": "#createdby_d",
      "format": "[a-zA-Z0-9]"
    }
  ]  
}