{
  "seleniumDriverPath": "c:\\Selenium",
  "recordName": "*Lida Wood*",
  "login": "Administrator",
  "password": "oGpjM9iE",
  "url": "https://Administrator:oGpjM9iE@dev4.ddsm.online/EfficiencyOneDDSM/main.aspx#465963008",
  "frame": "contentIFrame0",
  "rowAccSelector": ".ms-crm-List-DataCell:nth-child(3) a",
  "pageTitle": "Accounts Accounts - Microsoft Dynamics CRM",
  "resultFolder": "TestResult//",
  "correctView": {
    "dropDownSelector": "#crmGrid_SavedNewQuerySelector",
    "menuItemSelector": "ul.ms-crm-VS-Menu li a.ms-crm-VS-MenuItem-Anchor[title=\"Accounts\"] nobr"
  },
  "isSelectedForm": true,
  "uploadConfig": {
    "isExecute": false,
    "path": "upload_config"
  },
  "correctForm": {
    "dropDownSelector": "#formselectorcontainer .ms-crm-FormSelector",
    "menuItemSelector": "ul.ms-crm-FS-Menu li a.ms-crm-FS-MenuItem-Anchor[title=\"E1 Account\"] nobr"
  },
  "timeSpan": "30",
  "jqFields": {
    "IterationCount": 30,
    "IterationTime": 2
  },
  "fields": {
    "formselectorcontainer": "PROJECT : E1 PROJECT",
    //Program Information
    "ddsm_recordtype_d": "Project",
    "ddsm_programid_d": "Efficient Product Rebates (Residential) 2016",
    "ddsm_programoffering_d": "Appliance Retirement 2016",
    "ddsm_projectgroupid_d": "ARET 2016-44580",
    //Project Overview
    //General
    "ddsm_projecttemplateid_d": "ARET 2016",
    // "ddsm_name_d": "138753-ARet-Alden Landry",
    "ddsm_projecttype_d": "Rebate",
    "ddsm_referencenumber_d": "546733",
    "ddsm_opportunityreferencenumber_d": ["--", "$0.00"],
    "ddsm_participantreferencenumber_d": ["--", "$0.00"],
    "ddsm_referredbyprogramoffering_d": ["--", "$0.00"],
    //Project Status
    "ddsm_phase_d": "3. Claimed",
    "ddsm_projectstatus_d": "6-Payment Initiated",
    "ddsm_responsible_d": "AP",
    "ddsm_pendingmilestone_d": "Payment Processed",
    "ddsm_completedmilestone_d": "Payment Initiated",
    "ddsm_milestoneactualend_d": "--",
    "ddsm_milestoneclaimdate_d": "2/1/2016",
    //EfficiencyOne Stakeholders
    "ddsm_pcid_d": ["--", "$0.00"],
    "ddsm_bdleadid_d": ["--", "$0.00"],
    "ddsm_businessdevelopmentmanagerid_d": ["--", "$0.00"],
    "ddsm_onsiteenergymanager_d": ["--", "$0.00"],
    //Project Notes
    "ddsm_description": "left v/m offered 2/1 10-2pm 12/21/2015 9:38:52 AM CChapelle1",
    //Project Dates
    "ddsm_startdate_d": "12/17/2015",
    "ddsm_enddate_d": ["--", "$0.00"],
    "ddsm_estimatedprojectcomplete_d": "2/13/2016",
    "ddsm_pendingactualstart_d": "2/6/2016",
    "ddsm_pendingtargetend_d": "2/13/2016",
    "ddsm_partnerinitialcontactdate_d": "12/17/2015",
    "ddsm_projectpreapprovaldate_d": ["--", "$0.00"],
    "ddsm_projectapprovaldate_d": "2/11/2016",
    "ddsm_projectverificationdate_d": ["--", "$0.00"],
    "ddsm_verificationdate_d": ["--", "$0.00"],
    "ddsm_projectcloseddate_d": ["--", "$0.00"],
    "ddsm_discontinueddate_d": ["--", "$0.00"],
    "ddsm_projectexpirationdate_d": ["--", "$0.00"],
    //Incentive Information
    //Incentive Payments
    "ddsm_incentivepaymentgross_d": "$30.00",
    "ddsm_oemrecoverycost_d": ["--", "$0.00"],
    "ddsm_incentivepaymentnet_d": "$30.00",
    //Incentive Costs
    "ddsm_incentivecostmeasure_d": "$108.04",
    "ddsm_incentivecostpartner_d": ["--", "$0.00"],
    "ddsm_incentivecostfinancing_d": ["--", "$0.00"],
    "ddsm_incentivecostproject_d": ["--", "$0.00"],
    "ddsm_incentivecosttotal_d": "$108.04",
    // Incentive Totals
    "ddsm_totalincentive_d": "$138.04",
    "ddsm_totalincentivedsm_d": "$138.04",
    "ddsm_totalincentivepns_d": ["--", "$0.00"],
    //Savings Information
    //Tracked Energy - kWh
    "ddsm_kwhgrosssavingsatmeter_d": "871.0000",
    "ddsm_kwhgrosssavingsatgenerator_d": "958.1000",
    "ddsm_kwhnetsavingsatgenerator_d": "488.6310",
    "ddsm_energycharge_d": "0.14954000",
    //Tracked Demand - kW
    "ddsm_kwgrosssavingsatmeter_d": "0.1385",
    "ddsm_kwgrosssavingsatgenerator_d": "0.1524",
    "ddsm_kwnetsavingsatgenerator_d": "0.0777",
    //Tracked Energy - GJ
    "ddsm_gjsavingsatmeter_d": ["--", "$0.00", "0.0000"],
    //Evaluated Energy - kWh
    "ddsm_evaluatedkwhnetsavingsatgenerator_d": ["--", "$0.00"],
    //Evaluated Demand - kW
    "ddsm_evaluatedkwnetsavingsatgenerator_d": ["--", "$0.00"],
    //RDI/RPC Final Email (kWh Gr Sav Met X $0.149)
    "ddsm_kwhsavingsatmeterperyear_d": "$130.25",
    //Project Stakeholders
    "ddsm_accountid_d": "Lida Wood",
    "ddsm_parentsiteid_d": "943 Belmont Road Belmont-Lida Wood",
    "ddsm_primarycontactid_d": ["--", "$0.00"],
    "ddsm_primarycontacttitle_d": ["--", "$0.00"],
    "ddsm_address1_d": "943 Belmont Road",
    "ddsm_address2_d": ["--", "$0.00"],
    "ddsm_city_d": "Belmont",
    "ddsm_province_d": "NS",
    "ddsm_county_d": ["--", "$0.00"],
    "ddsm_postalcode_d": "B0M1C0",
    "ddsm_buildingtype_d": ["--", "$0.00"],
    "ddsm_utility_d": "Nova Scotia Power Inc.",
    "ddsm_rateclass_d": "Residential",
    "ddsm_propertymanager_d": ["--", "$0.00"],
    //Account & Site Information
    //Payee Information
    "ddsm_payeeaddress1_d": "943 Belmont Road",
    "ddsm_payeeaddress2_d": ["--", "$0.00"],
    "ddsm_payeecity_d": "Belmont",
    "ddsm_payeestate_d": "NS",
    "ddsm_payeezipcode_d": "B0M1C0",
    "ddsm_payeecompany_d": "Lida Wood",
    "ddsm_payeename_d": "Lida Wood",
    "ddsm_payeeattnto_d": ["--", "$0.00"],
    //"ddsm_payeenumber_d": "D1039334",
    "ddsm_payeephone_d": ["--", "$0.00"],
    "ddsm_payeeemail_d": ["--", "$0.00"],
    "ddsm_taxentity_d": ["--", "$0.00"],
    "ddsm_taxid_d": ["--", "$0.00"],
    "ddsm_payeepreference_d": "Account",
    //On Hold/Discontinued
    //Discontinued
    "ddsm_discontinueddateentry_d": ["--", "$0.00"],
    // "ddsm_discontinuedreasonentry_d": ["--", "$0.00"],
    "ddsm_discontinuedreason_d": ["--", "$0.00"],
    "ddsm_discontinuedcost_d": ["--", "$0.00"],
    //System
    "statecode_d": "Active",
    "createdby_d": "AGS Admin",
    "ownerid_d": "ARET"
  },
  "transist": [
    //Second step tabs
    {
      "subgridId": "Cycle_Projects_divDataArea",
      "columnNumber": 2,
      "subgridRecordName": "ARet-Lida Wood",
      "subgridFrameId": "contentIFrame0",
      "formFrameId": "contentIFrame0",
      "correctTransistForm": {
        "dropDownSelector": "#formselectorcontainer .ms-crm-FormSelector",
        "menuItemSelector": "ul.ms-crm-FS-Menu li a.ms-crm-FS-MenuItem-Anchor[title=\"E1 Project\"] nobr"
      },
      "isSelectedForm": true,
      "tabs": [
        "tab_20_content",
        "Tab_ProjectSummary_content",
        "tab_26_content",
        "tab_22_content",
        "Tab_Measures_content",
        "tab_23_content",
        "tab_24_content",
        "Tab_Financials_content",
        "Tab_Notes_content",
        "Tab_OnHoldDiscontinued_content",
        "Tab_System_content",
        "AttachmentDocuments_Tab_content"
      ]
    }
  ],
  "visibleElements": [
    "table[name=\"tab_recordwall_section_1\"]",
    "table[name=\"tab_6_section_1\"]",
    "table[name=\"tab_15_section_1\"]",
    "table[name=\"tab_14_section_1\"]"
  ],
  "invisibleFields": [],
  //First step tabs
  "tabs": [
    "tab_NotesActivities_content",
    "tab_9_content"
   ],
   "visibleTabs": [
    "Program Information",
    "Project Overview",
    "Incentive Information",
    "Savings Information",
    "Measures",
    "Account & Site Information",
    "Implementation Sites Measures",
    "Cases",
    "Claims",
    "Studys",
    "Financials",
    "Docs/Activities",
    "On Hold/Discontinued",
    "System"
  ],
    "fieldsCorrectFormat": [
    {
      "fieldSelector": "#ddsm_accountnumber_d",
      "format": "D[0-9]{7}"
    },
    {
      "fieldSelector": "#ddsm_payeenumber_d",
      "format": "D[0-9]{7}"
    },
    {
      "fieldSelector": "#ddsm_sitenumber_d",
      "format": "D[0-9]{10}"
    },
    {
      "fieldSelector": "#createdby_d",
      "format": "[a-zA-Z0-9]"
    }
  ]  
}