{
  "seleniumDriverPath": "c:\\Selenium",
  "recordName": "*Lida Wood*",
  "url": "https://Administrator:oGpjM9iE@dev4.ddsm.online/EfficiencyOneDDSM/main.aspx#465963008",
  "frame": "contentIFrame0",
  "rowAccSelector": ".ms-crm-List-DataCell:nth-child(3) a",
  "pageTitle": "Accounts Accounts - Microsoft Dynamics CRM",
  "resultFolder": "TestResult//",
  "correctView": {
    "dropDownSelector": "#crmGrid_SavedNewQuerySelector",
    "menuItemSelector": "ul.ms-crm-VS-Menu li a.ms-crm-VS-MenuItem-Anchor[title=\"Accounts\"] nobr"
  },
  "isSelectedForm": true,
  "uploadConfig": {
    "isExecute": false,
    "path": "upload_config"
  },
  "correctForm": {
    "dropDownSelector": "#formselectorcontainer .ms-crm-FormSelector",
    "menuItemSelector": "ul.ms-crm-FS-Menu li a.ms-crm-FS-MenuItem-Anchor[title=\"E1 Account\"] nobr"
  },
  "timeSpan": "30",
  "jqFields": {
    "IterationCount": 30,
    "IterationTime": 2
  },
  "fields": {
    "formselectorcontainer": "RATE CLASS : INFORMATION",
    //General
    "ddsm_name_d": "Refrigerator Retirement",
    "ownerid_d": "ARET",
    "ddsm_manuallymodified_d": ["--", "$0.00"],
    "ddsm_measureid_d": "Refrigerator Retirement",
    "ddsm_ratecodereferenceid_d": ["--", "$0.00"],
    "ddsm_ratecode_d": "NSP_02",
    "ddsm_ratecodetext_d": ["--", "$0.00"],
    "ddsm_rateclass_d": "Residential",
    "ddsm_programofferingid_d": "Appliance Retirement 2016",
    //Savings and Incentives
    "ddsm_kwhgrosssavingsatmeter_d": "871.0000000000",
    "ddsm_kwhgrosssavingsatgenerator_d": "958.1000000000",
    "ddsm_kwhnetsavingsatgenerator_d": "488.6310000000",
    "ddsm_kwgrosssavingsatmeter_d": "0.1385000000",
    "ddsm_kwgrosssavingsatgenerator_d": "0.1524000000",
    "ddsm_kwnetsavingsatgenerator_d": "0.0777000000",
    "ddsm_totalincentivedsm_d": "$138.04",
    "ddsm_evaluatedkwnetsavingsatgenerator_d": "--"
  },
  "transist": [
    //Second step tabs
    {
      "subgridId": "Cycle_Projects_divDataArea",
      "columnNumber": 2,
      "subgridRecordName": "ARet-Lida Wood",
      "subgridFrameId": "contentIFrame0",
      "formFrameId": "contentIFrame0",
      "correctTransistForm": {
        "dropDownSelector": "#formselectorcontainer .ms-crm-FormSelector",
        "menuItemSelector": "ul.ms-crm-FS-Menu li a.ms-crm-FS-MenuItem-Anchor[title=\"E1 Project\"] nobr"
      },
      "isSelectedForm": true,
      "tabs": [
        "tab_20_content",
        "Tab_ProjectSummary_content",
        "tab_26_content",
        "tab_22_content",
        "Tab_Measures_content",
        "tab_23_content",
        "tab_24_content",
        "Tab_Financials_content",
        "Tab_Notes_content",
        "Tab_OnHoldDiscontinued_content",
        "Tab_System_content"
      ]
    },
    //Third step tabs
    {
      "subgridId": "SmartMeasure_view_divDataArea",
      "columnNumber": 2,
      "subgridRecordName": "Refrigerator Retirement",
      "subgridFrameId": "contentIFrame0",
      "formFrameId": "contentIFrame0",
      "correctTransistForm": {
        "dropDownSelector": "#formselectorcontainer .ms-crm-FormSelector",
        "menuItemSelector": "ul.ms-crm-FS-Menu li a.ms-crm-FS-MenuItem-Anchor[title=\"E1 Measure\"] nobr"
      },
      "isSelectedForm": true,
      "tabs": [
        "tab_13_content",
        "tab_21_content",
        "tab_14_content",
        "Heat Pump Technical Information_content",
        "Green Heat - Additional Measure Details_content",
        "tab_23_content",
        "tab_11_content",
        "tab_16_content",
        "tab_18_content",
        "tab_17_content",
        "tab_19_content",
        "tab_20_content",
        "tab_8_content",
        "General_content",
        "tab_22_content",
        "tab_24_content",
        "tab_15_content"
      ]
    },
    //Fourth step tabs
    {
      "subgridId": "RateClasses_divDataArea",
      "columnNumber": 2,
      "subgridRecordName": "Refrigerator Retirement",
      "subgridFrameId": "contentIFrame0",
      "formFrameId": "contentIFrame0",
      "correctTransistForm": {
        "dropDownSelector": "",
        "menuItemSelector": ""
      },
      "isSelectedForm": false,
      "tabs": [
        "tab_3_content"
      ]
    }
  ],
  "visibleElements": [],
  "invisibleFields": [],
  //First step tabs
  "tabs": [
    "tab_NotesActivities_content",
    "tab_9_content"
  ],
     "visibleTabs": [
    "General",
    "Savings and Incentives"
  ],
  "fieldsCorrectFormat": [
    {
      "fieldSelector": "#ownerid_d",
      "format": "[a-zA-Z0-9]"
    }
  ]  
}