<?xml version="1.0" encoding="UTF-8" standalone="no"?>
<svg
   xmlns:dc="http://purl.org/dc/elements/1.1/"
   xmlns:cc="http://creativecommons.org/ns#"
   xmlns:rdf="http://www.w3.org/1999/02/22-rdf-syntax-ns#"
   xmlns:svg="http://www.w3.org/2000/svg"
   xmlns="http://www.w3.org/2000/svg"
   xmlns:sodipodi="http://sodipodi.sourceforge.net/DTD/sodipodi-0.dtd"
   xmlns:inkscape="http://www.inkscape.org/namespaces/inkscape"
   version="1.0"
   width="2481.000000pt"
   height="540.000000pt"
   viewBox="0 0 2481.000000 540.000000"
   preserveAspectRatio="xMidYMid meet"
   id="svg2"
   inkscape:version="0.91 r13725"
   sodipodi:docname="efficiency_logo_lg-3-1.svg"
   inkscape:export-filename="C:\Users\Eugen\Desktop\efficiency_logo_lg.png"
   inkscape:export-xdpi="4.3945084"
   inkscape:export-ydpi="4.3945084">
  <metadata
     id="metadata70">
    <rdf:RDF>
      <cc:Work
         rdf:about="">
        <dc:format>image/svg+xml</dc:format>
        <dc:type
           rdf:resource="http://purl.org/dc/dcmitype/StillImage" />
        <dc:title />
      </cc:Work>
    </rdf:RDF>
  </metadata>
  <defs
     id="defs68" />
  <sodipodi:namedview
     pagecolor="#5bd1db"
     bordercolor="#666666"
     borderopacity="1"
     objecttolerance="10"
     gridtolerance="10"
     guidetolerance="10"
     inkscape:pageopacity="0"
     inkscape:pageshadow="2"
     inkscape:window-width="1920"
     inkscape:window-height="1017"
     id="namedview66"
     showgrid="false"
     inkscape:zoom="0.26266409"
     inkscape:cx="1578.0918"
     inkscape:cy="642.07152"
     inkscape:window-x="1912"
     inkscape:window-y="-8"
     inkscape:window-maximized="1"
     inkscape:current-layer="svg2" />
  <g
     transform="translate(0.000000,540.000000) scale(0.100000,-0.100000)"
     fill="#000000"
     stroke="none"
     id="g4">
    <path
       d="M5995 5253 c-286 -14 -517 -59 -699 -138 -140 -60 -284 -197 -358 -340 -57 -111 -87 -205 -132 -418 -20 -91 -36 -168 -36 -171 0 -3 -219 -6 -487 -6 l-487 0 88 -52 c100 -60 232 -178 302 -271 60 -80 134 -230 164 -335 l24 -82 119 0 c119 0 119 0 114 -22 -11 -44 -447 -2096 -447 -2104 0 -2 252 -4 559 -4 524 0 560 1 565 18 3 9 39 179 81 377 42 198 116 547 165 775 48 228 114 538 146 688 l58 272 337 0 337 0 -14 -62 c-46 -210 -434 -2044 -434 -2055 0 -11 101 -13 560 -13 308 0 560 2 560 5 0 7 353 1666 440 2073 l12 52 372 0 372 0 73 348 c40 191 75 357 78 370 l5 22 -365 0 c-201 0 -368 4 -371 8 -9 15 44 236 69 288 18 36 36 57 67 75 43 24 44 24 366 27 177 2 322 6 322 10 0 4 29 144 65 311 36 167 65 307 65 311 0 23 -539 54 -780 45 -527 -19 -815 -106 -1011 -306 l-76 -78 34 162 c18 89 35 167 37 173 11 30 -570 61 -859 47z m650 -705 c-3 -18 -23 -107 -43 -198 l-38 -165 -324 -3 c-179 -1 -330 0 -336 2 -8 3 -4 36 12 111 34 152 43 179 76 219 48 58 84 65 392 65 l268 1 -7 -32z"
       id="path6"
       style="fill:#ffffff" />
    <path
       d="M2255 4290 c-1106 -99 -1827 -659 -2009 -1561 -67 -331 -52 -614 44 -840 135 -318 458 -538 932 -634 184 -37 357 -55 598 -62 1001 -27 1787 280 2160 844 39 59 70 110 70 115 0 4 -267 8 -593 8 l-593 0 -30 -31 c-50 -53 -184 -149 -265 -190 -163 -82 -359 -116 -566 -99 -340 27 -547 153 -624 379 -21 61 -42 220 -33 245 6 15 139 16 1418 16 l1412 0 22 118 c47 252 59 411 43 587 -59 629 -466 988 -1241 1091 -137 18 -600 27 -745 14z m310 -640 c191 -22 331 -80 429 -178 89 -89 146 -227 146 -354 l0 -58 -835 0 -835 0 15 38 c44 106 144 240 240 322 209 180 523 265 840 230z"
       id="path8"
       style="fill:#ffffff" />
    <path
       d="M11028 4219 c-429 -29 -826 -166 -1151 -396 -110 -78 -327 -296 -410 -413 -137 -194 -258 -478 -309 -731 -20 -99 -23 -142 -22 -329 0 -202 2 -221 28 -315 126 -462 472 -725 1066 -812 163 -24 524 -23 680 0 699 108 1187 461 1441 1046 l47 106 -382 3 c-345 2 -382 1 -391 -14 -202 -333 -371 -484 -625 -557 -172 -50 -435 -59 -605 -22 -232 50 -409 220 -471 450 -25 95 -30 284 -10 406 94 568 501 959 1063 1020 425 46 767 -152 800 -462 l6 -59 378 0 379 0 0 94 c0 167 -44 334 -123 470 -76 131 -240 278 -403 359 -150 76 -403 139 -628 157 -141 11 -184 11 -358 -1z"
       id="path10"
       style="fill:#ffffff" />
    <path
       d="M8572 4078 c-11 -57 -127 -602 -257 -1213 -308 -1449 -325 -1530 -325 -1543 0 -9 96 -12 363 -12 l362 0 303 1428 c166 785 302 1430 302 1435 0 4 -164 7 -364 7 l-363 0 -21 -102z"
       id="path12"
       style="fill:#ffffff" />
    <path
       d="M12752 3653 c-61 -291 -168 -793 -237 -1118 -205 -965 -255 -1202 -255 -1214 0 -8 98 -11 363 -11 l362 0 33 158 c18 86 62 292 97 457 223 1045 475 2238 475 2246 0 5 -154 9 -363 9 l-363 0 -112 -527z"
       id="path14"
       style="fill:#ffffff" />
    <path
       d="M17655 4174 c-387 -57 -662 -184 -896 -411 -60 -59 -99 -90 -99 -79 0 9 18 100 40 202 22 103 40 190 40 195 0 5 -257 9 -600 9 l-601 0 99 -50 c294 -150 478 -405 537 -744 29 -172 16 -470 -31 -683 l-16 -73 -1281 -2 -1282 -3 -3 -105 c-4 -136 17 -240 70 -350 33 -69 57 -101 127 -171 166 -166 338 -235 606 -246 402 -15 772 141 985 416 l55 71 283 0 283 0 -18 -31 c-10 -17 -52 -76 -94 -132 -212 -283 -493 -501 -817 -633 l-107 -44 609 3 609 2 74 345 c307 1450 297 1407 387 1560 154 262 435 447 766 504 180 31 443 15 593 -35 135 -45 235 -129 284 -237 38 -83 43 -229 13 -372 -22 -111 -156 -741 -290 -1368 -44 -205 -80 -380 -80 -388 0 -12 38 -14 262 -12 l261 3 54 250 c29 138 89 421 134 630 44 209 110 517 145 685 84 391 94 453 94 577 0 208 -53 349 -179 473 -88 86 -159 131 -274 173 -158 56 -241 68 -487 72 -124 2 -238 1 -255 -1z"
       id="path16"
       style="fill:#ffffff" />
    <path
       d="M20430 4096 c-499 -66 -921 -292 -1225 -656 -293 -352 -460 -884 -404 -1286 56 -401 307 -703 700 -842 545 -192 1272 -68 1729 297 182 145 365 380 454 584 l26 57 -119 0 -119 0 -41 -76 c-228 -422 -626 -675 -1156 -734 -434 -48 -819 78 -1028 335 -66 82 -142 240 -173 360 -34 130 -39 362 -11 493 45 208 151 448 274 622 205 286 516 502 858 595 263 71 572 73 825 5 106 -29 284 -119 369 -186 147 -118 241 -287 241 -436 l0 -58 120 0 120 0 0 98 c0 110 -16 186 -61 281 -127 275 -419 465 -819 535 -130 23 -425 29 -560 12z"
       id="path18"
       style="fill:#ffffff" />
    <path
       d="M21900 4013 c0 -3 50 -175 110 -382 61 -207 169 -574 240 -816 71 -242 196 -669 279 -950 82 -280 152 -522 156 -536 5 -22 -43 -98 -352 -545 -198 -285 -378 -547 -401 -581 l-43 -63 125 0 124 0 170 248 c93 136 348 510 567 832 219 322 601 882 849 1245 247 363 497 730 555 815 184 270 243 356 374 548 l128 187 -133 3 c-97 2 -135 -1 -144 -10 -9 -10 -1210 -1800 -1564 -2330 -35 -54 -67 -94 -71 -90 -3 4 -156 531 -339 1172 -183 641 -339 1186 -347 1213 l-14 47 -134 0 c-74 0 -135 -3 -135 -7z"
       id="path20"
       style="fill:#ffffff" />
    <path
       d="M14730 3734 c-337 -43 -595 -167 -808 -388 -97 -101 -168 -202 -218 -313 l-33 -73 989 0 990 0 0 69 c0 353 -217 612 -575 686 -80 16 -279 27 -345 19z"
       id="path22"
       style="fill:#ffffff" />
  </g>
  <g
     style="fill:#000000;stroke:none"
     transform="matrix(0.1,0,0,-0.1,887.44956,538.76111)"
     id="g4-4">
    <path
       inkscape:connector-curvature="0"
       d="m 5183,890 c -200,-36 -333,-162 -379,-357 -28,-121 -5,-231 63,-295 115,-109 417,-109 575,0 131,90 207,252 196,414 -9,113 -65,183 -178,223 -55,19 -206,27 -277,15 z m 206,-126 c 45,-23 57,-35 77,-78 27,-58 30,-99 10,-174 -38,-141 -139,-232 -278,-248 -213,-25 -314,144 -212,353 71,146 264,216 403,147 z"
       id="path24-0"
       style="fill:#ffffff" />
    <path
       inkscape:connector-curvature="0"
       d="m 7824,885 c -149,-32 -234,-121 -234,-243 0,-95 54,-131 246,-163 152,-25 190,-39 206,-74 17,-38 -10,-89 -62,-115 -52,-26 -151,-36 -209,-20 -57,15 -101,58 -101,99 l 0,31 -80,0 -80,0 0,-50 c 0,-129 99,-192 299,-193 242,0 385,90 398,252 9,112 -43,149 -258,182 -187,28 -224,49 -199,115 20,52 84,82 175,83 83,1 139,-25 156,-73 l 13,-36 78,0 c 68,0 78,2 78,18 0,35 -23,98 -43,120 -65,71 -231,100 -383,67 z"
       id="path26-9"
       style="fill:#ffffff" />
    <path
       inkscape:connector-curvature="0"
       d="m 8645,886 c -82,-19 -122,-38 -184,-84 -203,-153 -242,-482 -72,-595 55,-37 114,-50 219,-49 189,1 324,70 407,208 19,32 35,61 35,66 0,4 -35,8 -79,8 -78,0 -79,0 -91,-30 -21,-50 -83,-106 -144,-129 -180,-67 -330,46 -297,223 21,115 86,212 174,258 56,30 184,32 239,4 45,-22 78,-71 78,-115 l 0,-31 80,0 80,0 0,43 c 0,93 -66,175 -170,212 -63,23 -201,28 -275,11 z"
       id="path28-7"
       style="fill:#ffffff" />
    <path
       inkscape:connector-curvature="0"
       d="m 9536,889 c -231,-38 -387,-221 -389,-455 -1,-68 3,-89 24,-130 51,-100 154,-147 319,-147 103,1 194,19 262,54 54,28 143,112 175,167 57,97 80,249 52,343 -41,134 -226,205 -443,168 z m 175,-111 c 117,-39 155,-142 109,-291 -15,-49 -33,-80 -70,-120 -68,-75 -130,-101 -235,-102 -103,0 -159,27 -192,95 -55,108 -1,293 108,371 74,52 202,74 280,47 z"
       id="path30-1"
       style="fill:#ffffff" />
    <path
       inkscape:connector-curvature="0"
       d="m 3982,633 c -29,-136 -63,-297 -76,-356 l -24,-108 71,3 71,3 55,263 c 30,144 58,262 61,262 3,0 74,-120 159,-265 l 155,-265 81,0 82,0 75,353 74,352 -64,3 c -39,2 -68,-1 -72,-8 -3,-5 -30,-125 -60,-265 -30,-140 -57,-252 -62,-247 -4,4 -75,123 -156,263 l -147,254 -85,3 -86,3 -52,-248 z"
       id="path40-0"
       style="fill:#ffffff" />
    <path
       inkscape:connector-curvature="0"
       d="m 5730,874 c 0,-3 36,-161 80,-351 44,-190 80,-347 80,-349 0,-2 35,-4 78,-4 l 77,0 228,349 c 125,191 227,351 227,355 0,4 -34,6 -76,4 l -76,-3 -171,-279 C 6041,374 6005,321 5998,336 c -4,10 -28,127 -53,259 -25,132 -48,250 -50,263 -5,21 -11,22 -85,22 -44,0 -80,-3 -80,-6 z"
       id="path42-3"
       style="fill:#ffffff" />
    <path
       inkscape:connector-curvature="0"
       d="m 6533,527 -232,-352 77,-3 c 62,-2 79,0 87,13 6,9 31,49 57,90 l 48,75 169,0 168,0 7,-40 c 3,-22 11,-63 17,-90 l 11,-50 79,0 c 43,0 79,4 79,9 0,5 -36,163 -80,352 -44,188 -80,344 -80,346 0,2 -39,3 -87,3 l -88,0 -232,-353 z m 322,82 c 15,-77 25,-143 22,-145 -2,-3 -57,-3 -121,-2 l -116,3 87,142 c 49,78 91,142 94,143 4,0 19,-63 34,-141 z"
       id="path44-0"
       style="fill:#ffffff" />
    <path
       inkscape:connector-curvature="0"
       d="m 10083,825 -10,-55 134,0 c 123,0 134,-1 129,-17 -3,-10 -31,-137 -61,-283 -31,-146 -58,-273 -61,-282 -5,-16 3,-18 68,-18 l 74,0 64,300 63,300 132,0 133,0 11,44 c 6,25 11,50 11,55 0,8 -107,11 -338,11 l -339,0 -10,-55 z"
       id="path46-0"
       style="fill:#ffffff" />
    <path
       inkscape:connector-curvature="0"
       d="m 10846,863 c -4,-14 -115,-534 -142,-666 l -6,-28 73,3 72,3 73,340 c 41,187 74,346 74,353 0,8 -20,12 -69,12 -58,0 -71,-3 -75,-17 z"
       id="path48-9"
       style="fill:#ffffff" />
    <path
       inkscape:connector-curvature="0"
       d="m 11180,584 c -107,-163 -212,-323 -233,-355 l -37,-59 78,0 79,0 55,88 55,87 170,3 170,2 7,-40 c 3,-22 11,-63 17,-90 l 11,-50 79,0 c 50,0 79,4 79,11 0,10 -145,642 -156,682 -5,14 -18,17 -92,17 l -87,0 -195,-296 z m 286,23 c 15,-76 24,-140 22,-143 -3,-2 -58,-3 -121,-2 l -116,3 56,90 c 101,163 124,197 128,193 3,-2 16,-66 31,-141 z"
       id="path50-3"
       style="fill:#ffffff" />
  </g>
</svg>
