<?xml version="1.0" encoding="UTF-8" standalone="no"?>
<svg
   xmlns:dc="http://purl.org/dc/elements/1.1/"
   xmlns:cc="http://creativecommons.org/ns#"
   xmlns:rdf="http://www.w3.org/1999/02/22-rdf-syntax-ns#"
   xmlns:svg="http://www.w3.org/2000/svg"
   xmlns="http://www.w3.org/2000/svg"
   xmlns:sodipodi="http://sodipodi.sourceforge.net/DTD/sodipodi-0.dtd"
   xmlns:inkscape="http://www.inkscape.org/namespaces/inkscape"
   version="1.0"
   width="2010pt"
   height="540pt"
   viewBox="0 0 2010 540"
   preserveAspectRatio="xMidYMid meet"
   id="svg2"
   inkscape:version="0.91 r13725"
   sodipodi:docname="sourcegas-1.svg"
   inkscape:export-filename="C:\Users\Eugen\Desktop\efficiency_logo_lg.png"
   inkscape:export-xdpi="4.3945084"
   inkscape:export-ydpi="4.3945084">
  <metadata
     id="metadata70">
    <rdf:RDF>
      <cc:Work
         rdf:about="">
        <dc:format>image/svg+xml</dc:format>
        <dc:type
           rdf:resource="http://purl.org/dc/dcmitype/StillImage" />
        <dc:title></dc:title>
      </cc:Work>
    </rdf:RDF>
  </metadata>
  <defs
     id="defs68" />
  <sodipodi:namedview
     pagecolor="#ffffff"
     bordercolor="#666666"
     borderopacity="1"
     objecttolerance="10"
     gridtolerance="10"
     guidetolerance="10"
     inkscape:pageopacity="0"
     inkscape:pageshadow="2"
     inkscape:window-width="1920"
     inkscape:window-height="1017"
     id="namedview66"
     showgrid="false"
     inkscape:zoom="0.26266409"
     inkscape:cx="2061.7888"
     inkscape:cy="337.5"
     inkscape:window-x="-8"
     inkscape:window-y="-8"
     inkscape:window-maximized="1"
     inkscape:current-layer="svg2" />
  <g
     transform="matrix(0.19872963,0,0,-0.19872963,38.005294,537.8506)"
     id="g6"
     style="fill:#000000;stroke:none">
    <path
       d="m 5976,2070 -248,-574 4,-75 c 3,-45 12,-90 23,-111 9,-19 120,-138 246,-265 l 229,-230 0,85 0,85 -115,114 c -118,118 -143,158 -130,209 3,15 60,152 126,304 l 119,277 -2,377 -3,377 -249,-573 z"
       id="path8-6"
       style="fill:#4b9e44;fill-opacity:1"
       inkscape:connector-curvature="0" />
    <path
       d="m 6310,2265 0,-379 119,-276 c 65,-151 122,-285 125,-297 16,-52 -10,-95 -129,-213 l -115,-115 0,-85 0,-85 234,235 c 257,259 266,273 266,392 0,52 -13,89 -146,395 -285,657 -346,798 -350,802 -2,2 -4,-166 -4,-374 z"
       id="path10-5"
       style="fill:#005ca9;fill-opacity:1"
       inkscape:connector-curvature="0" />
    <path
       d="M 391,1145 C 261,1116 148,1043 104,958 95,940 85,895 82,858 78,800 81,783 104,737 152,637 234,592 460,539 680,488 741,468 777,437 841,381 814,297 723,266 652,242 569,236 498,250 384,272 329,315 312,396 l -8,39 -132,3 -132,3 0,-38 C 40,267 143,151 315,93 389,68 407,66 565,65 c 151,0 178,3 245,23 87,28 130,51 183,101 58,54 80,104 85,193 5,91 -15,145 -78,202 -67,60 -131,85 -355,136 -117,27 -227,56 -244,64 -95,50 -52,160 73,186 137,28 274,-28 293,-121 l 6,-29 133,0 134,0 0,28 c 0,92 -80,202 -183,251 -119,57 -320,77 -466,46 z"
       id="path12-9"
       style="fill:#4b9e44;fill-opacity:1"
       inkscape:connector-curvature="0" />
    <path
       d="m 6935,1144 c -201,-43 -357,-182 -415,-373 -14,-45 -20,-92 -20,-165 0,-162 37,-259 141,-371 114,-121 278,-181 477,-173 126,5 195,28 272,89 33,26 52,35 54,27 3,-7 8,-31 13,-53 l 9,-40 87,-3 87,-3 0,286 0,285 -260,0 -260,0 0,-85 0,-85 135,0 c 152,0 152,0 119,-78 -38,-92 -130,-142 -263,-142 -103,0 -167,20 -225,71 -176,155 -143,494 58,596 62,32 181,43 252,23 64,-18 121,-63 146,-115 l 22,-45 132,0 132,0 -9,40 c -25,110 -116,216 -232,271 -124,57 -302,74 -452,43 z"
       id="path14-8"
       style="fill:#005ca9;fill-opacity:1"
       inkscape:connector-curvature="0" />
    <path
       d="m 1491,975 c -183,-41 -316,-154 -362,-307 -18,-58 -21,-88 -17,-172 4,-88 9,-112 36,-169 42,-91 109,-159 198,-203 92,-46 174,-63 300,-64 239,0 416,94 496,267 28,58 32,80 36,172 3,89 1,116 -17,169 -50,148 -158,247 -321,297 -77,23 -267,29 -349,10 z m 242,-186 c 60,-16 122,-83 142,-153 39,-134 1,-295 -84,-351 -79,-53 -218,-51 -295,3 -59,41 -89,106 -94,206 -10,194 76,304 238,306 30,0 72,-5 93,-11 z"
       id="path16-4"
       style="fill:#4b9e44;fill-opacity:1"
       inkscape:connector-curvature="0" />
    <path
       d="m 3870,976 c -87,-24 -156,-69 -201,-130 l -29,-40 0,82 0,82 -135,0 -135,0 0,-445 0,-445 145,0 145,0 0,238 c 0,274 7,310 71,372 52,50 139,75 239,68 l 70,-5 0,112 c 0,94 -3,114 -16,119 -25,10 -105,5 -154,-8 z"
       id="path18-4"
       style="fill:#4b9e44;fill-opacity:1"
       inkscape:connector-curvature="0" />
    <path
       d="m 4385,971 c -87,-23 -128,-41 -185,-81 -103,-73 -163,-176 -180,-312 -30,-245 113,-444 362,-503 82,-19 247,-19 323,0 175,45 299,162 330,313 l 7,32 -139,0 -138,0 -27,-58 c -32,-67 -71,-97 -145,-111 -170,-33 -284,75 -285,269 0,135 60,238 157,270 50,17 152,9 200,-16 30,-15 46,-33 65,-72 l 25,-52 138,0 c 157,0 154,-2 121,93 -32,94 -139,181 -274,222 -86,26 -269,29 -355,6 z"
       id="path20-9"
       style="fill:#4b9e44;fill-opacity:1"
       inkscape:connector-curvature="0" />
    <path
       d="M 5470,975 C 5371,953 5283,905 5214,836 5109,731 5065,593 5089,447 c 16,-97 49,-166 112,-232 101,-106 231,-155 413,-155 228,0 379,77 457,231 16,32 29,61 29,64 0,3 -57,5 -127,5 l -128,0 -16,-29 c -10,-17 -39,-39 -73,-56 -47,-23 -70,-28 -136,-28 -68,0 -88,5 -137,29 -47,24 -61,37 -79,74 -12,25 -24,60 -27,78 l -6,32 374,0 375,0 0,58 c 0,205 -133,386 -329,448 -68,22 -242,27 -321,9 z m 237,-190 c 60,-25 93,-64 114,-137 l 8,-28 -229,0 -229,0 9,30 c 20,70 68,119 138,140 46,14 150,11 189,-5 z"
       id="path22-2"
       style="fill:#4b9e44;fill-opacity:1"
       inkscape:connector-curvature="0" />
    <path
       d="m 8095,983 c -158,-21 -294,-108 -329,-210 -30,-87 -35,-83 127,-83 l 143,0 14,43 c 21,61 76,87 183,87 80,0 105,-7 145,-43 16,-15 22,-32 22,-62 0,-69 -40,-89 -205,-106 -236,-23 -351,-56 -414,-120 -46,-46 -61,-86 -61,-166 0,-157 109,-248 310,-260 124,-8 220,10 311,55 l 76,38 9,-35 9,-36 147,-3 147,-3 -16,43 c -13,35 -17,101 -21,363 -4,284 -6,324 -22,356 -51,99 -198,149 -430,147 -63,0 -128,-3 -145,-5 z m 305,-550 c 0,-82 -25,-138 -77,-173 -30,-20 -51,-26 -116,-29 -134,-6 -197,29 -197,108 1,75 51,104 226,130 69,11 128,22 131,25 4,3 12,6 20,6 9,0 13,-18 13,-67 z"
       id="path24"
       style="fill:#005ca9;fill-opacity:1"
       inkscape:connector-curvature="0" />
    <path
       d="m 9055,977 c -162,-34 -255,-113 -271,-230 -10,-70 3,-114 47,-162 59,-64 89,-75 386,-139 145,-32 200,-56 209,-92 18,-71 -38,-115 -155,-122 -126,-7 -206,29 -231,103 l -12,35 -134,0 c -130,0 -134,-1 -134,-21 0,-85 81,-189 181,-234 92,-41 211,-58 354,-52 175,9 262,36 341,109 62,56 84,106 84,189 0,55 -5,72 -29,110 -50,80 -120,110 -366,159 -174,34 -201,42 -232,72 -30,28 -29,59 3,89 22,20 38,24 106,28 124,5 193,-23 213,-86 6,-22 10,-23 141,-23 l 134,0 0,28 c -1,44 -51,123 -104,163 -80,61 -157,81 -326,85 -91,2 -167,-1 -205,-9 z"
       id="path26"
       style="fill:#005ca9;fill-opacity:1"
       inkscape:connector-curvature="0" />
    <path
       d="m 2272,633 c 4,-372 7,-391 69,-466 118,-143 452,-143 594,-2 l 35,36 0,-61 0,-60 140,0 140,0 -2,443 -3,442 -142,3 -143,3 0,-233 c -1,-351 -15,-412 -105,-458 -37,-18 -65,-24 -115,-24 -82,0 -127,23 -155,79 -18,37 -20,64 -23,338 l -3,297 -145,0 -145,0 3,-337 z"
       id="path28"
       style="fill:#4b9e44;fill-opacity:1"
       inkscape:connector-curvature="0" />
  </g>
</svg>
