<?xml version="1.0" encoding="UTF-8" standalone="no"?>
<!-- Generated by IcoMoon.io -->

<svg
   xmlns:dc="http://purl.org/dc/elements/1.1/"
   xmlns:cc="http://creativecommons.org/ns#"
   xmlns:rdf="http://www.w3.org/1999/02/22-rdf-syntax-ns#"
   xmlns:svg="http://www.w3.org/2000/svg"
   xmlns="http://www.w3.org/2000/svg"
   xmlns:sodipodi="http://sodipodi.sourceforge.net/DTD/sodipodi-0.dtd"
   xmlns:inkscape="http://www.inkscape.org/namespaces/inkscape"
   version="1.1"
   width="702"
   height="102"
   viewBox="0 0 702 102"
   id="svg2"
   inkscape:version="0.91 r13725"
   sodipodi:docname="sprite.svg">
  <metadata
     id="metadata146">
    <rdf:RDF>
      <cc:Work
         rdf:about="">
        <dc:format>image/svg+xml</dc:format>
        <dc:type
           rdf:resource="http://purl.org/dc/dcmitype/StillImage" />
      </cc:Work>
    </rdf:RDF>
  </metadata>
  <defs
     id="defs144" />
  <sodipodi:namedview
     pagecolor="#ffffff"
     bordercolor="#666666"
     borderopacity="1"
     objecttolerance="10"
     gridtolerance="10"
     guidetolerance="10"
     inkscape:pageopacity="0"
     inkscape:pageshadow="2"
     inkscape:window-width="1920"
     inkscape:window-height="1017"
     id="namedview142"
     showgrid="false"
     inkscape:zoom="1.6410256"
     inkscape:cx="351"
     inkscape:cy="38.8125"
     inkscape:window-x="-8"
     inkscape:window-y="-8"
     inkscape:window-maximized="1"
     inkscape:current-layer="icon-date_range-0" />
  <svg
     id="icon-schedule"
     width="22"
     height="22"
     viewBox="0 0 22 22"
     x="0"
     y="0"
     version="1.1"
     style="fill:#2562a0;fill-opacity:1">
    <path
       fill="#fff"
       d="M11.473 6.402v4.813l4.125 2.449-0.688 1.16-4.813-2.922v-5.5h1.375zM11 18.348c4.039 0 7.348-3.309 7.348-7.348s-3.309-7.348-7.348-7.348-7.348 3.309-7.348 7.348 3.309 7.348 7.348 7.348zM11 1.848c5.070 0 9.152 4.082 9.152 9.152s-4.082 9.152-9.152 9.152-9.152-4.082-9.152-9.152 4.082-9.152 9.152-9.152z"
       id="path5"
       style="fill:#2562a0;fill-opacity:1" />
  </svg>
  <svg
     id="icon-add"
     width="22"
     height="22"
     viewBox="0 0 22 22"
     x="40"
     y="0"
     version="1.1"
     style="fill:#2562a0;fill-opacity:1">
    <path
       fill="#fff"
       d="M17.402 11.902h-5.5v5.5h-1.805v-5.5h-5.5v-1.805h5.5v-5.5h1.805v5.5h5.5v1.805z"
       id="path8"
       style="fill:#2562a0;fill-opacity:1" />
  </svg>
  <svg
     id="icon-apps"
     width="22"
     height="22"
     viewBox="0 0 22 22"
     x="80"
     y="0"
     version="1.1"
     style="fill:#2562a0;fill-opacity:1">
    <path
       fill="#fff"
       d="M14.652 18.348v-3.695h3.695v3.695h-3.695zM14.652 12.848v-3.695h3.695v3.695h-3.695zM9.152 7.348v-3.695h3.695v3.695h-3.695zM14.652 3.652h3.695v3.695h-3.695v-3.695zM9.152 12.848v-3.695h3.695v3.695h-3.695zM3.652 12.848v-3.695h3.695v3.695h-3.695zM3.652 18.348v-3.695h3.695v3.695h-3.695zM9.152 18.348v-3.695h3.695v3.695h-3.695zM3.652 7.348v-3.695h3.695v3.695h-3.695z"
       id="path11"
       style="fill:#2562a0;fill-opacity:1" />
  </svg>
  <svg
     id="icon-archive"
     width="22"
     height="22"
     viewBox="0 0 22 22"
     x="120"
     y="0"
     version="1.1"
     style="fill:#2562a0;fill-opacity:1">
    <path
       fill="#fff"
       d="M4.684 4.598h12.633l-0.859-0.945h-11zM11 16.027l5.027-5.027h-3.18v-1.848h-3.695v1.848h-3.18zM18.82 4.813c0.258 0.301 0.43 0.73 0.43 1.16v11.43c0 0.988-0.859 1.848-1.848 1.848h-12.805c-0.988 0-1.848-0.859-1.848-1.848v-11.43c0-0.43 0.172-0.859 0.43-1.16l1.246-1.547c0.258-0.301 0.645-0.516 1.074-0.516h11c0.43 0 0.816 0.215 1.074 0.516z"
       id="path14"
       style="fill:#2562a0;fill-opacity:1" />
  </svg>
  <svg
     id="icon-attach_file"
     width="22"
     height="22"
     viewBox="0 0 22 22"
     x="160"
     y="0"
     version="1.1"
     style="fill:#2562a0;fill-opacity:1">
    <path
       fill="#fff"
       d="M15.125 5.5h1.375v10.527c0 2.793-2.234 5.070-5.027 5.070s-5.070-2.277-5.070-5.070v-11.43c0-2.020 1.676-3.695 3.695-3.695s3.652 1.676 3.652 3.695v9.625c0 1.246-1.031 2.277-2.277 2.277s-2.32-1.031-2.32-2.277v-8.723h1.375v8.723c0 0.516 0.43 0.902 0.945 0.902s0.902-0.387 0.902-0.902v-9.625c0-1.246-1.031-2.32-2.277-2.32s-2.32 1.074-2.32 2.32v11.43c0 2.020 1.676 3.695 3.695 3.695s3.652-1.676 3.652-3.695v-10.527z"
       id="path17"
       style="fill:#2562a0;fill-opacity:1" />
  </svg>
  <svg
     id="icon-attach_money"
     width="22"
     height="22"
     viewBox="0 0 22 22"
     x="200"
     y="0"
     version="1.1"
     style="fill:#2562a0;fill-opacity:1">
    <path
       fill="#fff"
       d="M10.828 10.012c2.063 0.559 4.297 1.375 4.297 3.996 0 1.891-1.418 2.922-3.223 3.266v1.977h-2.75v-1.977c-1.762-0.387-3.223-1.504-3.352-3.523h2.020c0.086 1.074 0.816 1.934 2.707 1.934 2.020 0 2.492-0.988 2.492-1.633 0-0.859-0.473-1.676-2.75-2.234-2.578-0.602-4.297-1.676-4.297-3.781 0-1.762 1.418-2.922 3.18-3.309v-1.977h2.75v2.020c1.934 0.473 2.922 1.891 2.965 3.48h-2.020c-0.043-1.16-0.688-1.934-2.32-1.934-1.547 0-2.449 0.73-2.449 1.719 0 0.859 0.688 1.418 2.75 1.977z"
       id="path20"
       style="fill:#2562a0;fill-opacity:1" />
  </svg>
  <svg
     id="icon-block"
     width="22"
     height="22"
     viewBox="0 0 22 22"
     x="240"
     y="0"
     version="1.1"
     style="fill:#2562a0;fill-opacity:1">
    <path
       fill="#fff"
       d="M11 18.348c4.039 0 7.348-3.309 7.348-7.348 0-1.676-0.559-3.266-1.547-4.512l-10.313 10.313c1.246 0.988 2.836 1.547 4.512 1.547zM3.652 11c0 1.676 0.559 3.266 1.547 4.512l10.313-10.313c-1.246-0.988-2.836-1.547-4.512-1.547-4.039 0-7.348 3.309-7.348 7.348zM11 1.848c5.070 0 9.152 4.082 9.152 9.152s-4.082 9.152-9.152 9.152-9.152-4.082-9.152-9.152 4.082-9.152 9.152-9.152z"
       id="path23"
       style="fill:#2562a0;fill-opacity:1" />
  </svg>
  <svg
     id="icon-build"
     width="22"
     height="22"
     viewBox="0 0 22 22"
     x="280"
     y="0"
     version="1.1"
     style="fill:#2562a0;fill-opacity:1">
    <path
       fill="#fff"
       d="M20.797 17.402c0.387 0.258 0.387 0.902-0.086 1.289l-2.105 2.105c-0.387 0.387-0.902 0.387-1.289 0l-8.336-8.336c-2.105 0.816-4.555 0.387-6.316-1.375-1.848-1.848-2.32-4.598-1.203-6.789l4.039 3.953 2.75-2.75-3.953-3.953c2.191-0.988 4.941-0.645 6.789 1.203 1.762 1.762 2.191 4.211 1.375 6.316z"
       id="path26"
       style="fill:#2562a0;fill-opacity:1" />
  </svg>
  <svg
     id="icon-business_center"
     width="22"
     height="22"
     viewBox="0 0 22 22"
     x="320"
     y="0"
     version="1.1"
     style="fill:#2562a0;fill-opacity:1">
    <path
       fill="#fff"
       d="M12.848 6.402v-1.805h-3.695v1.805h3.695zM18.348 6.402c0.988 0 1.805 0.859 1.805 1.848v2.75c0 0.988-0.816 1.848-1.805 1.848h-5.5v-1.848h-3.695v1.848h-5.5c-1.031 0-1.805-0.816-1.805-1.848v-2.75c0-0.988 0.816-1.848 1.805-1.848h3.652v-1.805l1.848-1.848h3.652l1.848 1.848v1.805h3.695zM9.152 14.652h3.695v-0.902h6.402v3.652c0 1.031-0.816 1.848-1.848 1.848h-12.805c-1.031 0-1.848-0.816-1.848-1.848v-3.652h6.402v0.902z"
       id="path29"
       style="fill:#2562a0;fill-opacity:1" />
  </svg>
  <svg
     id="icon-check"
     width="22"
     height="22"
     viewBox="0 0 22 22"
     x="360"
     y="0"
     version="1.1"
     style="fill:#2562a0;fill-opacity:1">
    <path
       fill="#fff"
       d="M8.25 14.824l9.711-9.711 1.289 1.289-11 11-5.113-5.113 1.289-1.289z"
       id="path32"
       style="fill:#2562a0;fill-opacity:1" />
  </svg>
  <svg
     id="icon-close"
     width="22"
     height="22"
     viewBox="0 0 22 22"
     x="400"
     y="0"
     version="1.1"
     style="fill:#2562a0;fill-opacity:1">
    <path
       fill="#fff"
       d="M17.402 5.887l-5.113 5.113 5.113 5.113-1.289 1.289-5.113-5.113-5.113 5.113-1.289-1.289 5.113-5.113-5.113-5.113 1.289-1.289 5.113 5.113 5.113-5.113z"
       id="path35"
       style="fill:#2562a0;fill-opacity:1" />
  </svg>
  <svg
     id="icon-content_paste"
     width="22"
     height="22"
     viewBox="0 0 22 22"
     x="440"
     y="0"
     version="1.1"
     style="fill:#2562a0;fill-opacity:1">
    <path
       fill="#fff"
       d="M17.402 18.348v-14.695h-1.805v2.75h-9.195v-2.75h-1.805v14.695h12.805zM11 1.848c-0.516 0-0.902 0.387-0.902 0.902s0.387 0.902 0.902 0.902 0.902-0.387 0.902-0.902-0.387-0.902-0.902-0.902zM17.402 1.848c0.988 0 1.848 0.816 1.848 1.805v14.695c0 0.988-0.859 1.805-1.848 1.805h-12.805c-0.988 0-1.848-0.816-1.848-1.805v-14.695c0-0.988 0.859-1.805 1.848-1.805h3.824c0.387-1.074 1.375-1.848 2.578-1.848s2.191 0.773 2.578 1.848h3.824z"
       id="path38"
       style="fill:#2562a0;fill-opacity:1" />
  </svg>
  <svg
     id="icon-mode_edit"
     width="22"
     height="22"
     viewBox="0 0 22 22"
     x="480"
     y="0"
     version="1.1"
     style="fill:#2562a0;fill-opacity:1">
    <path
       fill="#fff"
       d="M18.992 6.445l-1.676 1.676-3.438-3.438 1.676-1.676c0.344-0.344 0.945-0.344 1.289 0l2.148 2.148c0.344 0.344 0.344 0.945 0 1.289zM2.75 15.813l10.141-10.141 3.438 3.438-10.141 10.141h-3.438v-3.438z"
       id="path41"
       style="fill:#2562a0;fill-opacity:1" />
  </svg>
  <svg
     id="icon-date_range"
     width="22"
     height="22"
     viewBox="0 0 22 22"
     x="520"
     y="0"
     version="1.1"
     style="fill:#2562a0;fill-opacity:1">
    <path
       fill="#fff"
       d="M17.402 18.348v-10.098h-12.805v10.098h12.805zM17.402 3.652c0.988 0 1.848 0.859 1.848 1.848v12.848c0 0.988-0.859 1.805-1.848 1.805h-12.805c-1.031 0-1.848-0.816-1.848-1.805v-12.848c0-0.988 0.816-1.848 1.848-1.848h0.902v-1.805h1.848v1.805h7.305v-1.805h1.848v1.805h0.902zM15.598 10.098v1.805h-1.848v-1.805h1.848zM11.902 10.098v1.805h-1.805v-1.805h1.805zM8.25 10.098v1.805h-1.848v-1.805h1.848z"
       id="path44"
       style="fill:#2562a0;fill-opacity:1" />
  </svg>
  <svg
     id="icon-delete_forever"
     width="22"
     height="22"
     viewBox="0 0 22 22"
     x="560"
     y="0"
     version="1.1"
     style="fill:#2562a0;fill-opacity:1">
    <path
       fill="#fff"
       d="M14.223 3.652h3.18v1.848h-12.805v-1.848h3.18l0.945-0.902h4.555zM7.734 10.871l1.977 1.977-1.934 1.934 1.289 1.289 1.934-1.934 1.934 1.934 1.289-1.289-1.934-1.934 1.934-1.977-1.289-1.289-1.934 1.977-1.934-1.977zM5.5 17.402v-11h11v11c0 0.988-0.859 1.848-1.848 1.848h-7.305c-0.988 0-1.848-0.859-1.848-1.848z"
       id="path47"
       style="fill:#2562a0;fill-opacity:1" />
  </svg>
  <svg
     id="icon-description"
     width="22"
     height="22"
     viewBox="0 0 22 22"
     x="600"
     y="0"
     version="1.1"
     style="fill:#2562a0;fill-opacity:1">
    <path
       fill="#fff"
       d="M11.902 8.25h5.070l-5.070-5.027v5.027zM14.652 12.848v-1.848h-7.305v1.848h7.305zM14.652 16.5v-1.848h-7.305v1.848h7.305zM12.848 1.848l5.5 5.5v11c0 0.988-0.859 1.805-1.848 1.805h-11c-0.988 0-1.848-0.816-1.848-1.805l0.043-14.695c0-0.988 0.816-1.805 1.805-1.805h7.348z"
       id="path50"
       style="fill:#2562a0;fill-opacity:1" />
  </svg>
  <svg
     id="icon-done_all"
     width="22"
     height="22"
     viewBox="0 0 22 22"
     x="640"
     y="0"
     version="1.1"
     style="fill:#2562a0;fill-opacity:1">
    <path
       fill="#fff"
       d="M0.387 12.289l1.289-1.289 5.113 5.113-1.289 1.289zM20.367 5.113l1.332 1.289-11 11-5.156-5.113 1.332-1.289 3.824 3.824zM16.5 6.402l-5.801 5.844-1.289-1.289 5.801-5.844z"
       id="path53"
       style="fill:#2562a0;fill-opacity:1" />
  </svg>
  <svg
     id="icon-markunread"
     width="22"
     height="22"
     viewBox="0 0 22 22"
     x="680"
     y="0"
     version="1.1"
     style="fill:#2562a0;fill-opacity:1">
    <path
       fill="#fff"
       d="M18.348 7.348v-1.848l-7.348 4.598-7.348-4.598v1.848l7.348 4.555zM18.348 3.652c0.988 0 1.805 0.859 1.805 1.848v11c0 0.988-0.816 1.848-1.805 1.848h-14.695c-0.988 0-1.805-0.859-1.805-1.848v-11c0-0.988 0.816-1.848 1.805-1.848h14.695z"
       id="path56"
       style="fill:#2562a0;fill-opacity:1" />
  </svg>
  <svg
     id="icon-euro_symbol"
     width="22"
     height="22"
     viewBox="0 0 22 22"
     x="0"
     y="40"
     version="1.1"
     style="fill:#2562a0;fill-opacity:1">
    <path
       fill="#fff"
       d="M13.75 16.973c1.504 0 2.836-0.559 3.867-1.461l1.633 1.633c-1.461 1.332-3.395 2.105-5.5 2.105-3.609 0-6.66-2.32-7.777-5.5h-3.223v-1.848h2.793c-0.043-0.301-0.043-0.602-0.043-0.902s0-0.602 0.043-0.902h-2.793v-1.848h3.223c1.117-3.18 4.168-5.5 7.777-5.5 2.105 0 4.039 0.773 5.5 2.105l-1.633 1.633c-1.031-0.902-2.406-1.461-3.867-1.461-2.277 0-4.297 1.332-5.285 3.223h5.285v1.848h-5.887c-0.043 0.301-0.086 0.602-0.086 0.902s0.043 0.602 0.086 0.902h5.887v1.848h-5.285c0.988 1.891 2.965 3.223 5.285 3.223z"
       id="path59"
       style="fill:#2562a0;fill-opacity:1" />
  </svg>
  <svg
     id="icon-insert_invitation"
     width="22"
     height="22"
     viewBox="0 0 22 22"
     x="40"
     y="40"
     version="1.1"
     style="fill:#2562a0;fill-opacity:1">
    <path
       fill="#fff"
       d="M17.402 17.402v-10.055h-12.805v10.055h12.805zM14.652 0.902h1.848v1.848h0.902c0.988 0 1.848 0.859 1.848 1.848v12.805c0 0.988-0.859 1.848-1.848 1.848h-12.805c-1.031 0-1.848-0.859-1.848-1.848v-12.805c0-0.988 0.816-1.848 1.848-1.848h0.902v-1.848h1.848v1.848h7.305v-1.848zM15.598 11v4.598h-4.598v-4.598h4.598z"
       id="path62"
       style="fill:#2562a0;fill-opacity:1" />
  </svg>
  <svg
     id="icon-exit_to_app"
     width="22"
     height="22"
     viewBox="0 0 22 22"
     x="80"
     y="40"
     version="1.1"
     style="fill:#2562a0;fill-opacity:1">
    <path
       fill="#fff"
       d="M17.402 2.75c0.988 0 1.848 0.859 1.848 1.848v12.805c0 0.988-0.859 1.848-1.848 1.848h-12.805c-1.031 0-1.848-0.859-1.848-1.848v-3.652h1.848v3.652h12.805v-12.805h-12.805v3.652h-1.848v-3.652c0-0.988 0.816-1.848 1.848-1.848h12.805zM9.238 14.309l2.363-2.406h-8.852v-1.805h8.852l-2.363-2.406 1.289-1.289 4.598 4.598-4.598 4.598z"
       id="path65"
       style="fill:#2562a0;fill-opacity:1" />
  </svg>
  <svg
     id="icon-extension"
     width="22"
     height="22"
     viewBox="0 0 22 22"
     x="120"
     y="40"
     version="1.1"
     style="fill:#2562a0;fill-opacity:1">
    <path
       fill="#fff"
       d="M18.777 10.098c1.246 0 2.32 1.031 2.32 2.277s-1.074 2.277-2.32 2.277h-1.375v3.695c0 0.988-0.816 1.805-1.805 1.805h-3.48v-1.375c0-1.375-1.117-2.449-2.492-2.449s-2.492 1.074-2.492 2.449v1.375h-3.48c-0.988 0-1.805-0.816-1.805-1.805v-3.48h1.375c1.375 0 2.449-1.117 2.449-2.492s-1.074-2.492-2.449-2.492h-1.375v-3.48c0-0.988 0.816-1.805 1.805-1.805h3.695v-1.375c0-1.246 1.031-2.32 2.277-2.32s2.277 1.074 2.277 2.32v1.375h3.695c0.988 0 1.805 0.816 1.805 1.805v3.695h1.375z"
       id="path68"
       style="fill:#2562a0;fill-opacity:1" />
  </svg>
  <svg
     id="icon-get_app"
     width="22"
     height="22"
     viewBox="0 0 22 22"
     x="160"
     y="40"
     version="1.1"
     style="fill:#2562a0;fill-opacity:1">
    <path
       fill="#fff"
       d="M4.598 16.5h12.805v1.848h-12.805v-1.848zM17.402 8.25l-6.402 6.402-6.402-6.402h3.652v-5.5h5.5v5.5h3.652z"
       id="path71"
       style="fill:#2562a0;fill-opacity:1" />
  </svg>
  <svg
     id="icon-file_upload"
     width="22"
     height="22"
     viewBox="0 0 22 22"
     x="200"
     y="40"
     version="1.1"
     style="fill:#2562a0;fill-opacity:1">
    <path
       fill="#fff"
       d="M4.598 16.5h12.805v1.848h-12.805v-1.848zM8.25 14.652v-5.5h-3.652l6.402-6.402 6.402 6.402h-3.652v5.5h-5.5z"
       id="path74"
       style="fill:#2562a0;fill-opacity:1" />
  </svg>
  <svg
     id="icon-folder"
     width="22"
     height="22"
     viewBox="0 0 22 22"
     x="240"
     y="40"
     version="1.1"
     style="fill:#2562a0;fill-opacity:1">
    <path
       fill="#fff"
       d="M9.152 3.652l1.848 1.848h7.348c0.988 0 1.805 0.859 1.805 1.848v9.152c0 0.988-0.816 1.848-1.805 1.848h-14.695c-0.988 0-1.805-0.859-1.805-1.848v-11c0-0.988 0.816-1.848 1.805-1.848h5.5z"
       id="path77"
       style="fill:#2562a0;fill-opacity:1" />
  </svg>
  <svg
     id="icon-home"
     width="22"
     height="22"
     viewBox="0 0 22 22"
     x="280"
     y="40"
     version="1.1"
     style="fill:#2562a0;fill-opacity:1">
    <path
       fill="#fff"
       d="M9.152 18.348h-4.555v-7.348h-2.75l9.152-8.25 9.152 8.25h-2.75v7.348h-4.555v-5.5h-3.695v5.5z"
       id="path80"
       style="fill:#2562a0;fill-opacity:1" />
  </svg>
  <svg
     id="icon-lock"
     width="22"
     height="22"
     viewBox="0 0 22 22"
     x="320"
     y="40"
     version="1.1"
     style="fill:#2562a0;fill-opacity:1">
    <path
       fill="#fff"
       d="M13.836 7.348v-1.848c0-1.547-1.289-2.836-2.836-2.836s-2.836 1.289-2.836 2.836v1.848h5.672zM11 15.598c0.988 0 1.848-0.859 1.848-1.848s-0.859-1.848-1.848-1.848-1.848 0.859-1.848 1.848 0.859 1.848 1.848 1.848zM16.5 7.348c0.988 0 1.848 0.816 1.848 1.805v9.195c0 0.988-0.859 1.805-1.848 1.805h-11c-0.988 0-1.848-0.816-1.848-1.805v-9.195c0-0.988 0.859-1.805 1.848-1.805h0.902v-1.848c0-2.535 2.063-4.598 4.598-4.598s4.598 2.063 4.598 4.598v1.848h0.902z"
       id="path83"
       style="fill:#2562a0;fill-opacity:1" />
  </svg>
  <svg
     id="icon-local_offer"
     width="22"
     height="22"
     viewBox="0 0 22 22"
     x="360"
     y="40"
     version="1.1"
     style="fill:#2562a0;fill-opacity:1">
    <path
       fill="#fff"
       d="M5.027 6.402c0.773 0 1.375-0.602 1.375-1.375s-0.602-1.375-1.375-1.375-1.375 0.602-1.375 1.375 0.602 1.375 1.375 1.375zM19.637 10.613c0.344 0.344 0.516 0.773 0.516 1.289s-0.172 0.945-0.516 1.289l-6.445 6.445c-0.344 0.344-0.773 0.516-1.289 0.516s-0.945-0.172-1.289-0.516l-8.25-8.25c-0.344-0.344-0.516-0.773-0.516-1.289v-6.445c0-0.988 0.816-1.805 1.805-1.805h6.445c0.516 0 0.945 0.172 1.289 0.516z"
       id="path86"
       style="fill:#2562a0;fill-opacity:1" />
  </svg>
  <svg
     id="icon-room"
     width="22"
     height="22"
     viewBox="0 0 22 22"
     x="400"
     y="40"
     version="1.1"
     style="fill:#2562a0;fill-opacity:1">
    <path
       fill="#fff"
       d="M11 10.527c1.246 0 2.277-1.031 2.277-2.277s-1.031-2.277-2.277-2.277-2.277 1.031-2.277 2.277 1.031 2.277 2.277 2.277zM11 1.848c3.566 0 6.402 2.836 6.402 6.402 0 4.813-6.402 11.902-6.402 11.902s-6.402-7.090-6.402-11.902c0-3.566 2.836-6.402 6.402-6.402z"
       id="path89"
       style="fill:#2562a0;fill-opacity:1" />
  </svg>
  <svg
     id="icon-loyalty"
     width="22"
     height="22"
     viewBox="0 0 22 22"
     x="440"
     y="40"
     version="1.1"
     style="fill:#2562a0;fill-opacity:1">
    <path
       fill="#fff"
       d="M15.813 14.008c0.43-0.43 0.688-0.988 0.688-1.633 0-1.246-1.031-2.277-2.277-2.277-0.645 0-1.203 0.215-1.633 0.645l-0.688 0.688-0.645-0.688c-0.43-0.43-0.988-0.645-1.633-0.645-1.246 0-2.277 1.031-2.277 2.277 0 0.645 0.215 1.203 0.645 1.633l3.91 3.91zM5.027 6.402c0.773 0 1.375-0.602 1.375-1.375s-0.602-1.375-1.375-1.375-1.375 0.602-1.375 1.375 0.602 1.375 1.375 1.375zM19.637 10.613c0.344 0.344 0.516 0.773 0.516 1.289s-0.172 0.945-0.516 1.289l-6.445 6.445c-0.344 0.344-0.773 0.516-1.289 0.516s-0.945-0.172-1.289-0.516l-8.25-8.25c-0.344-0.344-0.516-0.773-0.516-1.289v-6.445c0-0.988 0.816-1.805 1.805-1.805h6.445c0.516 0 0.945 0.172 1.289 0.516z"
       id="path92"
       style="fill:#2562a0;fill-opacity:1" />
  </svg>
  <svg
     id="icon-near_me"
     width="22"
     height="22"
     viewBox="0 0 22 22"
     x="480"
     y="40"
     version="1.1"
     style="fill:#2562a0;fill-opacity:1">
    <path
       fill="#fff"
       d="M19.25 2.75l-6.918 16.5h-0.902l-2.406-6.273-6.273-2.406v-0.902z"
       id="path95"
       style="fill:#2562a0;fill-opacity:1" />
  </svg>
  <svg
     id="icon-notifications"
     width="22"
     height="22"
     viewBox="0 0 22 22"
     x="520"
     y="40"
     version="1.1"
     style="fill:#2562a0;fill-opacity:1">
    <path
       fill="#fff"
       d="M16.5 14.652l1.848 1.848v0.902h-14.695v-0.902l1.848-1.848v-4.555c0-2.836 1.504-5.156 4.125-5.801v-0.645c0-0.773 0.602-1.375 1.375-1.375s1.375 0.602 1.375 1.375v0.645c2.621 0.645 4.125 3.008 4.125 5.801v4.555zM11 20.152c-1.031 0-1.848-0.816-1.848-1.805h3.695c0 0.988-0.859 1.805-1.848 1.805z"
       id="path98"
       style="fill:#2562a0;fill-opacity:1" />
  </svg>
  <svg
     id="icon-notifications_active"
     width="22"
     height="22"
     viewBox="0 0 22 22"
     x="560"
     y="40"
     version="1.1"
     style="fill:#2562a0;fill-opacity:1">
    <path
       fill="#fff"
       d="M11 20.152c-1.031 0-1.848-0.816-1.848-1.805h3.652c0 1.067-0.8 1.805-1.805 1.805zM16.5 10.098v4.555l1.848 1.848v0.902h-14.695v-0.902l1.848-1.848v-4.555c0-2.836 1.504-5.156 4.125-5.801v-0.645c0-0.773 0.602-1.375 1.375-1.375s1.375 0.602 1.375 1.375v0.645c2.621 0.645 4.125 3.008 4.125 5.801zM18.305 9.625c-0.129-2.449-1.375-4.555-3.223-5.887l1.289-1.289c2.191 1.676 3.652 4.254 3.781 7.176h-1.848zM6.961 3.738c-1.891 1.332-3.137 3.438-3.266 5.887h-1.848c0.129-2.922 1.59-5.5 3.781-7.176z"
       id="path101"
       style="fill:#2562a0;fill-opacity:1" />
  </svg>
  <svg
     id="icon-person"
     width="22"
     height="22"
     viewBox="0 0 22 22"
     x="600"
     y="40"
     version="1.1"
     style="fill:#2562a0;fill-opacity:1">
    <path
       fill="#fff"
       d="M11 12.848c2.449 0 7.348 1.203 7.348 3.652v1.848h-14.695v-1.848c0-2.449 4.898-3.652 7.348-3.652zM11 11c-2.020 0-3.652-1.633-3.652-3.652s1.633-3.695 3.652-3.695 3.652 1.676 3.652 3.695-1.633 3.652-3.652 3.652z"
       id="path104"
       style="fill:#2562a0;fill-opacity:1" />
  </svg>
  <svg
     id="icon-pie_chart"
     width="22"
     height="22"
     viewBox="0 0 22 22"
     x="640"
     y="40"
     version="1.1"
     style="fill:#2562a0;fill-opacity:1">
    <path
       fill="#fff"
       d="M11.945 11.945h8.207c-0.43 4.34-3.867 7.777-8.207 8.207v-8.207zM11.945 1.848c4.34 0.43 7.777 3.867 8.207 8.207h-8.207v-8.207zM10.098 1.848v18.305c-4.641-0.473-8.25-4.383-8.25-9.152s3.609-8.68 8.25-9.152z"
       id="path107"
       style="fill:#2562a0;fill-opacity:1" />
  </svg>
  <svg
     id="icon-public"
     width="22"
     height="22"
     viewBox="0 0 22 22"
     x="680"
     y="40"
     version="1.1"
     style="fill:#2562a0;fill-opacity:1">
    <path
       fill="#fff"
       d="M16.414 15.941c1.203-1.289 1.934-3.051 1.934-4.941 0-3.051-1.891-5.715-4.598-6.789v0.387c0 0.988-0.859 1.805-1.848 1.805h-1.805v1.848c0 0.516-0.43 0.902-0.945 0.902h-1.805v1.848h5.5c0.516 0 0.902 0.387 0.902 0.902v2.75h0.902c0.816 0 1.504 0.559 1.762 1.289zM10.098 18.262v-1.762c-0.988 0-1.848-0.859-1.848-1.848v-0.902l-4.383-4.383c-0.129 0.516-0.215 1.074-0.215 1.633 0 3.738 2.836 6.832 6.445 7.262zM11 1.848c5.070 0 9.152 4.082 9.152 9.152s-4.082 9.152-9.152 9.152-9.152-4.082-9.152-9.152 4.082-9.152 9.152-9.152z"
       id="path110"
       style="fill:#2562a0;fill-opacity:1" />
  </svg>
  <svg
     id="icon-redo"
     width="22"
     height="22"
     viewBox="0 0 22 22"
     x="0"
     y="80"
     version="1.1"
     style="fill:#2562a0;fill-opacity:1">
    <path
       fill="#fff"
       d="M16.887 9.711l3.266-3.309v8.25h-8.25l3.352-3.309c-1.289-1.074-2.922-1.719-4.727-1.719-3.266 0-6.016 2.105-6.961 5.027l-2.148-0.688c1.246-3.824 4.855-6.617 9.109-6.617 2.449 0 4.684 0.902 6.359 2.363z"
       id="path113"
       style="fill:#2562a0;fill-opacity:1" />
  </svg>
  <svg
     id="icon-visibility"
     width="22"
     height="22"
     viewBox="0 0 22 22"
     x="40"
     y="80"
     version="1.1"
     style="fill:#2562a0;fill-opacity:1">
    <path
       fill="#fff"
       d="M11 8.25c1.504 0 2.75 1.246 2.75 2.75s-1.246 2.75-2.75 2.75-2.75-1.246-2.75-2.75 1.246-2.75 2.75-2.75zM11 15.598c2.535 0 4.598-2.063 4.598-4.598s-2.063-4.598-4.598-4.598-4.598 2.063-4.598 4.598 2.063 4.598 4.598 4.598zM11 4.125c4.598 0 8.508 2.836 10.098 6.875-1.59 4.039-5.5 6.875-10.098 6.875s-8.508-2.836-10.098-6.875c1.59-4.039 5.5-6.875 10.098-6.875z"
       id="path116"
       style="fill:#2562a0;fill-opacity:1" />
  </svg>
  <svg
     id="icon-search"
     width="22"
     height="22"
     viewBox="0 0 22 22"
     x="80"
     y="80"
     version="1.1"
     style="fill:#2562a0;fill-opacity:1">
    <path
       fill="#fff"
       d="M8.723 12.848c2.277 0 4.125-1.848 4.125-4.125s-1.848-4.125-4.125-4.125-4.125 1.848-4.125 4.125 1.848 4.125 4.125 4.125zM14.223 12.848l4.555 4.555-1.375 1.375-4.555-4.555v-0.73l-0.258-0.258c-1.031 0.902-2.406 1.418-3.867 1.418-3.309 0-5.973-2.621-5.973-5.93s2.664-5.973 5.973-5.973 5.93 2.664 5.93 5.973c0 1.461-0.516 2.836-1.418 3.867l0.258 0.258h0.73z"
       id="path119"
       style="fill:#2562a0;fill-opacity:1" />
  </svg>
  <svg
     id="icon-settings"
     width="22"
     height="22"
     viewBox="0 0 22 22"
     x="120"
     y="80"
     version="1.1"
     style="fill:#2562a0;fill-opacity:1">
    <path
       fill="#fff"
       d="M11 14.223c1.762 0 3.223-1.461 3.223-3.223s-1.461-3.223-3.223-3.223-3.223 1.461-3.223 3.223 1.461 3.223 3.223 3.223zM17.832 11.902l1.934 1.504c0.172 0.129 0.215 0.387 0.086 0.602l-1.848 3.18c-0.129 0.215-0.344 0.258-0.559 0.172l-2.277-0.902c-0.473 0.344-0.988 0.688-1.547 0.902l-0.344 2.406c-0.043 0.215-0.215 0.387-0.43 0.387h-3.695c-0.215 0-0.387-0.172-0.43-0.387l-0.344-2.406c-0.559-0.215-1.074-0.516-1.547-0.902l-2.277 0.902c-0.215 0.086-0.43 0.043-0.559-0.172l-1.848-3.18c-0.129-0.215-0.086-0.473 0.086-0.602l1.934-1.504c-0.043-0.301-0.043-0.602-0.043-0.902s0-0.602 0.043-0.902l-1.934-1.504c-0.172-0.129-0.215-0.387-0.086-0.602l1.848-3.18c0.129-0.215 0.344-0.258 0.559-0.172l2.277 0.902c0.473-0.344 0.988-0.688 1.547-0.902l0.344-2.406c0.043-0.215 0.215-0.387 0.43-0.387h3.695c0.215 0 0.387 0.172 0.43 0.387l0.344 2.406c0.559 0.215 1.074 0.516 1.547 0.902l2.277-0.902c0.215-0.086 0.43-0.043 0.559 0.172l1.848 3.18c0.129 0.215 0.086 0.473-0.086 0.602l-1.934 1.504c0.043 0.301 0.043 0.602 0.043 0.902s0 0.602-0.043 0.902z"
       id="path122"
       style="fill:#2562a0;fill-opacity:1" />
  </svg>
  <svg
     id="icon-thumb_down"
     width="22"
     height="22"
     viewBox="0 0 22 22"
     x="160"
     y="80"
     version="1.1"
     style="fill:#2562a0;fill-opacity:1">
    <path
       fill="#fff"
       d="M17.402 2.75h3.695v11h-3.695v-11zM13.75 2.75c0.988 0 1.848 0.859 1.848 1.848v9.152c0 0.516-0.215 0.945-0.559 1.289l-6.016 6.059-0.988-0.988c-0.258-0.258-0.387-0.559-0.387-0.945v-0.301l0.902-4.211h-5.801c-0.988 0-1.848-0.816-1.848-1.805l0.043-0.086h-0.043v-1.762c0-0.258 0.043-0.473 0.129-0.688l2.793-6.445c0.258-0.645 0.902-1.117 1.676-1.117h8.25z"
       id="path125"
       style="fill:#2562a0;fill-opacity:1" />
  </svg>
  <svg
     id="icon-thumb_up"
     width="22"
     height="22"
     viewBox="0 0 22 22"
     x="200"
     y="80"
     version="1.1"
     style="fill:#2562a0;fill-opacity:1">
    <path
       fill="#fff"
       d="M21.098 9.152l-0.043 0.086h0.043v1.762c0 0.258-0.043 0.473-0.129 0.688l-2.793 6.445c-0.258 0.645-0.902 1.117-1.676 1.117h-8.25c-0.988 0-1.848-0.859-1.848-1.848v-9.152c0-0.516 0.215-0.945 0.559-1.289l6.016-6.059 0.988 0.988c0.258 0.258 0.387 0.559 0.387 0.945v0.301l-0.902 4.211h5.801c0.988 0 1.848 0.816 1.848 1.805zM0.902 19.25v-11h3.695v11h-3.695z"
       id="path128"
       style="fill:#2562a0;fill-opacity:1" />
  </svg>
  <svg
     id="icon-tune"
     width="22"
     height="22"
     viewBox="0 0 22 22"
     x="240"
     y="80"
     version="1.1"
     style="fill:#2562a0;fill-opacity:1">
    <path
       fill="#fff"
       d="M13.75 8.25v-5.5h1.848v1.848h3.652v1.805h-3.652v1.848h-1.848zM19.25 11.902h-9.152v-1.805h9.152v1.805zM6.402 8.25h1.848v5.5h-1.848v-1.848h-3.652v-1.805h3.652v-1.848zM11.902 19.25h-1.805v-5.5h1.805v1.848h7.348v1.805h-7.348v1.848zM2.75 4.598h9.152v1.805h-9.152v-1.805zM2.75 15.598h5.5v1.805h-5.5v-1.805z"
       id="path131"
       style="fill:#2562a0;fill-opacity:1" />
  </svg>
  <svg
     id="icon-vpn_key"
     width="22"
     height="22"
     viewBox="0 0 22 22"
     x="280"
     y="80"
     version="1.1"
     style="fill:#2562a0;fill-opacity:1">
    <path
       fill="#fff"
       d="M6.402 12.848c0.988 0 1.848-0.859 1.848-1.848s-0.859-1.848-1.848-1.848-1.805 0.859-1.805 1.848 0.816 1.848 1.805 1.848zM11.602 9.152h9.496v3.695h-1.848v3.652h-3.652v-3.652h-3.996c-0.73 2.148-2.793 3.652-5.199 3.652-3.051 0-5.5-2.449-5.5-5.5s2.449-5.5 5.5-5.5c2.406 0 4.469 1.504 5.199 3.652z"
       id="path134"
       style="fill:#2562a0;fill-opacity:1" />
  </svg>
  <svg
     id="icon-watch_later"
     width="22"
     height="22"
     viewBox="0 0 22 22"
     x="320"
     y="80"
     version="1.1"
     style="fill:#2562a0;fill-opacity:1">
    <path
       fill="#fff"
       d="M14.867 14.867l0.73-1.203-4.125-2.492v-4.77h-1.375v5.5zM11 1.848c5.027 0 9.152 4.125 9.152 9.152s-4.125 9.152-9.152 9.152-9.152-4.125-9.152-9.152 4.125-9.152 9.152-9.152z"
       id="path137"
       style="fill:#2562a0;fill-opacity:1" />
  </svg>
  <svg
     id="icon-widgets"
     width="22"
     height="22"
     viewBox="0 0 22 22"
     x="360"
     y="80"
     version="1.1"
     style="fill:#2562a0;fill-opacity:1">
    <path
       fill="#fff"
       d="M15.254 1.547l5.199 5.199-5.199 5.156h3.996v7.348h-7.348v-7.348h3.352l-5.156-5.156v3.352h-7.348v-7.348h7.348v3.996zM2.75 19.25v-7.348h7.348v7.348h-7.348z"
       id="path140"
       style="fill:#2562a0;fill-opacity:1" />
  </svg>
  <svg
     inkscape:version="0.91 r13725"
     transform="translate(-2.749,-1.847)"
     id="icon-date_range-0"
     width="22"
     height="22"
     viewBox="0 0 22 22"
     x="456"
     y="0"
     version="1.1"
     style="fill:#2562a0;fill-opacity:1" />
</svg>
