<?xml version="1.0" encoding="utf-8"?>
<!-- Generated by IcoMoon.io -->
<!DOCTYPE svg PUBLIC "-//W3C//DTD SVG 1.1//EN" "http://www.w3.org/Graphics/SVG/1.1/DTD/svg11.dtd">
<svg version="1.1" xmlns="http://www.w3.org/2000/svg" xmlns:xlink="http://www.w3.org/1999/xlink" width="496" height="48" viewBox="0 0 496 48">
<svg id="icon-eye" width="16" height="16" viewBox="0 0 16 16" x="0" y="0">
<path fill="#fff" d="M8 2q1.089 0 2.117 0.331t1.805 0.859 1.461 1.169 1.151 1.281 0.807 1.169 0.503 0.857l0.156 0.333q-0.036 0.078-0.099 0.211t-0.294 0.542-0.495 0.807-0.693 0.938-0.888 1.005-1.086 0.94-1.286 0.805-1.482 0.542-1.677 0.211q-1.089 0-2.117-0.331t-1.805-0.857-1.461-1.161-1.151-1.273-0.807-1.164-0.503-0.859l-0.156-0.328q0.036-0.078 0.099-0.211t0.294-0.544 0.495-0.81 0.693-0.943 0.888-1.010 1.086-0.943 1.286-0.81 1.482-0.544 1.677-0.211zM8 3.333q-0.729 0-1.432 0.193t-1.268 0.497-1.104 0.737-0.932 0.852-0.763 0.901-0.589 0.826-0.411 0.688q0.193 0.339 0.411 0.68t0.589 0.818 0.763 0.891 0.932 0.841 1.104 0.729 1.268 0.492 1.432 0.19 1.432-0.193 1.268-0.495 1.104-0.732 0.932-0.846 0.763-0.896 0.589-0.823 0.411-0.682q-0.193-0.339-0.411-0.682t-0.589-0.823-0.763-0.896-0.932-0.846-1.104-0.732-1.268-0.495-1.432-0.193zM8 5.333q1.104 0 1.885 0.781t0.781 1.885-0.781 1.885-1.885 0.781-1.885-0.781-0.781-1.885 0.781-1.885 1.885-0.781zM8 6.667q-0.552 0-0.943 0.391t-0.391 0.943 0.391 0.943 0.943 0.391 0.943-0.391 0.391-0.943-0.391-0.943-0.943-0.391z"></path>
</svg>
<svg id="icon-paper-clip" width="16" height="16" viewBox="0 0 16 16" x="32" y="0">
<path fill="#fff" d="M10.531 0q0.651 0 1.25 0.245 0.625 0.25 1.104 0.729 0.484 0.49 0.729 1.099 0.24 0.589 0.24 1.25t-0.24 1.25q-0.245 0.609-0.729 1.099l-6.135 6.135q-0.281 0.281-0.667 0.443-0.375 0.146-0.75 0.146t-0.75-0.146q-0.385-0.161-0.667-0.443-0.292-0.292-0.438-0.661-0.146-0.354-0.146-0.75 0-0.401 0.146-0.755 0.146-0.365 0.438-0.661l5.661-5.656q0.198-0.198 0.474-0.198 0.271 0 0.469 0.198t0.198 0.469q0 0.276-0.198 0.474l-5.661 5.656q-0.193 0.193-0.193 0.474 0 0.276 0.193 0.469 0.208 0.198 0.474 0.198t0.474-0.198l6.135-6.135q0.578-0.578 0.578-1.406t-0.578-1.406q-0.594-0.583-1.411-0.583-0.823 0-1.406 0.583l-6.151 6.12q-0.479 0.479-0.729 1.104-0.245 0.599-0.245 1.255 0 0.646 0.245 1.255 0.25 0.62 0.729 1.099 0.495 0.49 1.104 0.734t1.255 0.245 1.255-0.245 1.104-0.734l6.125-6.125q0.198-0.198 0.474-0.198 0.271 0 0.469 0.198t0.198 0.469q0 0.276-0.198 0.474l-6.125 6.125q-0.672 0.672-1.547 1.026-0.833 0.344-1.755 0.344-0.917 0-1.755-0.344-0.875-0.354-1.547-1.026-0.667-0.667-1.021-1.542-0.344-0.844-0.344-1.755 0-0.917 0.344-1.755 0.349-0.865 1.021-1.547h0.005l6.146-6.12q0.479-0.479 1.099-0.729 0.609-0.245 1.25-0.245z"></path>
</svg>
<svg id="icon-mail" width="16" height="16" viewBox="0 0 16 16" x="64" y="0">
<path fill="#fff" d="M2.667 2h10.667q0.828 0 1.414 0.586t0.586 1.414v8q0 0.828-0.586 1.414t-1.414 0.586h-10.667q-0.828 0-1.414-0.586t-0.586-1.414v-8q0-0.828 0.586-1.414t1.414-0.586zM14 12v-7.281l-5.583 4.469q-0.177 0.146-0.417 0.146t-0.417-0.146l-5.583-4.469v7.281q0 0.276 0.195 0.471t0.471 0.195h10.667q0.276 0 0.471-0.195t0.195-0.471zM13.333 3.333h-10.667q-0.099 0-0.219 0.036l5.552 4.443 5.552-4.443q-0.12-0.036-0.219-0.036z"></path>
</svg>
<svg id="icon-bell" width="16" height="16" viewBox="0 0 16 16" x="96" y="0">
<path fill="#fff" d="M8 0.667q0.859 0 1.625 0.279t1.359 0.768 1.068 1.164 0.789 1.458 0.492 1.664q0.526 2.641 1.117 4.174t1.549 2.492h-6.115q0.115 0.328 0.115 0.667 0 0.828-0.586 1.414t-1.414 0.586-1.414-0.586-0.586-1.414q0-0.339 0.115-0.667h-6.115q0.958-0.958 1.549-2.492t1.117-4.174q0.177-0.88 0.492-1.664t0.789-1.458 1.068-1.164 1.359-0.768 1.625-0.279zM8 12.667q-0.276 0-0.471 0.195t-0.195 0.471 0.195 0.471 0.471 0.195 0.471-0.195 0.195-0.471-0.195-0.471-0.471-0.195zM8 2q-0.604 0-1.138 0.188t-0.914 0.479-0.706 0.701-0.529 0.794-0.367 0.823-0.242 0.721-0.13 0.555q-0.667 3.359-1.469 5.073h10.99q-0.802-1.714-1.469-5.073-0.052-0.271-0.13-0.555t-0.242-0.721-0.367-0.823-0.529-0.794-0.706-0.701-0.914-0.479-1.138-0.188z"></path>
</svg>
<svg id="icon-lock" width="16" height="16" viewBox="0 0 16 16" x="128" y="0">
<path fill="#fff" d="M8 0.667q1.089 0 2.008 0.536t1.456 1.456 0.536 2.008v2.667h1.333q0.828 0 1.414 0.586t0.586 1.414v4q0 0.828-0.586 1.414t-1.414 0.586h-10.667q-0.828 0-1.414-0.586t-0.586-1.414v-4q0-0.828 0.586-1.414t1.414-0.586h1.333v-2.667q0-1.089 0.536-2.008t1.456-1.456 2.008-0.536zM13.333 8.667h-10.667q-0.276 0-0.471 0.195t-0.195 0.471v4q0 0.276 0.195 0.471t0.471 0.195h10.667q0.276 0 0.471-0.195t0.195-0.471v-4q0-0.276-0.195-0.471t-0.471-0.195zM8 2q-1.104 0-1.885 0.781t-0.781 1.885v2.667h5.333v-2.667q0-1.104-0.781-1.885t-1.885-0.781z"></path>
</svg>
<svg id="icon-clipboard" width="16" height="16" viewBox="0 0 16 16" x="160" y="0">
<path fill="#fff" d="M6.667 0.667h2.667q0.646 0 1.161 0.372t0.724 0.961h0.781q0.828 0 1.414 0.586t0.586 1.414v9.333q0 0.828-0.586 1.414t-1.414 0.586h-8q-0.828 0-1.414-0.586t-0.586-1.414v-9.333q0-0.828 0.586-1.414t1.414-0.586h0.781q0.208-0.589 0.724-0.961t1.161-0.372zM12 3.333h-0.781q-0.208 0.589-0.724 0.961t-1.161 0.372h-2.667q-0.646 0-1.161-0.372t-0.724-0.961h-0.781q-0.276 0-0.471 0.195t-0.195 0.471v9.333q0 0.276 0.195 0.471t0.471 0.195h8q0.276 0 0.471-0.195t0.195-0.471v-9.333q0-0.276-0.195-0.471t-0.471-0.195zM9.333 2h-2.667q-0.276 0-0.471 0.195t-0.195 0.471 0.195 0.471 0.471 0.195h2.667q0.276 0 0.471-0.195t0.195-0.471-0.195-0.471-0.471-0.195z"></path>
</svg>
<svg id="icon-clock" width="16" height="16" viewBox="0 0 16 16" x="192" y="0">
<path fill="#fff" d="M8 0.667q1.495 0 2.852 0.581t2.339 1.563 1.563 2.339 0.581 2.852-0.581 2.852-1.563 2.339-2.339 1.563-2.852 0.581-2.852-0.581-2.339-1.563-1.563-2.339-0.581-2.852 0.581-2.852 1.563-2.339 2.339-1.563 2.852-0.581zM8 2q-1.219 0-2.331 0.477t-1.914 1.279-1.279 1.914-0.477 2.331 0.477 2.331 1.279 1.914 1.914 1.279 2.331 0.477 2.331-0.477 1.914-1.279 1.279-1.914 0.477-2.331-0.477-2.331-1.279-1.914-1.914-1.279-2.331-0.477zM8 3.333q0.276 0 0.471 0.195t0.195 0.471v3.724l1.807 1.802q0.193 0.193 0.193 0.474t-0.193 0.474-0.474 0.193-0.474-0.193l-2-2q-0.193-0.193-0.193-0.474v-4q0-0.276 0.195-0.471t0.471-0.195z"></path>
</svg>
<svg id="icon-cog" width="16" height="16" viewBox="0 0 16 16" x="224" y="0">
<path fill="#fff" d="M8 0q0.828 0 1.414 0.586t0.586 1.414v0.344q0.245 0.083 0.589 0.24l0.24-0.24q0.589-0.589 1.417-0.589 0.823 0 1.411 0.589t0.589 1.411q0 0.828-0.589 1.417l-0.24 0.24q0.156 0.344 0.24 0.589h0.344q0.828 0 1.414 0.586t0.586 1.414-0.586 1.414-1.414 0.586h-0.344q-0.083 0.245-0.24 0.589l0.24 0.24q0.589 0.589 0.589 1.417 0 0.823-0.589 1.411t-1.411 0.589q-0.828 0-1.417-0.589l-0.24-0.24q-0.344 0.156-0.589 0.24v0.344q0 0.828-0.586 1.414t-1.414 0.586-1.414-0.586-0.586-1.414v-0.344q-0.245-0.083-0.589-0.24l-0.24 0.24q-0.589 0.589-1.411 0.589-0.828 0-1.414-0.589t-0.586-1.411q0-0.833 0.583-1.417l0.24-0.24q-0.156-0.344-0.24-0.589h-0.344q-0.828 0-1.414-0.586t-0.586-1.414 0.586-1.414 1.414-0.586h0.344q0.083-0.245 0.24-0.589l-0.24-0.24q-0.583-0.583-0.583-1.417 0-0.823 0.586-1.411t1.414-0.589q0.823 0 1.411 0.589l0.24 0.24q0.344-0.156 0.589-0.24v-0.344q0-0.828 0.586-1.414t1.414-0.586zM8 1.333q-0.276 0-0.471 0.195t-0.195 0.471v1.38q-1.167 0.167-2.13 0.88l-0.974-0.974q-0.198-0.198-0.469-0.198-0.276 0-0.471 0.195t-0.195 0.471q0 0.281 0.193 0.474l0.974 0.974q-0.714 0.964-0.88 2.13h-1.38q-0.276 0-0.471 0.195t-0.195 0.471 0.195 0.471 0.471 0.195h1.38q0.167 1.167 0.88 2.13l-0.974 0.974q-0.193 0.193-0.193 0.474 0 0.276 0.195 0.471t0.471 0.195q0.271 0 0.469-0.198l0.974-0.974q0.964 0.714 2.13 0.88v1.38q0 0.276 0.195 0.471t0.471 0.195 0.471-0.195 0.195-0.471v-1.38q1.167-0.167 2.13-0.88l0.974 0.974q0.198 0.198 0.474 0.198t0.471-0.195 0.195-0.471-0.198-0.474l-0.974-0.974q0.714-0.964 0.88-2.13h1.38q0.276 0 0.471-0.195t0.195-0.471-0.195-0.471-0.471-0.195h-1.38q-0.167-1.167-0.88-2.13l0.974-0.974q0.198-0.198 0.198-0.474t-0.195-0.471-0.471-0.195-0.474 0.198l-0.974 0.974q-0.964-0.714-2.13-0.88v-1.38q0-0.276-0.195-0.471t-0.471-0.195zM8 5.333q1.104 0 1.885 0.781t0.781 1.885-0.781 1.885-1.885 0.781-1.885-0.781-0.781-1.885 0.781-1.885 1.885-0.781zM8 6.667q-0.552 0-0.943 0.391t-0.391 0.943 0.391 0.943 0.943 0.391 0.943-0.391 0.391-0.943-0.391-0.943-0.943-0.391z"></path>
</svg>
<svg id="icon-search" width="16" height="16" viewBox="0 0 16 16" x="256" y="0">
<path fill="#fff" d="M6.667 0.667q1.219 0 2.331 0.477t1.914 1.279 1.279 1.914 0.477 2.331q0 1.047-0.341 2.005t-0.971 1.74l3.786 3.781q0.193 0.193 0.193 0.474 0 0.286-0.19 0.477t-0.477 0.19q-0.281 0-0.474-0.193l-3.781-3.786q-0.781 0.63-1.74 0.971t-2.005 0.341q-1.219 0-2.331-0.477t-1.914-1.279-1.279-1.914-0.477-2.331 0.477-2.331 1.279-1.914 1.914-1.279 2.331-0.477zM6.667 2q-0.948 0-1.813 0.37t-1.49 0.995-0.995 1.49-0.37 1.813 0.37 1.813 0.995 1.49 1.49 0.995 1.813 0.37 1.812-0.37 1.49-0.995 0.995-1.49 0.37-1.813-0.37-1.813-0.995-1.49-1.49-0.995-1.813-0.37z"></path>
</svg>
<svg id="icon-folder" width="16" height="16" viewBox="0 0 16 16" x="288" y="0">
<path fill="#fff" d="M2.667 1.333h3.333l1.333 2h6q0.828 0 1.414 0.586t0.586 1.414v7.333q0 0.828-0.586 1.414t-1.414 0.586h-10.667q-0.828 0-1.414-0.586t-0.586-1.414v-9.333q0-0.828 0.586-1.414t1.414-0.586zM6.62 4.667l-1.286-2h-2.667q-0.276 0-0.471 0.195t-0.195 0.471v9.333q0 0.276 0.195 0.471t0.471 0.195h10.667q0.276 0 0.471-0.195t0.195-0.471v-7.333q0-0.276-0.195-0.471t-0.471-0.195h-6.714z"></path>
</svg>
<svg id="icon-upload" width="16" height="16" viewBox="0 0 16 16" x="320" y="0">
<path fill="#fff" d="M3.333 0h9.333q0.828 0 1.414 0.586t0.586 1.414v9.333q0 0.828-0.586 1.414t-1.414 0.586h-2.667v-1.333h2.667q0.276 0 0.471-0.195t0.195-0.471v-9.333q0-0.276-0.195-0.471t-0.471-0.195h-9.333q-0.276 0-0.471 0.195t-0.195 0.471v9.333q0 0.276 0.195 0.471t0.471 0.195h2.667v1.333h-2.667q-0.828 0-1.414-0.586t-0.586-1.414v-9.333q0-0.828 0.586-1.414t1.414-0.586zM8 4.667q0.281 0 0.474 0.193l2.667 2.667q0.193 0.193 0.193 0.474 0 0.276-0.195 0.471t-0.471 0.195q-0.271 0-0.474-0.193l-1.526-1.531v8.391q0 0.276-0.195 0.471t-0.471 0.195-0.471-0.195-0.195-0.471v-8.391l-1.526 1.531q-0.203 0.193-0.474 0.193-0.276 0-0.471-0.195t-0.195-0.471q0-0.271 0.193-0.474l2.667-2.667q0.193-0.193 0.474-0.193z"></path>
</svg>
<svg id="icon-location" width="16" height="16" viewBox="0 0 16 16" x="352" y="0">
<path fill="#fff" d="M0 7.333l16-7.333-7.333 16-2-6.667zM8.927 12.229l4.365-9.521-9.521 4.365 3.969 1.188z"></path>
</svg>
<svg id="icon-head" width="16" height="16" viewBox="0 0 16 16" x="384" y="0">
<path fill="#fff" d="M8 0q1.089 0 2.008 0.536t1.456 1.456 0.536 2.008v2q0 0.833-0.323 1.578t-0.901 1.297q1.521 0.24 2.703 0.706t1.852 1.102 0.669 1.339v1.313q0 0.828-0.586 1.414t-1.414 0.586h-12q-0.828 0-1.414-0.586t-0.586-1.414v-1.318q0-0.703 0.669-1.339t1.849-1.102 2.701-0.701q-0.573-0.557-0.896-1.299t-0.323-1.576v-2q0-1.089 0.536-2.008t1.456-1.456 2.008-0.536zM8 10q-1.448 0-2.794 0.232t-2.346 0.648q-0.401 0.167-0.716 0.354t-0.479 0.339-0.247 0.263-0.083 0.18v1.318q0 0.276 0.195 0.471t0.471 0.195h12q0.276 0 0.471-0.195t0.195-0.471v-1.313q0-0.068-0.083-0.18t-0.247-0.263-0.479-0.339-0.716-0.359q-1-0.417-2.346-0.648t-2.794-0.232zM8 1.333q-1.104 0-1.885 0.781t-0.781 1.885v2q0 1.104 0.781 1.885t1.885 0.781 1.885-0.781 0.781-1.885v-2q0-1.104-0.781-1.885t-1.885-0.781z"></path>
</svg>
<svg id="icon-briefcase" width="16" height="16" viewBox="0 0 16 16" x="416" y="0">
<path fill="#fff" d="M6.667 1.333h2.667q0.828 0 1.414 0.586t0.586 1.414v0.667h2q0.828 0 1.414 0.586t0.586 1.414v6.667q0 0.828-0.586 1.414t-1.414 0.586h-10.667q-0.828 0-1.414-0.586t-0.586-1.414v-6.667q0-0.828 0.586-1.414t1.414-0.586h2v-0.667q0-0.828 0.586-1.414t1.414-0.586zM3.333 13.333v-8h-0.667q-0.276 0-0.471 0.195t-0.195 0.471v6.667q0 0.276 0.195 0.471t0.471 0.195h0.667zM11.333 13.333v-8h-6.667v8h6.667zM13.333 5.333h-0.667v8h0.667q0.276 0 0.471-0.195t0.195-0.471v-6.667q0-0.276-0.195-0.471t-0.471-0.195zM9.333 2.667h-2.667q-0.276 0-0.471 0.195t-0.195 0.471v0.667h4v-0.667q0-0.276-0.195-0.471t-0.471-0.195z"></path>
</svg>
<svg id="icon-globe" width="16" height="16" viewBox="0 0 16 16" x="448" y="0">
<path fill="#fff" d="M8 0.667q0.188 0 0.281 0.005 0.969 0.036 1.883 0.32t1.69 0.763 1.424 1.154 1.099 1.466 0.703 1.721 0.253 1.904-0.253 1.904-0.703 1.721-1.099 1.466-1.424 1.154-1.69 0.763-1.883 0.32q-0.094 0.005-0.281 0.005t-0.281-0.005q-0.969-0.036-1.883-0.32t-1.69-0.763-1.424-1.154-1.099-1.466-0.703-1.721-0.253-1.904 0.253-1.904 0.703-1.721 1.099-1.466 1.424-1.154 1.69-0.763 1.883-0.32q0.094-0.005 0.281-0.005zM4.693 8.667h-2.656q0.208 1.859 1.432 3.266t3.010 1.875q-0.677-1.026-1.18-2.326t-0.607-2.815zM9.974 8.667h-3.948q0.052 0.667 0.216 1.333t0.367 1.18 0.469 1.013 0.479 0.823 0.443 0.62q0.229-0.297 0.443-0.622t0.479-0.826 0.469-1.013 0.367-1.177 0.216-1.331zM6.479 2.193q-1.786 0.469-3.010 1.875t-1.432 3.266h2.656q0.182-2.719 1.786-5.141zM13.964 8.667h-2.651q-0.193 2.724-1.792 5.141 1.786-0.469 3.010-1.875t1.432-3.266zM8 2.365q-0.229 0.297-0.44 0.622t-0.479 0.826-0.471 1.013-0.367 1.177-0.216 1.331h3.948q-0.052-0.667-0.216-1.333t-0.367-1.18-0.469-1.013-0.479-0.823-0.443-0.62zM9.521 2.193q1.599 2.417 1.792 5.141h2.651q-0.208-1.859-1.432-3.266t-3.010-1.875z"></path>
</svg>
<svg id="icon-tag" width="16" height="16" viewBox="0 0 16 16" x="480" y="0">
<path fill="#fff" d="M0.667 0.667h7.542l6.542 6.536q0.583 0.583 0.583 1.411 0 0.833-0.583 1.417l-4.719 4.719q-0.583 0.583-1.411 0.583-0.833 0-1.417-0.583l-6.536-6.542v-7.542zM13.807 8.146l-6.151-6.146h-5.656v5.656l6.146 6.151q0.198 0.193 0.474 0.193t0.469-0.193l4.719-4.719q0.193-0.193 0.193-0.469t-0.193-0.474zM5.667 4q0.693 0 1.18 0.487t0.487 1.18-0.487 1.18-1.18 0.487-1.18-0.487-0.487-1.18 0.487-1.18 1.18-0.487zM5.667 5.333q-0.135 0-0.234 0.099t-0.099 0.234 0.099 0.234 0.234 0.099 0.234-0.099 0.099-0.234-0.099-0.234-0.234-0.099z"></path>
</svg>
<svg id="icon-pie-graph" width="16" height="16" viewBox="0 0 16 16" x="0" y="32">
<path fill="#fff" d="M8 0.667q1.495 0 2.852 0.581t2.339 1.563 1.563 2.339 0.581 2.852-0.581 2.852-1.563 2.339-2.339 1.563-2.852 0.581-2.852-0.581-2.339-1.563-1.563-2.339-0.581-2.852 0.581-2.852 1.563-2.339 2.339-1.563 2.852-0.581zM7.333 8.667v-6.63q-1.109 0.125-2.096 0.643t-1.698 1.305-1.125 1.833-0.414 2.182q0 1.219 0.477 2.331t1.279 1.914 1.914 1.279 2.331 0.477q1.135 0 2.182-0.414t1.833-1.125 1.305-1.698 0.643-2.096h-6.63zM8.667 2.036v5.297h5.297q-0.115-1.031-0.568-1.956t-1.151-1.622-1.622-1.151-1.956-0.568z"></path>
</svg>
<svg id="icon-grid-2" width="16" height="16" viewBox="0 0 16 16" x="32" y="32">
<path fill="#fff" d="M2.667 0.667h10.667q0.828 0 1.414 0.586t0.586 1.414v10.667q0 0.828-0.586 1.414t-1.414 0.586h-10.667q-0.828 0-1.414-0.586t-0.586-1.414v-10.667q0-0.828 0.586-1.414t1.414-0.586zM7.333 14v-5.333h-5.333v4.667q0 0.276 0.195 0.471t0.471 0.195h4.667zM7.333 7.333v-5.333h-4.667q-0.276 0-0.471 0.195t-0.195 0.471v4.667h5.333zM14 13.333v-4.667h-5.333v5.333h4.667q0.276 0 0.471-0.195t0.195-0.471zM13.333 2h-4.667v5.333h5.333v-4.667q0-0.276-0.195-0.471t-0.471-0.195z"></path>
</svg>
<svg id="icon-ban" width="16" height="16" viewBox="0 0 16 16" x="64" y="32">
<path fill="#fff" d="M8 0.667q1.495 0 2.852 0.581t2.339 1.563 1.563 2.339 0.581 2.852-0.581 2.852-1.563 2.339-2.339 1.563-2.852 0.581-2.852-0.581-2.339-1.563-1.563-2.339-0.581-2.852 0.581-2.852 1.563-2.339 2.339-1.563 2.852-0.581zM11.745 12.688l-8.432-8.432q-0.625 0.786-0.969 1.745t-0.344 2q0 1.219 0.477 2.331t1.279 1.914 1.914 1.279 2.331 0.477q1.047 0 2.005-0.341t1.74-0.971zM8 2q-1.047 0-2.005 0.341t-1.74 0.971l8.432 8.432q0.63-0.781 0.971-1.74t0.341-2.005q0-1.219-0.477-2.331t-1.279-1.914-1.914-1.279-2.331-0.477z"></path>
</svg>
<svg id="icon-trash" width="16" height="16" viewBox="0 0 16 16" x="96" y="32">
<path fill="#fff" d="M6.667 0.667h2.667q0.828 0 1.414 0.586t0.586 1.414v0.667h2.667q0.276 0 0.471 0.195t0.195 0.471-0.195 0.471-0.471 0.195h-0.667v8q0 0.828-0.586 1.414t-1.414 0.586h-6.667q-0.828 0-1.414-0.586t-0.586-1.414v-8h-0.667q-0.276 0-0.471-0.195t-0.195-0.471 0.195-0.471 0.471-0.195h2.667v-0.667q0-0.828 0.586-1.414t1.414-0.586zM12 12.667v-8h-8v8q0 0.276 0.195 0.471t0.471 0.195h6.667q0.276 0 0.471-0.195t0.195-0.471zM9.333 2h-2.667q-0.276 0-0.471 0.195t-0.195 0.471v0.667h4v-0.667q0-0.276-0.195-0.471t-0.471-0.195z"></path>
</svg>
<svg id="icon-plus" width="16" height="16" viewBox="0 0 16 16" x="128" y="32">
<path fill="#fff" d="M8 1.333q0.276 0 0.471 0.195t0.195 0.471v5.333h5.333q0.276 0 0.471 0.195t0.195 0.471-0.195 0.471-0.471 0.195h-5.333v5.333q0 0.276-0.195 0.471t-0.471 0.195-0.471-0.195-0.195-0.471v-5.333h-5.333q-0.276 0-0.471-0.195t-0.195-0.471 0.195-0.471 0.471-0.195h5.333v-5.333q0-0.276 0.195-0.471t0.471-0.195z"></path>
</svg>
<svg id="icon-minus" width="16" height="16" viewBox="0 0 16 16" x="160" y="32">
<path fill="#fff" d="M2 7.333h12q0.276 0 0.471 0.195t0.195 0.471-0.195 0.471-0.471 0.195h-12q-0.276 0-0.471-0.195t-0.195-0.471 0.195-0.471 0.471-0.195z"></path>
</svg>
<svg id="icon-check" width="16" height="16" viewBox="0 0 16 16" x="192" y="32">
<path fill="#fff" d="M14 3.333q0.286 0 0.477 0.19t0.19 0.477q0 0.281-0.193 0.474l-8 8q-0.193 0.193-0.474 0.193t-0.474-0.193l-4-4q-0.193-0.193-0.193-0.474 0-0.286 0.19-0.477t0.477-0.19q0.281 0 0.474 0.193l3.526 3.531 7.526-7.531q0.193-0.193 0.474-0.193z"></path>
</svg>
<svg id="icon-cross" width="16" height="16" viewBox="0 0 16 16" x="224" y="32">
<path fill="#fff" d="M12.667 2.667q0.286 0 0.477 0.19t0.19 0.477q0 0.281-0.193 0.474l-4.198 4.193 4.198 4.193q0.193 0.193 0.193 0.474 0 0.286-0.19 0.477t-0.477 0.19q-0.281 0-0.474-0.193l-4.193-4.198-4.193 4.198q-0.193 0.193-0.474 0.193-0.286 0-0.477-0.19t-0.19-0.477q0-0.281 0.193-0.474l4.198-4.193-4.198-4.193q-0.193-0.193-0.193-0.474 0-0.286 0.19-0.477t0.477-0.19q0.281 0 0.474 0.193l4.193 4.198 4.193-4.198q0.193-0.193 0.474-0.193z"></path>
</svg>
<svg id="icon-inbox" width="16" height="16" viewBox="0 0 16 16" x="256" y="32">
<path fill="#fff" d="M8 0.667q0.276 0 0.471 0.195t0.195 0.471v7.724l2.193-2.198q0.193-0.193 0.474-0.193 0.286 0 0.477 0.19t0.19 0.477q0 0.281-0.193 0.474l-3.333 3.333q-0.193 0.193-0.474 0.193t-0.474-0.193l-3.333-3.333q-0.193-0.203-0.193-0.474 0-0.276 0.195-0.471t0.471-0.195q0.281 0 0.474 0.193l2.193 2.198v-7.724q0-0.276 0.195-0.471t0.471-0.195zM14.667 10q0.276 0 0.471 0.195t0.195 0.471v2.667q0 0.833-0.578 1.411-0.589 0.589-1.406 0.589h-10.682q-0.818 0-1.417-0.583-0.583-0.599-0.583-1.417v-2.667q0-0.276 0.195-0.471t0.471-0.195 0.471 0.195 0.195 0.471v2.667q0 0.276 0.195 0.471t0.471 0.195h10.682q0.271 0 0.461-0.195t0.19-0.471v-2.667q0-0.276 0.195-0.471t0.471-0.195z"></path>
</svg>
<svg id="icon-outbox" width="16" height="16" viewBox="0 0 16 16" x="288" y="32">
<path fill="#fff" d="M8 0.698q0.281 0 0.474 0.193l3.333 3.333q0.193 0.193 0.193 0.474 0 0.286-0.19 0.477t-0.477 0.19q-0.281 0-0.474-0.193l-2.193-2.198v7.724q0 0.276-0.195 0.471t-0.471 0.195-0.471-0.195-0.195-0.471v-7.724l-2.193 2.198q-0.203 0.193-0.474 0.193-0.276 0-0.471-0.195t-0.195-0.471q0-0.271 0.193-0.474l3.333-3.333q0.193-0.193 0.474-0.193zM14.667 10.031q0.276 0 0.471 0.195t0.195 0.471v2.667q0 0.833-0.578 1.411-0.589 0.589-1.406 0.589h-10.682q-0.818 0-1.417-0.583-0.583-0.599-0.583-1.417v-2.667q0-0.276 0.195-0.471t0.471-0.195 0.471 0.195 0.195 0.471v2.667q0 0.276 0.195 0.471t0.471 0.195h10.682q0.271 0 0.461-0.195t0.19-0.471v-2.667q0-0.276 0.195-0.471t0.471-0.195z"></path>
</svg>
<svg id="icon-file" width="16" height="16" viewBox="0 0 16 16" x="320" y="32">
<path fill="#fff" d="M3.333 0h6.667l4.667 4.667v9.333q0 0.828-0.586 1.414t-1.414 0.586h-9.333q-0.828 0-1.414-0.586t-0.586-1.414v-12q0-0.828 0.586-1.414t1.414-0.586zM8.667 6v-4.667h-5.333q-0.281 0-0.474 0.193t-0.193 0.474v12q0 0.281 0.193 0.474t0.474 0.193h9.333q0.281 0 0.474-0.193t0.193-0.474v-8h-4.667zM12.781 4.667l-2.781-2.781v2.781h2.781z"></path>
</svg>
</svg>
