{
  "seleniumDriverPath": "c:\\Selenium",
  "recordName": "*Graham Con*",
  "url": "https://Administrator:oGpjM9iE@dev4.ddsm.online/EfficiencyOneDDSM/main.aspx#465963008",
  "frame": "contentIFrame0",
  "rowAccSelector": ".ms-crm-List-DataCell:nth-child(3) a",
  "pageTitle": "Accounts Accounts - Microsoft Dynamics CRM",
  "resultFolder": "TestResult//",
  "correctView": {
    "dropDownSelector": "#crmGrid_SavedNewQuerySelector",
    "menuItemSelector": "ul.ms-crm-VS-Menu li a.ms-crm-VS-MenuItem-Anchor[title=\"Accounts\"] nobr"
  },
  "isSelectedForm": true,
  "uploadConfig": {
    "isExecute": false,
    "path": "upload_config"
  },
  "correctForm": {
    "dropDownSelector": "#formselectorcontainer .ms-crm-FormSelector",
    "menuItemSelector": "ul.ms-crm-FS-Menu li a.ms-crm-FS-MenuItem-Anchor[title=\"E1 Account\"] nobr"
  },
  "timeSpan": "30",
  "jqFields": {
    "IterationCount": 30,
    "IterationTime": 2
  },
  "fields": {
    //Overview
    "formselectorcontainer": "FINANCIAL : E1 FINANCIAL",
    "ddsm_calculatedamount_d": "$30.00",
    "ddsm_actualamount_d": "$30.00",
    "ddsm_financialtype_d": "Payment",
    "ddsm_disbursementtype_d": ["--", "$0.00"],
    "ddsm_pendingstage_d": "RFP Sent to AP",
    "ddsm_checknumber_d": ["--", "$0.00", "1259"],
    "ddsm_checkissuedate_d": ["--", "$0.00"],
    "ddsm_checkreissuedate_d": ["--", "$0.00"],
    "ddsm_financialtemplate_d": "ARET 2016",
    "ddsm_note_d": ["--", "$0.00"],
    "ddsm_programofferingid_d": "Appliance Retirement 2016",
    //  "ddsm_projecttofinancialid_d": "138775-ARet-Alden Landry",
    "ddsm_whogetspaid_d": "Account",
    //Payee Information
    "ddsm_payeeaddress1_d": "42 Rupert Street",
    "ddsm_payeeaddress2_d": ["--", "$0.00"],
    "ddsm_payeecity_d": "Amherst",
    "ddsm_payeestate_d": "NS",
    "ddsm_payeezipcode_d": "B4H3R6",
    "ddsm_payeecompany_d": "Graham Con",
    "ddsm_payeename_d": "Graham Con",
    "ddsm_payeeattnto_d": ["--", "$0.00"],
    "ddsm_payeephone_d": ["--", "$0.00"],
    "ddsm_payeeemail_d": ["--", "$0.00"],
    "ddsm_taxentity_d": ["--", "$0.00"],
    "ddsm_taxid_d": ["--", "$0.00"],
    "ddsm_payeeaccountnumber_d": ["--", "$0.00"],
    //Cost Codes
    "ddsm_cc1_amount_d": "$30.00",
    "ddsm_cc1_invoicenumber_d": ["--", "$0.00"],
    "ddsm_cc1_vendor_d": "Graham Conrad",
    "ddsm_cc1_description_d": ["--", "$0.00"],
    "ddsm_cc1_fundcode_d": "30",
    "ddsm_cc1_fundcodedescription_d": "30 DSM",
    "ddsm_cc1_accountcode_d": "5000",
    "ddsm_cc1_accountcodedescription_d": "5000 Incentives - Customer Rebates",
    "ddsm_cc1_departmentcode_d": "10",
    "ddsm_cc1_programcode_d": "2014",
    "ddsm_cc1_programcodedescription_d": "2014 DSM Appliance Retirement",
    "ddsm_cc1_codetype_d": "30-5000-10",
    "ddsm_cc1_attribute_d": ["--", "$0.00"],
    "ddsm_cc2_costdate_d": ["--", "$0.00"],
    "ddsm_cc2_amount_d": ["--", "$0.00"],
    "ddsm_cc2_invoicenumber_d": ["--", "$0.00"],
    "ddsm_cc2_vendor_d": ["--", "$0.00", "Graham Conrad"],
    "ddsm_cc2_description_d": ["--", "$0.00"],
    "ddsm_cc2_fundcode_d": "30",
    "ddsm_cc2_fundcodedescription_d": "30 DSM",
    "ddsm_cc2_accountcode_d": "5020",
    "ddsm_cc2_accountcodedescription_d": "5020 Financing Costs",
    "ddsm_cc2_departmentcode_d": "10",
    "ddsm_cc2_programcode_d": ["--", "$0.00"],
    "ddsm_cc2_programcodedescription_d": ["--", "$0.00"],
    "ddsm_cc2_codetype_d": "30-5020-10",
    "ddsm_cc2_attribute_d": ["--", "$0.00"],
    "ddsm_cc3_costdate_d": ["--", "$0.00"],
    "ddsm_cc3_amount_d": ["--", "$0.00"],
    "ddsm_cc3_invoicenumber_d": ["--", "$0.00"],
    "ddsm_cc3_vendor_d": ["--", "$0.00", "Graham Conrad"],
    "ddsm_cc3_description_d": ["--", "$0.00"],
    "ddsm_cc3_fundcode_d": "40",
    "ddsm_cc3_fundcodedescription_d": "40 PNS",
    "ddsm_cc3_accountcode_d": "5000",
    "ddsm_cc3_accountcodedescription_d": "5000 Incentives - Customer Rebates",
    "ddsm_cc3_departmentcode_d": "10",
    "ddsm_cc3_programcode_d": ["--", "$0.00"],
    "ddsm_cc3_programcodedescription_d": ["--", "$0.00"],
    "ddsm_cc3_codetype_d": "40-5000-10",
    "ddsm_cc3_attribute_d": ["--", "$0.00"],
    //Stages
    "ddsm_targetstart1_d": "2/6/2016",
    "ddsm_actualstart3_d": ["--", "$0.00", "6/9/2017"],
    "ddsm_actualend2_d": ["--", "$0.00", "6/9/2017"],
    "ddsm_actualend3_d": ["--", "$0.00"],
    //System
    //  "ddsm_name_d": "ARET 2016-138775",
    "ownerid_d": "ARET",
    "ddsm_status_d": "Active",
    "transactioncurrencyid_d": "Canadian Dollar",
    "ddsm_initiatingmilestoneindex_d": "6",
    "ddsm_projectcompletableindex_d": "8",
    //"ddsm_calculationtype_d": "All Project Incentive Totals",
    //"ddsm_calculationdate_d": ["--", "$0.00"],
    "new_requestsent_d": ["--", "$0.00"],
    "ddsm_projectcode_d": ["--", "$0.00"],
    "ddsm_financialcode_d": ["--", "$0.00"]
  },
  "transist": [
    //Second step tabs
    {
      "subgridId": "Cycle_Projects_divDataArea",
      "columnNumber": 2,
      "subgridRecordName": "ARet-Graham Con",
      "subgridFrameId": "contentIFrame0",
      "formFrameId": "contentIFrame0",
      "correctTransistForm": {
        "dropDownSelector": "#formselectorcontainer .ms-crm-FormSelector",
        "menuItemSelector": "ul.ms-crm-FS-Menu li a.ms-crm-FS-MenuItem-Anchor[title=\"E1 Project\"] nobr"
      },
      "isSelectedForm": true,
      "tabs": [
        "tab_20_content",
        "Tab_ProjectSummary_content",
        "tab_26_content",
        "tab_22_content",
        "Tab_Measures_content",
        "tab_23_content",
        "tab_24_content",
        "Tab_Financials_content",
        "Tab_Notes_content",
        "Tab_OnHoldDiscontinued_content",
        "Tab_System_content"
      ]
    },
    //Third step tabs
    {
      "subgridId": "Financials_divDataBody",
      "columnNumber": 2,
      "subgridRecordName": "ARET 2016",
      "subgridFrameId": "contentIFrame0",
      "formFrameId": "contentIFrame0",
      "correctTransistForm": {
        "dropDownSelector": "#formselectorcontainer .ms-crm-FormSelector",
        "menuItemSelector": "ul.ms-crm-FS-Menu li a.ms-crm-FS-MenuItem-Anchor[title=\"E1 Financial\"] nobr"
      },
      "isSelectedForm": true,
      "tabs": [
        "tab_8_content",
        "tab_PayeeInformation_content",
        "tab_9_content",
        "tab_Stages_content",
        "tab_10_content"
      ]
    }
  ],
  "visibleElements": [],
  "invisibleFields": [],
  "tabs": [
    "tab_8_content",
    "tab_PayeeInformation_content",
    "tab_9_content",
    "tab_Stages_content",
    "tab_10_content"
  ],
  "visibleTabs": [
    "Overview",
    "Payee Information",
    "Cost Codes",
    "Stages",
    "System"
  ],
  "fieldsCorrectFormat": [
    {
      "fieldSelector": "#ddsm_financialnumber_d",
      "format": "PF[0-9]{9}"
    },
    {
      "fieldSelector": "#ddsm_payeenumber_d",
      "format": "D[0-9]{7}"
    },
    {
      "fieldSelector": "#ownerid_d",
      "format": "[a-zA-Z0-9]"
    },
    {
      "fieldSelector": "#ddsm_accountnumber_d",
      "format": "D[0-9]{7}"
    }
  ]  
}