<?xml version="1.0" encoding="UTF-8" standalone="no"?>
<!-- Generator: Adobe Illustrator 16.0.0, SVG Export Plug-In . SVG Version: 6.00 Build 0)  -->

<svg
   xmlns:dc="http://purl.org/dc/elements/1.1/"
   xmlns:cc="http://creativecommons.org/ns#"
   xmlns:rdf="http://www.w3.org/1999/02/22-rdf-syntax-ns#"
   xmlns:svg="http://www.w3.org/2000/svg"
   xmlns="http://www.w3.org/2000/svg"
   xmlns:sodipodi="http://sodipodi.sourceforge.net/DTD/sodipodi-0.dtd"
   xmlns:inkscape="http://www.inkscape.org/namespaces/inkscape"
   version="1.1"
   id="Capa_1"
   x="0px"
   y="0px"
   width="16"
   height="16"
   viewBox="0 0 16 16"
   xml:space="preserve"
   inkscape:version="0.91 r13725"
   sodipodi:docname="dollar-u.svg"><metadata
     id="metadata41"><rdf:RDF><cc:Work
         rdf:about=""><dc:format>image/svg+xml</dc:format><dc:type
           rdf:resource="http://purl.org/dc/dcmitype/StillImage" /><dc:title /></cc:Work></rdf:RDF></metadata><defs
     id="defs39" /><sodipodi:namedview
     pagecolor="#ffffff"
     bordercolor="#666666"
     borderopacity="1"
     objecttolerance="10"
     gridtolerance="10"
     guidetolerance="10"
     inkscape:pageopacity="0"
     inkscape:pageshadow="2"
     inkscape:window-width="1920"
     inkscape:window-height="1017"
     id="namedview37"
     showgrid="false"
     inkscape:zoom="18.786677"
     inkscape:cx="9.8660769"
     inkscape:cy="4.678702"
     inkscape:window-x="1912"
     inkscape:window-y="-8"
     inkscape:window-maximized="1"
     inkscape:current-layer="g3-1" /><g
     id="g7"
     transform="translate(0,-385.987)" /><g
     id="g9"
     transform="translate(0,-385.987)" /><g
     id="g11"
     transform="translate(0,-385.987)" /><g
     id="g13"
     transform="translate(0,-385.987)" /><g
     id="g15"
     transform="translate(0,-385.987)" /><g
     id="g17"
     transform="translate(0,-385.987)" /><g
     id="g19"
     transform="translate(0,-385.987)" /><g
     id="g21"
     transform="translate(0,-385.987)" /><g
     id="g23"
     transform="translate(0,-385.987)" /><g
     id="g25"
     transform="translate(0,-385.987)" /><g
     id="g27"
     transform="translate(0,-385.987)" /><g
     id="g29"
     transform="translate(0,-385.987)" /><g
     id="g31"
     transform="translate(0,-385.987)" /><g
     id="g33"
     transform="translate(0,-385.987)" /><g
     id="g35"
     transform="translate(0,-385.987)" /><g
     transform="matrix(0.9751285,0,0,0.9751285,0.38684156,0.24455653)"
     id="g10"><title
       id="title12">Layer 1</title><g
       transform="matrix(0.0303149,0,0,0.0303149,0.0911102,0.256573)"
       id="g3-1"
       style="fill:#3281a1;fill-opacity:1"><path
         style="fill:#f47d7f;stroke:#f47d7f;stroke-width:16;fill-opacity:1;stroke-opacity:1"
         inkscape:connector-curvature="0"
         id="path5-5"
         d="m 385.26099,311.41251 c -2.47101,-8.36701 -5.469,-15.64899 -8.98999,-21.83301 -3.51902,-6.19 -8.55902,-12.228 -15.13001,-18.13401 -6.56299,-5.90298 -12.46701,-10.65698 -17.70199,-14.27099 -5.232,-3.61699 -12.41901,-7.661 -21.55701,-12.13699 -9.13001,-4.475 -16.36402,-7.805 -21.689,-9.995 -5.332,-2.187 -13.04501,-5.185 -23.134,-8.992 -8.94501,-3.424 -15.60501,-6.042 -19.987,-7.849 -4.377,-1.80899 -10.133,-4.377 -17.271,-7.70999 -7.13501,-3.32801 -12.46501,-6.28 -15.987,-8.84801 -3.52101,-2.56799 -7.279,-5.70799 -11.277,-9.41901 -3.998,-3.711 -6.805,-7.66099 -8.424,-11.84799 -1.615,-4.188 -2.425,-8.757 -2.425,-13.70599 0,-12.94 5.70801,-23.50701 17.128,-31.68901 11.42099,-8.18199 26.174,-12.27499 44.25701,-12.27499 7.98999,0 16.13598,1.093 24.41,3.284 8.27399,2.19098 15.36499,4.65899 21.26599,7.421 5.90601,2.76199 11.47101,5.80799 16.707,9.13699 5.23499,3.332 8.94501,5.852 11.13599,7.565 2.18899,1.71401 3.57602,2.855 4.14102,3.427 2.478,1.903 5.04099,2.568 7.706,1.999 2.854,-0.19001 5.04498,-1.715 6.57098,-4.56701 l 23.13,-41.68398 c 2.28302,-3.805 1.81101,-7.422 -1.427,-10.850004 -1.14398,-1.141998 -2.56598,-2.473 -4.29098,-3.996994 -1.70801,-1.524002 -5.42102,-4.283005 -11.13602,-8.282005 C 355.577,82.163522 349.534,78.594522 343.16199,75.453516 336.78299,72.315523 328.50098,69.125521 318.31699,65.89152 308.13898,62.652518 297.62,60.465517 286.76798,59.324515 l 0,-50.250997 c 0,-2.663 -0.85498,-4.853 -2.56299,-6.567 -1.71198,-1.71001 -3.90198,-2.56901 -6.57099,-2.56901 l -38.546,0 c -2.474,0 -4.61499,0.903 -6.42301,2.712 -1.808,1.809 -2.71199,3.949 -2.71199,6.424 l 0,51.390999 c -29.884,5.708004 -54.152,18.461002 -72.805,38.256001 -18.651,19.796002 -27.98,42.823002 -27.98,69.091992 0,7.803 0.812,15.226 2.43001,22.265 1.616,7.045 3.616,13.37401 5.99599,18.98801 2.378,5.61799 5.75801,11.136 10.13501,16.56199 4.37699,5.424 8.51799,10.088 12.41899,13.988 3.903,3.899 8.99501,7.945 15.274,12.13101 6.283,4.18998 11.66,7.571 16.134,10.13899 4.47501,2.56 10.422,5.51999 17.843,8.84299 7.42301,3.333 13.278,5.85202 17.56101,7.569 4.28299,1.71103 10.13499,4.09301 17.56099,7.13202 10.27701,3.997 17.892,7.091 22.83999,9.281 4.952,2.19 11.23102,5.23499 18.84903,9.13699 7.611,3.89801 13.176,7.46799 16.69999,10.70499 3.52099,3.237 6.708,7.23401 9.565,11.991 2.85699,4.75702 4.28799,9.80102 4.28799,15.13302 0,15.03699 -5.853,26.64499 -17.56198,34.823 -11.70401,8.18698 -25.27002,12.27899 -40.68503,12.27899 -7.03599,0 -14.08398,-0.75698 -21.12399,-2.27899 -24.744,-4.95501 -47.869,-16.85101 -69.377,-35.69302 l -0.571,-0.57099 c -1.714,-2.08801 -3.99899,-2.94601 -6.85098,-2.56301 -3.04601,0.38 -5.23601,1.52301 -6.567,3.43002 L 124.618,389.64252 c -2.856,3.806 -2.663,7.70697 0.572,11.70398 0.953,1.143 2.618,2.86001 4.99601,5.14001 2.384,2.289 6.80999,5.85199 13.278,10.715 6.47,4.85599 13.513,9.418 21.12799,13.70599 7.61399,4.28101 17.272,8.51401 28.98001,12.703 11.70799,4.18201 23.83899,7.13102 36.40199,8.84302 l 0,49.96299 c 0,2.47799 0.905,4.617 2.71201,6.427 1.80899,1.811 3.94899,2.711 6.42299,2.711 l 38.546,0 c 2.66901,0 4.85901,-0.85498 6.57001,-2.56601 1.711,-1.711 2.56302,-3.90097 2.56302,-6.57099 l 0,-49.96301 c 30.26898,-4.948 54.86996,-17.939 73.806,-38.97199 18.93798,-21.03299 28.40997,-46.11001 28.40997,-75.229 -0.01,-9.51502 -1.245,-18.461 -3.74298,-26.841 l -3e-5,0 z" /></g><g
       id="g7-3" /><g
       id="g9-1" /><g
       id="g11-8" /><g
       id="g13-6" /><g
       id="g15-5" /><g
       id="g17-8" /><g
       id="g19-1" /><g
       id="g21-5" /><g
       id="g23-0" /><g
       id="g25-0" /><g
       id="g27-6" /><g
       id="g29-9" /><g
       id="g31-0" /><g
       id="g33-2" /><g
       id="g35-8" /></g></svg>