<?xml version="1.0" encoding="UTF-8" standalone="no"?>
<!-- Generator: Adobe Illustrator 16.0.0, SVG Export Plug-In . SVG Version: 6.00 Build 0)  -->

<svg
   xmlns:dc="http://purl.org/dc/elements/1.1/"
   xmlns:cc="http://creativecommons.org/ns#"
   xmlns:rdf="http://www.w3.org/1999/02/22-rdf-syntax-ns#"
   xmlns:svg="http://www.w3.org/2000/svg"
   xmlns="http://www.w3.org/2000/svg"
   xmlns:sodipodi="http://sodipodi.sourceforge.net/DTD/sodipodi-0.dtd"
   xmlns:inkscape="http://www.inkscape.org/namespaces/inkscape"
   version="1.1"
   id="Capa_1"
   x="0px"
   y="0px"
   width="16"
   height="16"
   viewBox="0 0 16.000001 16.000001"
   xml:space="preserve"
   inkscape:version="0.91 r13725"
   sodipodi:docname="lock.svg"><metadata
     id="metadata41"><rdf:RDF><cc:Work
         rdf:about=""><dc:format>image/svg+xml</dc:format><dc:type
           rdf:resource="http://purl.org/dc/dcmitype/StillImage" /><dc:title></dc:title></cc:Work></rdf:RDF></metadata><defs
     id="defs39" /><sodipodi:namedview
     pagecolor="#ffffff"
     bordercolor="#666666"
     borderopacity="1"
     objecttolerance="10"
     gridtolerance="10"
     guidetolerance="10"
     inkscape:pageopacity="0"
     inkscape:pageshadow="2"
     inkscape:window-width="1920"
     inkscape:window-height="1017"
     id="namedview37"
     showgrid="false"
     inkscape:zoom="26.567648"
     inkscape:cx="11.705761"
     inkscape:cy="9.2817853"
     inkscape:window-x="1912"
     inkscape:window-y="-8"
     inkscape:window-maximized="1"
     inkscape:current-layer="Capa_1" /><g
     id="g3"
     style="fill:#35b234;fill-opacity:1"
     transform="matrix(0.03900376,0,0,0.03900376,0.23042265,0.13745203)"><path
       d="m 357.45,190.721 c -5.331,-5.33 -11.8,-7.993 -19.417,-7.993 l -9.131,0 0,-54.821 c 0,-35.022 -12.559,-65.093 -37.685,-90.218 C 266.093,12.563 236.025,0 200.998,0 165.972,0 135.898,12.563 110.776,37.688 85.65,62.814 73.091,92.884 73.091,127.907 l 0,54.821 -9.135,0 c -7.611,0 -14.084,2.663 -19.414,7.993 -5.33,5.326 -7.994,11.799 -7.994,19.417 l 0,164.452 c 0,7.611 2.665,14.086 7.994,19.417 5.33,5.325 11.803,7.991 19.414,7.991 l 274.084,0 c 7.617,0 14.085,-2.663 19.417,-7.991 5.325,-5.331 7.994,-11.806 7.994,-19.417 l 0,-164.455 c 0.004,-7.612 -2.669,-14.084 -8.001,-19.414 z m -83.363,-7.993 -146.178,0 0,-54.821 c 0,-20.175 7.139,-37.402 21.414,-51.675 14.277,-14.275 31.501,-21.411 51.678,-21.411 20.179,0 37.399,7.135 51.677,21.411 14.271,14.272 21.409,31.5 21.409,51.675 l 0,54.821 z"
       id="path5"
       style="fill:#35b234;fill-opacity:1"
       inkscape:connector-curvature="0" /></g><g
     id="g7"
     transform="translate(0,-385.99801)" /><g
     id="g9"
     transform="translate(0,-385.99801)" /><g
     id="g11"
     transform="translate(0,-385.99801)" /><g
     id="g13"
     transform="translate(0,-385.99801)" /><g
     id="g15"
     transform="translate(0,-385.99801)" /><g
     id="g17"
     transform="translate(0,-385.99801)" /><g
     id="g19"
     transform="translate(0,-385.99801)" /><g
     id="g21"
     transform="translate(0,-385.99801)" /><g
     id="g23"
     transform="translate(0,-385.99801)" /><g
     id="g25"
     transform="translate(0,-385.99801)" /><g
     id="g27"
     transform="translate(0,-385.99801)" /><g
     id="g29"
     transform="translate(0,-385.99801)" /><g
     id="g31"
     transform="translate(0,-385.99801)" /><g
     id="g33"
     transform="translate(0,-385.99801)" /><g
     id="g35"
     transform="translate(0,-385.99801)" /></svg>