<?xml version="1.0" encoding="UTF-8" standalone="no"?>
<!-- Generator: Adobe Illustrator 16.0.0, SVG Export Plug-In . SVG Version: 6.00 Build 0)  -->

<svg
   xmlns:dc="http://purl.org/dc/elements/1.1/"
   xmlns:cc="http://creativecommons.org/ns#"
   xmlns:rdf="http://www.w3.org/1999/02/22-rdf-syntax-ns#"
   xmlns:svg="http://www.w3.org/2000/svg"
   xmlns="http://www.w3.org/2000/svg"
   xmlns:sodipodi="http://sodipodi.sourceforge.net/DTD/sodipodi-0.dtd"
   xmlns:inkscape="http://www.inkscape.org/namespaces/inkscape"
   version="1.1"
   id="Capa_1"
   x="0px"
   y="0px"
   width="16"
   height="16"
   viewBox="0 0 16.000001 16.000001"
   xml:space="preserve"
   inkscape:version="0.91 r13725"
   sodipodi:docname="search-fortis-3.svg"><metadata
     id="metadata41"><rdf:RDF><cc:Work
         rdf:about=""><dc:format>image/svg+xml</dc:format><dc:type
           rdf:resource="http://purl.org/dc/dcmitype/StillImage" /><dc:title /></cc:Work></rdf:RDF></metadata><defs
     id="defs39"><pattern
       y="0"
       x="0"
       height="6"
       width="6"
       patternUnits="userSpaceOnUse"
       id="EMFhbasepattern" /></defs><sodipodi:namedview
     pagecolor="#ffffff"
     bordercolor="#666666"
     borderopacity="1"
     objecttolerance="10"
     gridtolerance="10"
     guidetolerance="10"
     inkscape:pageopacity="0"
     inkscape:pageshadow="2"
     inkscape:window-width="1920"
     inkscape:window-height="1017"
     id="namedview37"
     showgrid="false"
     inkscape:zoom="26.567648"
     inkscape:cx="-4.8116892"
     inkscape:cy="9.2817853"
     inkscape:window-x="1912"
     inkscape:window-y="-8"
     inkscape:window-maximized="1"
     inkscape:current-layer="Capa_1" /><g
     id="g7"
     transform="translate(0,-385.99801)" /><g
     id="g9"
     transform="translate(0,-385.99801)" /><g
     id="g11"
     transform="translate(0,-385.99801)" /><g
     id="g13"
     transform="translate(0,-385.99801)" /><g
     id="g15"
     transform="translate(0,-385.99801)" /><g
     id="g17"
     transform="translate(0,-385.99801)" /><g
     id="g19"
     transform="translate(0,-385.99801)" /><g
     id="g21"
     transform="translate(0,-385.99801)" /><g
     id="g23"
     transform="translate(0,-385.99801)" /><g
     id="g25"
     transform="translate(0,-385.99801)" /><g
     id="g27"
     transform="translate(0,-385.99801)" /><g
     id="g29"
     transform="translate(0,-385.99801)" /><g
     id="g31"
     transform="translate(0,-385.99801)" /><g
     id="g33"
     transform="translate(0,-385.99801)" /><g
     id="g35"
     transform="translate(0,-385.99801)" /><svg
     inkscape:version="0.91 r13725"
     transform="translate(-0.667,-0.666)"
     id="icon-search"
     width="16"
     height="16"
     viewBox="0 0 16 16"
     x="256"
     y="0"
     version="1.1"
     style="fill:#000000"><path
       inkscape:connector-curvature="0"
       d="m 6.667,0.667 q 1.219,0 2.331,0.477 1.112,0.477 1.914,1.279 0.802,0.802 1.279,1.914 0.477,1.112 0.477,2.331 0,1.047 -0.341,2.005 -0.341,0.958 -0.971,1.74 l 3.786,3.781 q 0.193,0.193 0.193,0.474 0,0.286 -0.19,0.477 -0.19,0.191 -0.477,0.19 -0.281,0 -0.474,-0.193 l -3.781,-3.786 q -0.781,0.63 -1.74,0.971 -0.959,0.341 -2.005,0.341 -1.219,0 -2.331,-0.477 Q 3.225,11.714 2.423,10.912 1.621,10.11 1.144,8.998 0.667,7.886 0.667,6.667 0.667,5.448 1.144,4.336 1.621,3.224 2.423,2.422 3.225,1.62 4.337,1.143 5.449,0.666 6.668,0.666 Z M 6.667,2 Q 5.719,2 4.854,2.37 3.989,2.74 3.364,3.365 2.739,3.99 2.369,4.855 1.999,5.72 1.999,6.668 q 0,0.948 0.37,1.813 0.37,0.865 0.995,1.49 0.625,0.625 1.49,0.995 0.865,0.37 1.813,0.37 0.948,0 1.812,-0.37 0.864,-0.37 1.49,-0.995 0.626,-0.625 0.995,-1.49 0.369,-0.865 0.37,-1.813 Q 11.335,5.72 10.964,4.855 10.593,3.99 9.969,3.365 9.345,2.74 8.479,2.37 7.613,2 6.666,2 Z"
       id="path29"
       style="fill:#000000" /></svg><svg
     inkscape:version="0.91 r13725"
     transform="translate(-0.667,-0.666)"
     id="icon-search-4"
     width="16"
     height="16"
     viewBox="0 0 16 16"
     x="256"
     y="0"
     version="1.1"
     style="fill:#000000"><path
       inkscape:connector-curvature="0"
       d="m 6.667,0.667 q 1.219,0 2.331,0.477 1.112,0.477 1.914,1.279 0.802,0.802 1.279,1.914 0.477,1.112 0.477,2.331 0,1.047 -0.341,2.005 -0.341,0.958 -0.971,1.74 l 3.786,3.781 q 0.193,0.193 0.193,0.474 0,0.286 -0.19,0.477 -0.19,0.191 -0.477,0.19 -0.281,0 -0.474,-0.193 l -3.781,-3.786 q -0.781,0.63 -1.74,0.971 -0.959,0.341 -2.005,0.341 -1.219,0 -2.331,-0.477 Q 3.225,11.714 2.423,10.912 1.621,10.11 1.144,8.998 0.667,7.886 0.667,6.667 0.667,5.448 1.144,4.336 1.621,3.224 2.423,2.422 3.225,1.62 4.337,1.143 5.449,0.666 6.668,0.666 Z M 6.667,2 Q 5.719,2 4.854,2.37 3.989,2.74 3.364,3.365 2.739,3.99 2.369,4.855 1.999,5.72 1.999,6.668 q 0,0.948 0.37,1.813 0.37,0.865 0.995,1.49 0.625,0.625 1.49,0.995 0.865,0.37 1.813,0.37 0.948,0 1.812,-0.37 0.864,-0.37 1.49,-0.995 0.626,-0.625 0.995,-1.49 0.369,-0.865 0.37,-1.813 Q 11.335,5.72 10.964,4.855 10.593,3.99 9.969,3.365 9.345,2.74 8.479,2.37 7.613,2 6.666,2 Z"
       id="path29-6"
       style="fill:#000000" /></svg><svg
     inkscape:version="0.91 r13725"
     transform="translate(-0.667,-0.666)"
     id="icon-search-7"
     width="16"
     height="16"
     viewBox="0 0 16 16"
     x="256"
     y="0"
     version="1.1"
     style="fill:#000000"><path
       inkscape:connector-curvature="0"
       d="m 6.667,0.667 q 1.219,0 2.331,0.477 1.112,0.477 1.914,1.279 0.802,0.802 1.279,1.914 0.477,1.112 0.477,2.331 0,1.047 -0.341,2.005 -0.341,0.958 -0.971,1.74 l 3.786,3.781 q 0.193,0.193 0.193,0.474 0,0.286 -0.19,0.477 -0.19,0.191 -0.477,0.19 -0.281,0 -0.474,-0.193 l -3.781,-3.786 q -0.781,0.63 -1.74,0.971 -0.959,0.341 -2.005,0.341 -1.219,0 -2.331,-0.477 Q 3.225,11.714 2.423,10.912 1.621,10.11 1.144,8.998 0.667,7.886 0.667,6.667 0.667,5.448 1.144,4.336 1.621,3.224 2.423,2.422 3.225,1.62 4.337,1.143 5.449,0.666 6.668,0.666 Z M 6.667,2 Q 5.719,2 4.854,2.37 3.989,2.74 3.364,3.365 2.739,3.99 2.369,4.855 1.999,5.72 1.999,6.668 q 0,0.948 0.37,1.813 0.37,0.865 0.995,1.49 0.625,0.625 1.49,0.995 0.865,0.37 1.813,0.37 0.948,0 1.812,-0.37 0.864,-0.37 1.49,-0.995 0.626,-0.625 0.995,-1.49 0.369,-0.865 0.37,-1.813 Q 11.335,5.72 10.964,4.855 10.593,3.99 9.969,3.365 9.345,2.74 8.479,2.37 7.613,2 6.666,2 Z"
       id="path29-3"
       style="fill:#000000" /></svg><path
     inkscape:connector-curvature="0"
     id="path4178"
     d="m 6.5508815,0.03660745 c 0.8961431,0 1.7922823,0.16293334 2.5254879,0.48880079 0.8146742,0.40733336 1.5478796,0.81466556 2.1181486,1.38493686 0.570273,0.6517277 1.059076,1.3034664 1.384948,2.1181288 0.325882,0.8146734 0.488803,1.6293359 0.488803,2.5254762 0,0.7331953 -0.08149,1.4664011 -0.325883,2.1995961 -0.244401,0.6517388 -0.651736,1.3034668 -1.059075,1.8737378 l 4.073367,4.073333 c 0.162927,0.162934 0.244403,0.325871 0.244403,0.570272 0,0.162933 -0.08148,0.325871 -0.244403,0.488804 -0.08148,0.162933 -0.244401,0.244403 -0.488804,0.244403 -0.162926,0 -0.407338,-0.08147 -0.488803,-0.244403 l -4.154833,-4.073366 c -0.570273,0.407337 -1.1405452,0.733205 -1.8737505,0.977608 -0.6517374,0.32587 -1.3849432,0.407336 -2.1996175,0.407336 -0.8146706,0 -1.7108135,-0.162933 -2.5254842,-0.488804 C 3.210723,12.175131 2.5589858,11.767794 1.9887132,11.197523 1.4184408,10.545816 0.92963308,9.8940781 0.60376648,9.0794157 0.19642721,8.2647423 0.03349391,7.4500803 0.03349391,6.5539501 c 0,-0.8961403 0.16292273,-1.7108028 0.57027257,-2.5254762 C 0.92964847,3.2138115 1.4184408,2.5620728 1.9887132,1.9103451 2.5589858,1.3400738 3.210723,0.9327416 4.0253974,0.52540824 4.8400679,0.19954156 5.736211,0.03660745 6.5508815,0.03660745 Z m 0,1.46640125 c -0.6517372,0 -1.3034744,0.081468 -1.9552155,0.4073364 C 3.9439288,2.154747 3.455125,2.4806057 2.9663211,2.9694095 2.5589858,3.4582134 2.1516465,3.9470065 1.9072447,4.5987453 1.6628427,5.2504731 1.4999094,5.9022117 1.4999094,6.5539501 c 0,0.6517283 0.1629227,1.3849341 0.4073353,1.9551941 0.2444018,0.6517385 0.6517411,1.2219995 1.0590764,1.6293358 0.4888039,0.488804 0.9776077,0.814641 1.6293449,1.059043 0.6517411,0.32587 1.3034783,0.407336 1.9552155,0.407336 0.7332058,0 1.384947,-0.08147 1.9552156,-0.407336 0.6517397,-0.244402 1.2220099,-0.570239 1.6293489,-1.059043 0.488803,-0.4073363 0.814671,-0.9775973 1.140541,-1.6293358 0.244402,-0.57026 0.407337,-1.3034658 0.407337,-1.9551941 0,-0.6517384 -0.162923,-1.303477 -0.407337,-1.9552048 C 10.950104,3.9470065 10.624249,3.4582134 10.135446,2.9694095 9.728107,2.4806057 9.1578368,2.154747 8.5060971,1.9103451 7.9358285,1.5844746 7.2840873,1.5030087 6.5508815,1.5030087 Z"
     style="fill:#000000;fill-opacity:1;fill-rule:nonzero;stroke:none" /></svg>