{
    "login": "Administrator",
    "password": "oGpjM9iE",
    "url": "https://Administrator:oGpjM9iE@dev4.ddsm.online/EfficiencyOneDDSM/%7B636222627830000359%7D/WebResources/accentgold_/DataUploadConfigurations.html",
    "expandListTime": 60,
    "programName": "E1-ResDI",
    "recalculationType": "Force ESP Recalculation",
    "saveButton": "#button-1081-btnInnerEl",
    "filePath": "C:\\Selenium\\Output_RDI_Upload_4.xls",
    "dialogWindowConfig": {
        "IterationCount": 10,
        "IterationTime": 1
    },
    "statusConfig": {
        "IterationCount": 240,
        "IterationTime": 5
    },
    "uploadFrame": "contentIFrame0",
    "uploadStatus": "15. Import Completed Successfully"
}