{
  "seleniumDriverPath": "c:\\Selenium",
  "recordName": "*Catherine Bur*",
  "login": "Administrator",
  "password": "oGpjM9iE",
  "url": "https://Administrator:oGpjM9iE@dev4.ddsm.online/EfficiencyOneDDSM/main.aspx#465963008",
  "frame": "contentIFrame0",
  "rowAccSelector": ".ms-crm-List-DataCell:nth-child(3) a",
  "pageTitle": "Accounts Accounts - Microsoft Dynamics CRM",
  "resultFolder": "TestResult//",
  "correctView": {
    "dropDownSelector": "#crmGrid_SavedNewQuerySelector",
    "menuItemSelector": "ul.ms-crm-VS-Menu li a.ms-crm-VS-MenuItem-Anchor[title=\"Accounts\"] nobr"
  },
  "isSelectedForm": true,
  "uploadConfig": {
    "isExecute": false,
    "path": "rdi_config"
  },
  "correctForm": {
    "dropDownSelector": "#formselectorcontainer .ms-crm-FormSelector",
    "menuItemSelector": "ul.ms-crm-FS-Menu li a.ms-crm-FS-MenuItem-Anchor[title=\"E1 Account\"] nobr"
  },
  "timeSpan": "30",
  "jqFields": {
    "IterationCount": 30,
    "IterationTime": 2
  },
  "fields": {
    "formselectorcontainer": "PROJECT : E1 PROJECT",
    //Program Information
    "ddsm_recordtype_d": "Project",
    "ddsm_programid_d": "Existing Residential 2016",
    "ddsm_programoffering_d": "Residential Direct Install 2016",
    "ddsm_programmanagerid_d": ["--", "Liam Cook"],
    //Project Overview
    //General
    "ddsm_projecttemplateid_d": "Res-DI 2016",
    // "ddsm_name_d": "138753-ARet-Alden Landry",
    "ddsm_projecttype_d": "Rebate",
    "ddsm_referencenumber_d": "01-01-2016-103",
    "ddsm_opportunityreferencenumber_d": ["--", "$0.00"],
    "ddsm_participantreferencenumber_d": "1054",
    "ddsm_referredbyprogramoffering_d": "Appliance Retirement",
    //Project Status
    "ddsm_phase_d": "3. Claimed",
    "ddsm_projectstatus_d": "5-Claimed",
    "ddsm_responsible_d": "PM",
    "ddsm_pendingmilestone_d": "Evaluation Completed",
    "ddsm_completedmilestone_d": "Project Completed",
    "ddsm_milestoneactualend_d": "--",
    "ddsm_milestoneclaimdate_d": "1/12/2016",
    //EfficiencyOne Stakeholders
    "ddsm_pcid_d": ["--", "$0.00"],
    "ddsm_bdleadid_d": ["--", "$0.00"],
    "ddsm_businessdevelopmentmanagerid_d": ["--", "$0.00"],
    "ddsm_onsiteenergymanager_d": ["--", "$0.00"],
    //Project Dates
    "ddsm_startdate_d": "1/12/2016",
    "ddsm_enddate_d": ["--", "$0.00"],
    "ddsm_estimatedprojectcomplete_d": "1/12/2016",
    "ddsm_pendingactualstart_d": "1/12/2016",
    "ddsm_pendingtargetend_d": "4/6/2017",
    "ddsm_partnerinitialcontactdate_d": "1/12/2016",
    "ddsm_projectpreapprovaldate_d": ["--", "$0.00"],
    "ddsm_projectapprovaldate_d": ["--", "$0.00"],
    "ddsm_projectverificationdate_d": ["--", "$0.00"],
    "ddsm_verificationdate_d": ["--", "$0.00"],
    "ddsm_projectcloseddate_d": ["--", "$0.00"],
    "ddsm_discontinueddate_d": ["--", "$0.00"],
    "ddsm_projectexpirationdate_d": ["--", "$0.00"],
    //Incentive Information
    //Incentive Payments
    "ddsm_incentivepaymentgross_d": ["--", "$0.00"],
    "ddsm_oemrecoverycost_d": ["--", "$0.00"],
    "ddsm_incentivepaymentnet_d": ["--", "$0.00"],
    //Incentive Costs
    "ddsm_incentivecostmeasure_d": "$25.81",
    "ddsm_incentivecostpartner_d": ["--", "$0.00"],
    "ddsm_incentivecostfinancing_d": ["--", "$0.00"],
    "ddsm_incentivecostproject_d": ["--", "$0.00"],
    "ddsm_incentivecosttotal_d": "$25.81",
    // Incentive Totals
    "ddsm_totalincentive_d": "$25.81",
    "ddsm_totalincentivedsm_d": "$25.81",
    "ddsm_totalincentivepns_d": ["--", "$0.00"],
    //Savings Information
    //Tracked Energy - kWh
    "ddsm_kwhgrosssavingsatmeter_d": "96.8200",
    "ddsm_kwhgrosssavingsatgenerator_d": "106.5020",
    "ddsm_kwhnetsavingsatgenerator_d": "84.1366",
    "ddsm_energycharge_d": "0.14950000",
    //Tracked Demand - kW
    "ddsm_kwgrosssavingsatmeter_d": "0.0157",
    "ddsm_kwgrosssavingsatgenerator_d": "0.0173",
    "ddsm_kwnetsavingsatgenerator_d": "0.0136",
    //Tracked Energy - GJ
    "ddsm_gjsavingsatmeter_d": "0.0000",
    //Evaluated Energy - kWh
    "ddsm_evaluatedkwhnetsavingsatgenerator_d": ["--", "$0.00"],
    //Evaluated Demand - kW
    "ddsm_evaluatedkwnetsavingsatgenerator_d": ["--", "$0.00"],
    //RDI/RPC Final Email (kWh Gr Sav Met X $0.149)
    "ddsm_kwhsavingsatmeterperyear_d": "$14.47",
    //Account & Site Information
    //Payee Information
    "ddsm_payeeaddress1_d": ["--", "$0.00"],
    "ddsm_payeeaddress2_d": ["--", "$0.00"],
    "ddsm_payeecity_d": ["--", "$0.00"],
    "ddsm_payeestate_d": ["--", "$0.00"],
    "ddsm_payeezipcode_d": ["--", "$0.00"],
    "ddsm_payeecompany_d": ["--", "$0.00"],
    "ddsm_payeename_d": ["--", "$0.00"],
    "ddsm_payeeattnto_d": ["--", "$0.00"],
    //"ddsm_payeenumber_d": "D1039334",
    "ddsm_payeephone_d": ["--", "$0.00"],
    "ddsm_payeeemail_d": ["--", "$0.00"],
    "ddsm_taxentity_d": ["--", "$0.00"],
    "ddsm_taxid_d": ["--", "$0.00"],
    "ddsm_payeepreference_d": ["--", "$0.00"],
    //On Hold/Discontinued
    //Discontinued
    "ddsm_discontinueddate1_d": ["--", "$0.00"],
    "ddsm_discontinueddateentry_d": ["--", "$0.00"],
    "ddsm_discontinuedreason_d": ["--", "$0.00"],
    "ddsm_discontinuedcost_d": ["--", "$0.00"],
    //System
    "statecode_d": "Active",
    "ownerid_d": "Res-DI"
  },
  "transist": [
    //Second step tabs
    {
      "subgridId": "Cycle_Projects_divDataArea",
      "columnNumber": 2,
      "subgridRecordName": "Res-DI-Catherine Bur",
      "subgridFrameId": "contentIFrame0",
      "formFrameId": "contentIFrame0",
      "correctTransistForm": {
        "dropDownSelector": "#formselectorcontainer .ms-crm-FormSelector",
        "menuItemSelector": "ul.ms-crm-FS-Menu li a.ms-crm-FS-MenuItem-Anchor[title=\"E1 Project\"] nobr"
      },
      "isSelectedForm": true,
      "tabs": [
        "tab_20_content",
        "Tab_ProjectSummary_content",
        "tab_26_content",
        "tab_22_content",
        "Tab_Measures_content",
        "tab_23_content",
        "tab_24_content",
        "Tab_Financials_content",
        "Tab_Notes_content",
        "Tab_OnHoldDiscontinued_content",
        "Tab_System_content",
        "AttachmentDocuments_Tab_content"
      ]
    }
  ],
  "visibleElements": [
    "table[name=\"tab_recordwall_section_1\"]",
    "table[name=\"tab_6_section_1\"]",
    "table[name=\"tab_15_section_1\"]",
    "table[name=\"tab_14_section_1\"]"
  ],
  "invisibleFields": [],
  //First step tabs
  "tabs": [
    "tab_NotesActivities_content",
    "tab_9_content",
    "AttachmentDocuments_Tab_content"
  ],
 "visibleTabs": [
    "Program Information",
    "Project Overview",
    "Incentive Information",
    "Savings Information",
    "Measures",
    "Account & Site Information",
    "Implementation Sites Measures",
    "Cases",
    "Claims",
    "Studys",
    "Financials",
    "Docs/Activities",
    "On Hold/Discontinued",
    "System"
  ],
    "fieldsCorrectFormat": [
    {
      "fieldSelector": "#ddsm_accountnumber_d",
      "format": "D[0-9]{7}"
    },
    {
      "fieldSelector": "#ddsm_sitenumber_d",
      "format": "D[0-9]{10}"
    },
    {
      "fieldSelector": "#createdby_d",
      "format": "[a-zA-Z0-9]"
    }
  ]  
}