{
  "seleniumDriverPath": "c:\\Selenium",
  "recordName": "*Res-DI 2016-09062016SummerhillGroups*",
  "login": "Administrator",
  "password": "oGpjM9iE",
  "url": "https://Administrator:oGpjM9iE@dev4.ddsm.online/EfficiencyOneDDSM/main.aspx?area=ddsm_pgfinancial_635554511994787524_635992069920428759&etc=10069&page=area_Workplace&pageType=EntityList&web=true",
  "frame": "contentIFrame0",
  "rowAccSelector": ".ms-crm-List-DataCell:nth-child(2) a",
  "pageTitle": "Project Group Financials Active Project Group Financials - Microsoft Dynamics CRM",
  "resultFolder": "TestResult//",
  "correctView": {
    "dropDownSelector": "#crmGrid_SavedNewQuerySelector",
    "menuItemSelector": "ul.ms-crm-VS-Menu li a.ms-crm-VS-MenuItem-Anchor[title=\"Active Project Group Financials\"] nobr"
  },
  "isSelectedForm": true,
    "uploadConfig": {
    "isExecute": false,
    "path": "upload_config"
  },
  "correctForm": {
    "dropDownSelector": "#formselectorcontainer .ms-crm-FormSelector",
    "menuItemSelector": "ul.ms-crm-FS-Menu li a.ms-crm-FS-MenuItem-Anchor[title=\"E1 Project Group Financial\"] nobr"
  },
  "timeSpan": "30",
  "jqFields": {
            "IterationCount" : 30,
            "IterationTime" : 2
  },
  "fields": {
            //Overview
            "formselectorcontainer" : "PROJECT GROUP FINANCIAL : E1 PROJECT GROUP FINANCIAL",
            "ddsm_name_d" : "Res-DI 2016-09062016SummerhillGroups",
            "ddsm_calculatedamount_d" : "$25.81",
            "ddsm_financialtype_d" : "Payment",
            "ddsm_invoicedate_d" : ["--", "$0.00"],
            "ddsm_pendingstage_d" : ["--", "$0.00"],
            "ddsm_note_d" : ["--", "$0.00"],
            "ddsm_programofferingid_d" : "Residential Direct Install 2016",
            "ddsm_financialtemplateid_d" : "Res-DI 2016",
            "ddsm_projectgrouptoprojectgroupfinanid_d" : "Res-DI 2016-09062016SummerhillGroups",
            "ddsm_invoiceamount_d" : "$25.81",
            "ddsm_actualamount_d" : "$25.81",
            "ddsm_checknumber_d" : ["--", "$0.00"],
            "ddsm_paymentissuedate_d" : ["--", "$0.00"],
            "ddsm_disbursementtype_d" : ["--", "$0.00"],
            //Payee Information
            "ddsm_payeeaddress1_d" : ["--", "$0.00"],
            "ddsm_payeeaddress2_d" : ["--", "$0.00"],
            "ddsm_payeecity_d" : ["--", "$0.00"],
            "ddsm_payeestate_d" : ["--", "$0.00"],
            "ddsm_payeezipcode_d" : ["--", "$0.00"],
            "ddsm_payeecompany_d" : ["--", "$0.00"],
            "ddsm_payeename_d" : ["--", "$0.00"],
            "ddsm_payeeattnto_d" : ["--", "$0.00"],
            "ddsm_payeenumber_d" : ["--", "$0.00"],
            "ddsm_payeephone_d" : ["--", "$0.00"],
            "ddsm_payeeemail_d" : ["--", "$0.00"],
            "ddsm_taxentity_d" : ["--", "$0.00"],
            "ddsm_taxid_d" : ["--", "$0.00"],
            "ddsm_whogetspaid_d" : ["--", "$0.00"],
            "ddsm_payeetaid_d" : ["--", "$0.00"],
            //Cost Codes
            "ddsm_cc1_amount_d" : "$25.81",
            "ddsm_cc1_invoicenumber_d" : "09062016SummerhillGroups",
            "ddsm_cc1_vendor_d" : ["--", "$0.00","Summerhill Groups"],
            "ddsm_cc1_description_d" : ["--", "$0.00"],
            "ddsm_cc1_fundcode_d" : "30",
            "ddsm_cc1_fundcodedescription_d" : "30 DSM",
            "ddsm_cc1_accountcode_d" : "5015",
            "ddsm_cc1_accountcodedescription_d" : "5015 Incentives - DA Services",
            "ddsm_cc1_departmentcode_d" : "10",
            "ddsm_cc1_programcode_d" : "2003",
            "ddsm_cc1_programcodedescription_d" : "2003 DSM Direct Install",
            "ddsm_cc1_codetype_d" : "30-5015-10",
            "ddsm_cc1_attribute_d" : ["--", "$0.00"],
            "ddsm_cc2_costdate_d" : ["--", "$0.00"],
            "ddsm_cc2_vendor_d" : ["--", "$0.00"],
            "ddsm_cc2_description_d" : ["--", "$0.00"],
            "ddsm_cc2_fundcode_d" : "30",
            "ddsm_cc2_fundcodedescription_d" : "30 DSM",
            "ddsm_cc2_accountcode_d" : "5010",
            "ddsm_cc2_accountcodedescription_d" : "5010 Incentives - Rebates Paid to DA",
            "ddsm_cc2_departmentcode_d" : "10",
            "ddsm_cc2_programcode_d" : ["--", "$0.00"],
            "ddsm_cc2_programcodedescription_d" : ["--", "$0.00"],
            "ddsm_cc2_codetype_d" : "30-5010-10",
            "ddsm_cc2_attribute_d" : ["--", "$0.00"],
            "ddsm_cc3_costdate_d" : ["--", "$0.00"],
            "ddsm_cc3_amount_d" : "$0.00",
            "ddsm_cc3_invoicenumber_d" : ["--", "$0.00"],
            "ddsm_cc3_vendor_d" : ["--", "$0.00"],
            "ddsm_cc3_description_d" : ["--", "$0.00"],
            "ddsm_cc3_fundcode_d" : "40",
            "ddsm_cc3_fundcodedescription_d" : "40 PNS",
            "ddsm_cc3_accountcode_d" : "5015",
            "ddsm_cc3_accountcodedescription_d" : "5015 Incentives - DA Services",
            "ddsm_cc3_departmentcode_d" : "10",
            "ddsm_cc3_programcode_d" : ["--", "$0.00"],
            "ddsm_cc3_programcodedescription_d" : ["--", "$0.00"],
            "ddsm_cc3_codetype_d" : "40-5015-10",
            "ddsm_cc3_attribute_d" : ["--", "$0.00"],
            //Stages
            "ddsm_stagename1_d" : "RFP Initiated",
            "ddsm_stagename2_d" : "RFP Sent to AP",
            "ddsm_stagename3_d" : "AP Info Received",
            "ddsm_targetstart1_d" : "9/6/2016",
            "ddsm_targetstart2_d" : "9/13/2016",
            "ddsm_targetstart3_d" : "9/20/2016",
            "ddsm_actualstart1_d" : ["--", "$0.00"],
            "ddsm_actualstart2_d" : ["--", "$0.00"],
            "ddsm_actualstart3_d" : ["--", "$0.00"],
            "ddsm_targetend1_d" : "9/13/2016",
            "ddsm_targetend2_d" : "9/20/2016",
            "ddsm_targetend3_d" : "9/27/2016",
            "ddsm_actualend1_d" : ["--", "$0.00"],
            "ddsm_actualend2_d" : ["--", "$0.00"],
            "ddsm_actualend3_d" : ["--", "$0.00"],
            "ddsm_duration1_d" : "7",
            "ddsm_duration2_d" : "7",
            "ddsm_duration3_d" : "7"
  },
  "transist": [ ],
  "visibleElements": [  ],
  "invisibleFields": [],
  "tabs": [
    "tab_5_content",
    "tab_3_content",
    "tab_6_content"
   ],
   "visibleTabs": [
    "Overview",
    "Payee Information",
    "Cost Codes",
    "Stages"
  ],
  "fieldsCorrectFormat": [
    {
      "fieldSelector": "#ddsm_pgfinancialnumber_d",
      "format": "PGF[0-9]{8}"
    }
  ]
} 