{
    "url": "http://Administrator:ghjuhfvth@195.88.73.208/%7B636222627830000359%7D/WebResources/accentgold_/DataUploadConfigurations.html",
    //Administrator:ghjuhfvth@
    "expandListTime": 60,
    "programName": "E1-BerIR",
    "recalculationType": "Force ESP Recalculation",
    "saveButton": "#button-1072-btnEl",
    "filePath": "C:\\Selenium\\Output_BERIR_Upload_Measure.xls",
    "dialogWindowConfig": {
        "IterationCount": 10,
        "IterationTime": 1
    },
    "statusConfig": {
        "IterationCount": 240,
        "IterationTime": 5
    },
    "uploadFrame": "contentIFrame0",
    "uploadStatus": "15. Import Completed Successfully"
}