{
  "seleniumDriverPath": "c:\\Selenium",
  "recordName": "*Eddy Group Limited*",
  "url": "http://Administrator:ghjuhfvth@195.88.73.208/main.aspx#465963008", //Administrator:ghjuhfvth@
  "frame": "contentIFrame0", //contentIFrame0
  "rowAccSelector": ".ms-crm-List-DataCell:nth-child(3) a",//.ms-crm-List-DataCell:nth-child(3) a
  "pageTitle": "Accounts Accounts - Microsoft Dynamics CRM",
  "resultFolder": "TestResult//",
  "correctView": {
    "dropDownSelector": "#crmGrid_SavedNewQuerySelector",
    "menuItemSelector": "ul.ms-crm-VS-Menu li a.ms-crm-VS-MenuItem-Anchor[title=\"Accounts\"] nobr"
  },
  "isSelectedForm": true,
  "uploadConfig": {
    "isExecute": true,
    "path": "berir_upload"
  },
  "correctForm": {
    "dropDownSelector": "#formselectorcontainer .ms-crm-FormSelector",
    "menuItemSelector": "ul.ms-crm-FS-Menu li a.ms-crm-FS-MenuItem-Anchor[title=\"E1 Account\"] nobr"
  },
  "timeSpan": "30",
  "jqFields": {
    "IterationCount": 300,
    "IterationTime": 2
  },
  "fields": {
    "ddsm_accountprimarykey_d": "eddygrouplimitepobox446bathurst" 
  },
  "transist": [],
  "visibleElements": [  ],
  "invisibleFields": [  ],
  "tabs": [  ],
  "visibleTabs": [ 
    "Overview",
    "Sites",
    "Projects",
    "Cases",
    "Docs/Notes",
    "Efficiency Trade Network",
    "Account - Record Details" 
    ],
  "fieldsCorrectFormat": [  ]
}