{
  "seleniumDriverPath": "c:\\Selenium",
  "recordName": "*EP-IS 2016-6980*",
  "url": "http://Administrator:ghjuhfvth@195.88.73.208/main.aspx?area=ddsm_projectgroup&etc=10068&page=area_Workplace&pageType=EntityList&web=true",
  "frame": "contentIFrame0",
  "rowAccSelector": ".ms-crm-List-DataCell:nth-child(2) a",
  "pageTitle": "Project Groups Active Project Groups - Microsoft Dynamics CRM",
  "resultFolder": "TestResult//",
  "correctView": {
    "dropDownSelector": "#crmGrid_SavedNewQuerySelector",
    "menuItemSelector": "ul.ms-crm-VS-Menu li a.ms-crm-VS-MenuItem-Anchor[title=\"Active Project Groups\"] nobr"
  },
  "isSelectedForm": true,
    "uploadConfig": {
    "isExecute": false,
    "path": "upload_config"
  },
  "correctForm": {
    "dropDownSelector": "#formselectorcontainer .ms-crm-FormSelector",
    "menuItemSelector": "ul.ms-crm-FS-Menu li a.ms-crm-FS-MenuItem-Anchor[title=\"E1 Project Group\"] nobr"
  },
  "timeSpan": "30",
  "jqFields": {
            "IterationCount" : 30,
            "IterationTime" : 2
  },
  "fields": {
            //General
            "formselectorcontainer" : "PROJECT GROUP : E1 PROJECT GROUP",
            "ddsm_name_d" : "EP-IS 2016-6980",
            "ddsm_invoicenumber_d" : "6980",
            "ddsm_invoiceamount_d" : "$55,821.00",
            "ddsm_invoicedate_d" : "11/30/2016",
            "ddsm_claimdate_d" : "--",
            "ddsm_startdate_d" : "11/30/2016",
            "ddsm_enddate_d" : "--",
            "ddsm_responsible_d" : "PM",
            "ddsm_approvalamount_d" : "$55,821.00",
            "ddsm_deliveryagent_d" : "--",
            "ddsm_deliveryagentcontactid_d" : "--",
            "ddsm_projectgroupstatus_d" : ["--", "$0.00"],
            "ddsm_programofferingid_d" : "Instant Savings 2016",
            "ddsm_projectgrouptemplates_d" : "EP-IS 2016",
            "ddsm_importid_d" : ["--", "$0.00"],
            "ddsm_approvals_d" : "Yes",
            "ddsm_steprules_d" : "Multi Step",
            "ddsm_supervisedapprovals_d" : "Allowed",
            //Costs/Codes
            "ddsm_incentivedaservicesdsmamount_d" : ["--", "$0.00"],
            "ddsm_incentivedaservicespnsamount_d" : ["--", "$0.00"],
            "ddsm_incentiverebatespaidtodadsmamount_d" : "$55,821.00",
            "ddsm_incentivedaservicesdsmprogram_d" : "--",
            "ddsm_incentivedaservicespnsprogram_d" : ["--", "$0.00"],
            "ddsm_incentiverebatespaidtodadsmprogram_d" : "2013",
            "ddsm_projectmanagementamount_d" : ["--", "$0.00"],
            "ddsm_storevisitsamount_d" : ["--", "$0.00"],
            "ddsm_eventsamount_d" : ["--", "$0.00"],
            "ddsm_hst_d" : ["--", "$0.00"],
            "ddsm_projectmanagementprogram_d" : "2013",
            "ddsm_storevisitsprogram_d" : "2013",
            "ddsm_eventsprogram_d" : "2013",
            //System
            "ddsm_projectgroupcosttotal_d" : ["--", "$0.00"]
  },
  "transist": [ ],
"visibleElements": [
    "table[name=\"tab_2_section_1\"]", 
    "table[name=\"tab_4_section_1\"]"
  ],
  "invisibleFields": [],
  "tabs": [
    "tab_10_content",
    "tab_Projects_content",
    "tab_Financials_content",
    "System_content"
   ],
   "visibleTabs": [
    "General",
    "Costs/Codes",
    "Projects",
    "Project Group Financials",
    "System"
  ],
  "fieldsCorrectFormat": [ ]
} 