{
  "seleniumDriverPath": "c:\\Selenium",
  "recordName": "*USA Greenwood*",
  "url": "https://Administrator:oGpjM9iE@dev4.ddsm.online/EfficiencyOneDDSM/main.aspx#465963008",
  "frame": "contentIFrame0",
  "rowAccSelector": ".ms-crm-List-DataCell:nth-child(3) a",
  "pageTitle": "Accounts Accounts - Microsoft Dynamics CRM",
  "resultFolder": "TestResult//",
  "correctView": {
    "dropDownSelector": "#crmGrid_SavedNewQuerySelector",
    "menuItemSelector": "ul.ms-crm-VS-Menu li a.ms-crm-VS-MenuItem-Anchor[title=\"Accounts\"] nobr"
  },
  "isSelectedForm": true,
  "uploadConfig": {
    "isExecute": false,
    "path": "upload_config"
  },
  "correctForm": {
    "dropDownSelector": "#formselectorcontainer .ms-crm-FormSelector",
    "menuItemSelector": "ul.ms-crm-FS-Menu li a.ms-crm-FS-MenuItem-Anchor[title=\"E1 Account\"] nobr"
  },
  "timeSpan": "30",
  "jqFields": {
    "IterationCount": 30,
    "IterationTime": 2
  },
  "fields": {
    "formselectorcontainer": "SITE : E1 SITE",
    "ddsm_parentunitid_d": "--",
    "ddsm_name_d": "11 Eighth Crescent Greenwood-USA Greenwood",
    "ddsm_address1_d": "11 Eighth Crescent",
    "ddsm_address2_d": "5 Hangar A, Astra Way",
    "ddsm_city_d": "Greenwood",
    "ddsm_county_d": "--",
    "ddsm_state_d": "NS",
    "ddsm_zip_d": "B0P 1N0",
    "ddsm_description_d": "--",
    //Account Information
    "ddsm_parentaccount_d": "USA Greenwood",
    "PrimaryAccount_PrimaryAccount_account_telephone1_d": "(9027651) 494-5768",
    "PrimaryAccount_PrimaryAccount_account_telephone2_d": ["--", "$0.00"],
    "PrimaryAccount_PrimaryAccount_account_emailaddress1_d": ["--", "$0.00"],
    "PrimaryAccount_PrimaryAccount_account_ddsm_fax_d": ["--", "$0.00"],
    //Site Primary Contact
    "ddsm_primarycontact_d": ["--", "Colleen Hodder/Alex American"],
    //Property Management Details
    "ddsm_propertymanager_d": ["--", "Colleen Hodder/Alex American"],
    "ddsm_propertymanagementcompany_d": ["--", "$0.00"],
    "ddsm_propertymanagersignedoff_d": ["--", "$0.00"],
    "ddsm_ownertenant_d": ["--", "$0.00"],
    "ddsm_occupanttype_d": ["--", "$0.00"],
    "ddsm_numberofunits_d": "--",
    "ddsm_numberofimplementationsites_d": ["--", "$0.00"],
    "ddsm_numberofimplementationsitespercent_d": ["--", "$0.00"],
    //Utility Details
    "ddsm_utility_d": "Nova Scotia Power Inc.",
    "ddsm_utilityaccountnumber_d": ["--", "$0.00"],
    "ddsm_utilitymeternumber_d": "481096",
    "ddsm_ratecodenameid_d": ["--", "$0.00"],
    "ddsm_ratecode_d": "NSP_02",
    "ddsm_rateclass_d": "Residential",
    "ddsm_ratecodedescription_d": "NSP 2 - Residential, non-electric heat",
    "ddsm_demandunit_d": ["--", "$0.00"],
    "ddsm_annualkwhusage_d": ["--", "$0.00"],
    "ddsm_averagepeakkwusage_d": ["--", "$0.00"],
    //Site Details
    "ddsm_buildingtype_d": "Residential",
    "ddsm_buildingsubtype_d": "Townhouse",
    "ddsm_yearbuilt_d": "--",
    "ddsm_sqft_d": ["--", "$0.00"],
    "ddsm_numberofoccupants_d": "--",
    "ddsm_numberofoccupantsinhousehold_d": ["--", "$0.00"],
    "ddsm_numberofadults18orolder_d": ["--", "$0.00"],
    "ddsm_numberofchildren_d": ["--", "$0.00"],
    "ddsm_qualifyforadditionalmeasures_d": "No",
    "ddsm_lowincome_d": ["--", "$0.00"],
    //Heating & Cooling Details
    "ddsm_primaryheatsource_d": "Natural Gas",
    "ddsm_primaryheatingsystem_d": ["--", "$0.00"],
    "ddsm_percentageofelectricheat_d": ["--", "$0.00"],
    "ddsm_spaceheatingpercentage_d": ["--", "$0.00"],
    "ddsm_secondaryheatingsource_d": ["--", "$0.00"],
    "ddsm_secondaryheatingsystem_d": ["--", "$0.00"],
    "ddsm_thirdheatingsource_d": ["--", "$0.00"],
    "ddsm_thirdheatingsystem_d": ["--", "$0.00"],
    "ddsm_airconditioner_d": "No",
    "ddsm_heatingsetpoint_d": ["--", "$0.00"],
    "ddsm_coolingsetpoint_d": ["--", "$0.00"],
    "ddsm_hvactype_d": ["--", "$0.00"],
    //Domestic Hot Water Detai
    "ddsm_domestichotwatersource_d": "Electric",
    "ddsm_dhwheatingfuelsystem_d": ["--", "$0.00"],
    "ddsm_numberofhotwatertanks_d": ["--", "$0.00"],
    "ddsm_linelossfactor_d": "0.100",
    //Additional Site Details
    "ddsm_qualifiedincomecategory_d": "Income not qualified",
    "ddsm_tenantpayselectricity_d": "Yes",
    "ddsm_windowage_d": "--",
    "ddsm_envelopeage_d": "--",
    "ddsm_hvacsystem_d": ["--", "$0.00"],
    "ddsm_centralairhandlingunit_d": "No",
    "ddsm_hvacsystemsize_d": ["--", "$0.00"],
    "ddsm_hvaccontrolsystem_d": ["--", "$0.00"],
    "ddsm_boilerpipeinsulation_d": ["--", "$0.00"],
    "ddsm_outdoortemperatureresets_d": ["--", "$0.00"],
    "ddsm_thermostattype_d": "Digital",
    "ddsm_laundryopportunity_d": ["--", "$0.00"],
    "ddsm_numberofwashingmachines_d": ["--", "$0.00"],
    "ddsm_numberofdryers_d": ["--", "$0.00"],
    "ddsm_exteriorlightingopportunity_d": ["--", "$0.00"],
    "ddsm_interiorlightingopportunity_d": ["--", "$0.00"],
    //Additional Site Details - Residential/Business Profile
    "ddsm_existingatticinsulation_d": ["--", "$0.00"],
    "ddsm_existingwallinsulation_d": ["--", "$0.00"],
    "ddsm_draftysite_d": ["--", "$0.00"],
    "ddsm_existingfoundationbasementinsulation_d": ["--", "$0.00"],
    "ddsm_existingfoundationbasementinsulationmulti_d": ["--", "$0.00"],
    "ddsm_existingwindowsmulti_d": ["--", "$0.00"],
    "ddsm_existingwindows_d": ["--", "$0.00"],
    "ddsm_exisitngwashingmachine_d": ["--", "$0.00"],
    "ddsm_exisitingprimaryrefrigerator_d": ["--", "$0.00"],
    "ddsm_exisitingsecondaryrefrigeration_d": "No",
    "ddsm_exisitinglighting_d": ["--", "$0.00"],
    "ddsm_exisitinglightingmulti_d": ["--", "$0.00"],
    "ddsm_electronicdevices_d": ["--", "$0.00"],
    "ddsm_energyaudit_d": ["--", "$0.00"],
    "ddsm_energyauditcompletiondate_d": ["--", "$0.00"],
    "ddsm_bdleadid_d": ["--", "$0.00"],
    //System
    "statecode_d": "Active",
    // "ddsm_siteprimarykey_d": "25RainbowHavenDriveCowBayBurkCat4730",
    //"ddsm_sitenumber_d": "D1000050556",
    // "ddsm_account_d": ["--", "$0.00"],
    "ddsm_recordmanager_d": ["--", "$0.00"],
    "statuscode_d": "Active",
    "ddsm_utilityaccountnumber1_d": ["--", "$0.00"],
    "ddsm_utilityaccountnumberclean_d": "--"
  },
  "transist": [
    //Second step tabs
    {
      "subgridId": "Sites_divDataArea",
      "columnNumber": 2,
      "subgridRecordName": "11 Eighth Crescent Greenwood-USA Greenwood",
      "subgridFrameId": "contentIFrame0",
      "formFrameId": "contentIFrame0",
      "correctTransistForm": {
        "dropDownSelector": "#formselectorcontainer .ms-crm-FormSelector",
        "menuItemSelector": "ul.ms-crm-FS-Menu li a.ms-crm-FS-MenuItem-Anchor[title=\"E1 Site\"] nobr"
      },
      "isSelectedForm": true,
      "tabs": [
        "tab_18_content",
        "tab_13_content",
        "tab_Projects_content",
        "tab_Notes_content",
        "tab_12_content",
        "tab_16_content",
        "tab_10_content",
        "AttachmentsDocument_Tab_content"
      ]
    }
  ],
  "visibleElements": [
    "table[name=\"tab_13_section_1\"]",
    "table[name=\"tab_13_section_2\"]",
    "table[name=\"projects_section_1\"]",
    "table[name=\"tab_7_section_1\"]",
    "table[name=\"tab_16_section_1\"]",
    "table[name=\"tab_16_section_2\"]",
    "table[name=\"tab_General_section_4\"]",
    "table[name=\"tab_General_section_12\"]"
  ],
  //First step tabs
  "invisibleFields": [],
  "tabs": [
    "tab_NotesActivities_content",
    "tab_9_content"
  ],
     "visibleTabs": [
    "General",
    "Utility Details",
    "Site Details",
    "Additional Site Details",
    "Implementation Sites",
    "Projects",
    "Docs/Notes",
    "Additional Site Details - Residential/Business Profile",
    "Measures",
    "System"
  ],
  "fieldsCorrectFormat": [
    {
      "fieldSelector": "#PrimaryAccount_PrimaryAccount_account_accountnumber_d",
      "format": "D[0-9]{7}"
    },
    {
      "fieldSelector": "#ddsm_sitenumber_d",
      "format": "D[0-9]{10}"
    },
    {
      "fieldSelector": "#ownerid_d",
      "format": "[a-zA-Z0-9]"
    },
    {
      "fieldSelector": "#createdby_d",
      "format": "[a-zA-Z0-9]"
    }
  ]  
}