{
  "seleniumDriverPath": "c:\\Selenium",
  "recordName": "*USA Greenwood*",
  "url": "https://Administrator:oGpjM9iE@dev4.ddsm.online/EfficiencyOneDDSM/main.aspx#465963008",
  "frame": "contentIFrame0",
  "rowAccSelector": ".ms-crm-List-DataCell:nth-child(3) a",
  "pageTitle": "Accounts Accounts - Microsoft Dynamics CRM",
  "resultFolder": "TestResult//",
  "correctView": {
    "dropDownSelector": "#crmGrid_SavedNewQuerySelector",
    "menuItemSelector": "ul.ms-crm-VS-Menu li a.ms-crm-VS-MenuItem-Anchor[title=\"Accounts\"] nobr"
  },
  "isSelectedForm": true,
  "uploadConfig": {
    "isExecute": true,
    "path": "rpc_upload"
  },
  "correctForm": {
    "dropDownSelector": "#formselectorcontainer .ms-crm-FormSelector",
    "menuItemSelector": "ul.ms-crm-FS-Menu li a.ms-crm-FS-MenuItem-Anchor[title=\"E1 Account\"] nobr"
  },
  "timeSpan": "30",
  "jqFields": {
    "IterationCount": 300,
    "IterationTime": 2
  },
  "fields": {
    "formselectorcontainer": "ACCOUNT : E1 ACCOUNT",
    "ddsm_accounttype": "Business",
    "ddsm_companyname_d": "USA Greenwood",
    //Business
    "parentaccountid_d":["--", "$0.00"],
    "businesstypecode_d":"Government",
    "ddsm_businessvertical_d":"Federal Government",
    "ddsm_taxid_d":["--", "$0.00"],
    //Communication Information
    "name_d": "USA Greenwood",
    "ddsm_accountprimarykey_d": "usagreenwoodpobox5000stnmain5hangaraastrawaygreenwood",
    "telephone1_d": "(9027651) 494-5768",
    "telephone2_d": ["--", "$0.00"],
    "ddsm_fax_d": ["--", "$0.00"],
    "emailaddress1_d": ["--", "$0.00"],
    "websiteurl_d": ["--", "$0.00"],
    //Primary Contact
    "primarycontactid_d": "Colleen Hodder/Alex American",
    //Mailing Address
    "address1_composite_d":"PO Box 5000 STN MAIN\r\n5 Hangar A, Astra Way\r\nGreenwood, NS B0P 1N0",
    "address1_city_d":"Greenwood",
    "ddsm_county_d":["--", "$0.00"],
    //Payee Information
    "ddsm_payeecompany_d": ["--", "$0.00"],
    "ddsm_payeeattnto_d": ["--", "$0.00"],
    "ddsm_payeenumber_d": ["--", "$0.00"],
    "ddsm_payeeaddress1_d": ["--", "$0.00"],
    "ddsm_payeeaddress2_d": ["--", "$0.00"],
    "ddsm_payeecity_d": ["--", "$0.00"],
    "ddsm_payeestate_d": ["--", "$0.00"],
    "ddsm_payeezipcode_d": ["--", "$0.00"],
    "ddsm_payeepaymentpreference_d": ["--", "$0.00"],
    //Efficiency Partners Information
    //Efficiency Partners Information
    "ddsm_recordmanager_d": ["--", "$0.00"] 
  },
  "transist": [],
  "visibleElements": [
    "table[name=\"tab_14_section_4\"]",
    "table[name=\"tab_10_section_2\"]",
    "table[name=\"tab_14_section_8\"]",
    "table[name=\"Sites/Contract Accounts\"]",
    "table[name=\"Cycle Projects\"]",
    "table[name=\"notes\"]",
    "table[name=\"tab_9_section_1\"]",
    "table[name=\"tab_10_section_1\"]",
    "table[name=\"internal information\"]",
    "table[name=\"tab_10_section_1\"]"
  ],
  "invisibleFields": [
    "ddsm_firstname",
    "ddsm_lastname"
  ],
  "tabs": [
    "tab_NotesActivities_content",
    "tab_9_content",
    "Cases_content",
    "tab_Preferences_headerText_anchor",
    "tab_9_headerText_anchor",
    "Cases_headerText_anchor",
    "AttachmentsDocument_Tab_content"

  ],
  "visibleTabs": [
    "Overview",
    "Sites",
    "Projects",
    "Cases",
    "Docs/Notes",
    "Efficiency Trade Network",
    "Account - Record Details"
  ],
  "fieldsCorrectFormat": [
    {
      "fieldSelector": "#accountnumber_d",
      "format": "D[0-9]{7}"
    },
    {
      "fieldSelector": "#ownerid_d",
      "format": "[a-zA-Z0-9]"
    },
    {
      "fieldSelector": "#createdby_d",
      "format": "[a-zA-Z0-9]"
    }
  ]
}