{
  "seleniumDriverPath": "c:\\Selenium",
  "recordName": "*Colleen Hodder/Alex American*",
  "url": "https://Administrator:oGpjM9iE@dev4.ddsm.online/EfficiencyOneDDSM/main.aspx?area=nav_conts_635554511994787525&etc=2&page=area_Workplace&pageType=EntityList&web=true",
  "frame": "contentIFrame0",
  "rowAccSelector": ".ms-crm-List-DataCell:nth-child(2) a",
  "pageTitle": "Contacts My Active Contacts - Microsoft Dynamics CRM",
  "resultFolder": "TestResult//",
  "correctView": {
    "dropDownSelector": "#crmGrid_SavedNewQuerySelector",
    "menuItemSelector": "ul.ms-crm-VS-Menu li a.ms-crm-VS-MenuItem-Anchor[title=\"My Active Contacts\"] nobr"
  },
  "isSelectedForm": true,
  "uploadConfig": {
    "isExecute": false,
    "path": "rpc_upload"
  },
  "correctForm": {
    "dropDownSelector": "#formselectorcontainer .ms-crm-FormSelector",
    "menuItemSelector": "ul.ms-crm-FS-Menu li a.ms-crm-FS-MenuItem-Anchor[title=\"E1 Contact\"] nobr"
  },
  "timeSpan": "30",
  "jqFields": {
    "IterationCount": 30,
    "IterationTime": 2
  },
  "fields": {
    "header_crmFormSelector": "CONTACT : E1 CONTACT",
    //Overview
    "fullname_d": "Colleen Hodder/Alex American",
    "jobtitle_d": "WCE Financial Officer/ EEM",
    "ddsm_contactprimarykey_d": "amecol5768",
    "address1_telephone1_d": "(9027651) 494-5768",
    "address1_telephone2_d":["--", "$0.00"],
    "emailaddress1_d": "colleen.hodder@forces.gc.ca / aengland@efficiencyns.ca",
    "address1_composite_d":["--", "$0.00"],
    "parentcustomerid_d":["--", "$0.00", "USA Greenwood"],
    "description_d":["--", "$0.00"],
    //Contact - Record Details
    "statecode_d": "Active",
    "statuscode_d": "Active"
  },
  "transist": [],
  "visibleElements": [
    "table[name=\"general_section_5\"]"

  ],
  "invisibleFields": [

  ],
  "tabs": [
    "general_header_image_div",
    "tab_5_header_image_div"
  ],
  "visibleTabs": [
    "Overview",
    "Contact - Record Details"
  ],
  "fieldsCorrectFormat": [
    {
      "fieldSelector": "#ownerid_d",
      "format": "[a-zA-Z0-9]"
    },
    {
      "fieldSelector": "#createdby_d",
      "format": "[a-zA-Z0-9]"
    },
    {
      "fieldSelector": "#modifiedby_d",
      "format": "[a-zA-Z0-9]"
    }
  ]
}