{
  "seleniumDriverPath": "c:\\Selenium",
  "recordName": "*Eddy Group*",
  "url": "https://Administrator:Index139240!@195.88.73.217/EfficiencyOneDDSM/main.aspx#465963008",
  "frame": "contentIFrame0",
  "rowAccSelector": ".ms-crm-List-DataCell:nth-child(3) a",
  "pageTitle": "Accounts Accounts - Microsoft Dynamics CRM",
  "resultFolder": "TestResult//",
  "correctView": {
    "dropDownSelector": "#crmGrid_SavedNewQuerySelector",
    "menuItemSelector": "ul.ms-crm-VS-Menu li a.ms-crm-VS-MenuItem-Anchor[title=\"Accounts\"] nobr"
  },
  "isSelectedForm": true,
  "uploadConfig": {
    "isExecute": false,
    "path": "upload_config"
  },
  "correctForm": {
    "dropDownSelector": "#formselectorcontainer .ms-crm-FormSelector",
    "menuItemSelector": "ul.ms-crm-FS-Menu li a.ms-crm-FS-MenuItem-Anchor[title=\"E1 Account\"] nobr"
  },
  "timeSpan": "30",
  "jqFields": {
    "IterationCount": 30,
    "IterationTime": 2
  },
  "fields": {
    "formselectorcontainer": "PROJECT : E1 PROJECT",
    //Program Information
    "ddsm_recordtype_d": "Project",
    "ddsm_programid_d": "Efficient Product Rebates (BNI) 2017",
    "ddsm_programoffering_d": "BER-Instant Rebates 2017",
    "ddsm_programmanagerid_d": "Trisha MacLean",
    "ddsm_projectgroupid_d": "BER-IR 2017-UBER063",
    //Project Overview
    //General
    "ddsm_projecttemplateid_d": "BER-IR 2017",
    // "ddsm_name_d": "138753-ARet-Alden Landry",
    "ddsm_projecttype_d": "Rebate",
    "ddsm_referencenumber_d": "--",
    "ddsm_opportunityreferencenumber_d": ["--", "$0.00"],
    "ddsm_participantreferencenumber_d": ["--", "$0.00"],
    "ddsm_referredbyprogramoffering_d": ["--", "$0.00"],
    //Project Status
    "ddsm_phase_d": "4. Completed",
    "ddsm_projectstatus_d": "7-Completed",
    "ddsm_responsible_d": "PM",
    "ddsm_pendingmilestone_d": "Evaluation Completed",
    "ddsm_completedmilestone_d": "Project Completed",
    "ddsm_milestoneactualend_d": "--",
    "ddsm_milestoneclaimdate_d": "--",
    //EfficiencyOne Stakeholders
    "ddsm_pcid_d": ["--", "$0.00"],
    "ddsm_bdleadid_d": ["--", "$0.00"],
    "ddsm_businessdevelopmentmanagerid_d": ["--", "$0.00"],
    "ddsm_onsiteenergymanager_d": ["--", "$0.00"],
    //Project Notes
    "ddsm_description": "--",
    //Project Dates
    "ddsm_startdate_d": "1/30/2017",
    "ddsm_enddate_d": ["--", "$0.00"],
    "ddsm_estimatedprojectcomplete_d": "2/15/2017",
    "ddsm_pendingactualstart_d": "2/15/2017",
    "ddsm_pendingtargetend_d": "5/11/2018",
    "ddsm_partnerinitialcontactdate_d": "--",
    "ddsm_projectpreapprovaldate_d": ["--", "$0.00"],
    "ddsm_projectapprovaldate_d": "2/15/2017",
    "ddsm_projectverificationdate_d": ["--", "$0.00"],
    "ddsm_verificationdate_d": ["--", "$0.00"],
    "ddsm_projectcloseddate_d": ["--", "$0.00"],
    "ddsm_discontinueddate_d": ["--", "$0.00"],
    "ddsm_projectexpirationdate_d": ["--", "$0.00"],
    //Incentive Information
    //Incentive Payments
    "ddsm_incentivepaymentgross_d": "$0.00",
    "ddsm_oemrecoverycost_d": ["--", "$0.00"],
    "ddsm_incentivepaymentnet_d": "$0.00",
    //Incentive Costs
    "ddsm_incentivecostmeasure_d": "$80.00",
    "ddsm_incentivecostpartner_d": ["--", "$0.00"],
    "ddsm_incentivecostfinancing_d": ["--", "$0.00"],
    "ddsm_incentivecostproject_d": ["--", "$0.00"],
    "ddsm_incentivecosttotal_d": "$80.00",
    // Incentive Totals
    "ddsm_totalincentive_d": "$80.00",
    "ddsm_totalincentivedsm_d": "$80.00",
    "ddsm_totalincentivepns_d": ["--", "$0.00"],
    //Savings Information
    //Tracked Energy - kWh
    "ddsm_kwhgrosssavingsatmeter_d": "185.0240",
    "ddsm_kwhgrosssavingsatgenerator_d": "203.5264",
    "ddsm_kwhnetsavingsatgenerator_d": "203.5264",
    "ddsm_energycharge_d": "--",
    //Tracked Demand - kW
    "ddsm_kwgrosssavingsatmeter_d": "159.1206",
    "ddsm_kwgrosssavingsatgenerator_d": "175.0327",
    "ddsm_kwnetsavingsatgenerator_d": ["--", "$0.00", "0.0000"],
    //Tracked Energy - GJ
    "ddsm_gjsavingsatmeter_d": "0.0000",
    //Evaluated Energy - kWh
    "ddsm_evaluatedkwhnetsavingsatgenerator_d": ["--", "$0.00"],
    //Evaluated Demand - kW
    "ddsm_evaluatedkwnetsavingsatgenerator_d": ["--", "$0.00"],
    //RDI/RPC Final Email (kWh Gr Sav Met X $0.149)
    "ddsm_kwhsavingsatmeterperyear_d": "--",
    //Project Stakeholders
    "ddsm_accountid_d": "Eddy Group",
    "ddsm_parentsiteid_d": "Eddy Group",
    "ddsm_primarycontactid_d": ["--", "$0.00"],
    "ddsm_primarycontacttitle_d": ["--", "$0.00"],
    "ddsm_address1_d": "--",
    "ddsm_address2_d": ["--", "$0.00"],
    "ddsm_city_d": "--",
    "ddsm_province_d": "--",
    "ddsm_county_d": ["--", "$0.00"],
    "ddsm_postalcode_d": "--",
    "ddsm_buildingtype_d": ["--", "$0.00"],
    "ddsm_utility_d": "--",
    "ddsm_rateclass_d": "--",
    "ddsm_propertymanager_d": ["--", "$0.00"],
    //Account & Site Information
    //Payee Information
    "ddsm_payeeaddress1_d": "--",
    "ddsm_payeeaddress2_d": ["--", "$0.00"],
    "ddsm_payeecity_d": "--",
    "ddsm_payeestate_d": "--",
    "ddsm_payeezipcode_d": "--",
    "ddsm_payeecompany_d": "--",
    "ddsm_payeename_d": "--",
    "ddsm_payeeattnto_d": ["--", "$0.00"],
    //"ddsm_payeenumber_d": "D1039334",
    "ddsm_payeephone_d": ["--", "$0.00"],
    "ddsm_payeeemail_d": ["--", "$0.00"],
    "ddsm_taxentity_d": ["--", "$0.00"],
    "ddsm_taxid_d": ["--", "$0.00"],
    "ddsm_payeepreference_d": "--",
    //On Hold/Discontinued
    //Discontinued
    "ddsm_discontinueddate1_d": ["--", "$0.00"],
    "ddsm_discontinueddateentry_d": ["--", "$0.00"],
    "ddsm_discontinuedreason_d": ["--", "$0.00"],
    "ddsm_discontinuedcost_d": ["--", "$0.00"],
    //System
    "statecode_d": "Active",
    "createdby_d": "SYSTEM",
    "modifiedonbehalfby_d": ["--", "$0.00", "CRM SETUP"],
    "ownerid_d": "BER-IR"
  },
  "transist": [
    //Second step tabs
    {
      "subgridId": "Cycle_Projects_divDataArea",
      "columnNumber": 2,
      "subgridRecordName": "BER-IR-Eddy Group",
      "subgridFrameId": "contentIFrame0",
      "formFrameId": "contentIFrame0",
      "correctTransistForm": {
        "dropDownSelector": "#formselectorcontainer .ms-crm-FormSelector",
        "menuItemSelector": "ul.ms-crm-FS-Menu li a.ms-crm-FS-MenuItem-Anchor[title=\"E1 Project\"] nobr"
      },
      "isSelectedForm": true,
      "tabs": [
        "tab_20_content",
        "Tab_ProjectSummary_content",
        "tab_26_content",
        "tab_22_content",
        "Tab_Measures_content",
        "tab_23_content",
        "tab_24_content",
        "Tab_Financials_content",
        "Tab_Notes_content",
        "Tab_OnHoldDiscontinued_content",
        "Tab_System_content",
        "AttachmentDocuments_Tab_content"
      ]
    }
  ],
  "visibleElements": [
    "table[name=\"tab_recordwall_section_1\"]",
    "table[name=\"tab_6_section_1\"]",
    "table[name=\"tab_15_section_1\"]",
    "table[name=\"tab_14_section_1\"]"
  ],
  "invisibleFields": [],
  //First step tabs
  "tabs": [
    "tab_NotesActivities_content",
    "tab_9_content"
   ],
   "visibleTabs": [
    "Program Information",
    "Project Overview",
    "Incentive Information",
    "Savings Information",
    "Measures",
    "Account & Site Information",
    "Implementation Sites Measures",
    "Cases",
    "Claims",
    "Studys",
    "Financials",
    "Docs/Activities",
    "On Hold/Discontinued",
    "System"
  ],
    "fieldsCorrectFormat": [
    {
      "fieldSelector": "#ddsm_accountnumber_d",
      "format": "D[0-9]{7}"
    },
    {
      "fieldSelector": "#ddsm_sitenumber_d",
      "format": "D[0-9]{10}"
    },
    {
      "fieldSelector": "#createdby_d",
      "format": "[a-zA-Z0-9]"
    }
  ]  
}