{
  "seleniumDriverPath": "c:\\Selenium",
  "recordName": "*Gloria Bak*",
  "login": "Administrator",
  "password": "oGpjM9iE",
  "url": "https://Administrator:oGpjM9iE@dev4.ddsm.online/EfficiencyOneDDSM/main.aspx#465963008",
  "frame": "contentIFrame0",
  "rowAccSelector": ".ms-crm-List-DataCell:nth-child(3) a",
  "pageTitle": "Accounts Accounts - Microsoft Dynamics CRM",
  "resultFolder": "TestResult//",
  "correctView": {
    "dropDownSelector": "#crmGrid_SavedNewQuerySelector",
    "menuItemSelector": "ul.ms-crm-VS-Menu li a.ms-crm-VS-MenuItem-Anchor[title=\"Accounts\"] nobr"
  },
  "isSelectedForm": true,
  "uploadConfig": {
    "isExecute": true,
    "path": "rdi_upload"
  },
  "correctForm": {
    "dropDownSelector": "#formselectorcontainer .ms-crm-FormSelector",
    "menuItemSelector": "ul.ms-crm-FS-Menu li a.ms-crm-FS-MenuItem-Anchor[title=\"E1 Account\"] nobr"
  },
  "timeSpan": "30",
  "jqFields": {
    "IterationCount": 300,
    "IterationTime": 2
  },
  "fields": {
    "formselectorcontainer": "ACCOUNT : E1 ACCOUNT",
    "ddsm_accounttype": "Residential",
    "ddsm_firstname": "Gloria",
    "ddsm_lastname": "Bak",
    "name_d": "Gloria Bak",
    "ddsm_accountprimarykey_d": "bakglo5550",
    "telephone1_d": "(902) 541-5550",
    "telephone2_d": ["--", "$0.00"],
    "ddsm_fax_d": ["--", "$0.00"],
    "emailaddress1_d": ["--", "$0.00"],
    "websiteurl_d": ["--", "$0.00"],
    "primarycontactid_d": ["--", "$0.00"],
    "ddsm_payeecompany_d": ["--", "$0.00"],
    "ddsm_payeeattnto_d": ["--", "$0.00"],
    "ddsm_payeeaddress1_d": ["--", "$0.00"],
    "ddsm_payeeaddress2_d": ["--", "$0.00"],
    "ddsm_payeecity_d": ["--", "$0.00"],
    "ddsm_payeestate_d": ["--", "$0.00"],
    "ddsm_payeezipcode_d": ["--", "$0.00"],
    "ddsm_payeepaymentpreference_d": ["--", "$0.00"],
    "address1_composite": "115 Jubilee Rd\r\nUnit 7\r\nBridgewater, NS B4V 2A7",
    "address1_city": "Bridgewater",
    "ddsm_county": "Lunenburg",
    "parentaccountid_d": ["--", "$0.00"],
    "businesstypecode_d": ["--", "$0.00"],
    "ddsm_businessvertical_d": ["--", "$0.00"],
    "ddsm_taxid_d": ["--", "$0.00"],
    //Efficiency Partners Information
    "ddsm_recordmanager_d": ["--", "$0.00"]    
  },
  "transist": [],
  "visibleElements": [
    "table[name=\"tab_14_section_4\"]",
    "table[name=\"tab_10_section_2\"]",
    "table[name=\"tab_14_section_8\"]",
    "table[name=\"Sites/Contract Accounts\"]",
    "table[name=\"Cycle Projects\"]",
    // "table[name=\"notes\"]",
    "table[name=\"tab_9_section_1\"]",
    "table[name=\"tab_10_section_1\"]",
    "table[name=\"internal information\"]"
  ],
  "invisibleFields": [
    "ddsm_companyname_d"
  ],
  "tabs": [
    "tab_NotesActivities_content",
    "tab_9_content",
    "Cases_content"
  ],
  "visibleTabs": [
    "Overview",
    "Sites",
    "Opportunities",
    "Projects",
    "Cases",
    "Docs/Notes",
    "Efficiency Trade Network",
    "Account - Record Details"
  ],
  "fieldsCorrectFormat": [
    {
      "fieldSelector": "#accountnumber_d",
      "format": "D[0-9]{7}"
    },
    {
      "fieldSelector": "#ownerid_d",
      "format": "[a-zA-Z0-9]"
    },
    {
      "fieldSelector": "#createdby_d",
      "format": "[a-zA-Z0-9]"
    }
  ]
}