{
  "seleniumDriverPath": "c:\\Selenium",
  "recordName": "*Donald Bru*",
  "login": "Administrator",
  "password": "oGpjM9iE",
  "url": "https://Administrator:oGpjM9iE@dev4.ddsm.online/EfficiencyOneDDSM/main.aspx?area=ddsm_projectreporting&etc=10074&page=Settings&pageType=EntityList&web=true",
  "frame": "contentIFrame0",
  "rowAccSelector": ".ms-crm-List-DataCell:nth-child(2) a",
  "pageTitle": "Project Reportings Active Project Reportings - Microsoft Dynamics CRM",
  "resultFolder": "TestResult//",
  "correctView": {
    "dropDownSelector": "#crmGrid_SavedNewQuerySelector",
    "menuItemSelector": "ul.ms-crm-VS-Menu li a.ms-crm-VS-MenuItem-Anchor[title=\"Active Project Reportings\"] nobr"
  },
  "isSelectedForm": false,
    "uploadConfig": {
    "isExecute": false,
    "path": "upload_config"
  },
  "correctForm": {
    "dropDownSelector": "",
    "menuItemSelector": ""
  },
  "timeSpan": "30",
  "jqFields": {
            "IterationCount" : 30,
            "IterationTime" : 2
  },
  "fields": {
            "formselectorcontainer" : "PROJECT REPORTING : INFORMATION",
            "ownerid_d" : "Res-DI",
            "ddsm_projectdescription_d" : ["--", "$0.00"],
            "ddsm_partnerinitialcontactdate_d" : ["--", "$0.00"],
            "ddsm_projectinstallationdate_d" : "1/11/2016",
            "ddsm_propertymanagersignedoff_d" : "Yes",
            "ddsm_propertymanagerphone_d" : ["--", "$0.00", "(902) 543-2196"],
            "ddsm_ownertenant_d" : "Rent",
            "ddsm_preferredcontactmethod_d" : "Phone",
            "ddsm_returnvisit_d" : ["--", "$0.00"],
            "ddsm_projectpaymentdate_d" : ["--", "$0.00"],
            "ddsm_year_d" : ["--", "$0.00"],
            "ddsm_projectcompleteddate_d":["--", "$0.00"],
            "ddsm_checkissuedate_d":["--", "$0.00"],
            "ddsm_referredtohomeenergyassessment_d":["--", "$0.00"],
            "ddsm_referredtogreenheat_d":["--", "$0.00"],
            "ddsm_referredtoapplianceretirement_d":["--", "$0.00"],
            "ddsm_referredtosolar_d":["--", "$0.00"],
            // "ddsm_qaadjustmentstotrackingsheetinformation_d":["--", "$0.00"],
            "ddsm_dacredit_d":["--", "$0.00"],
            "ddsm_hearaboutus_d":["--", "$0.00"],
            "ddsm_airmilesid_d":["--", "$0.00"],
            "ddsm_influencefactor_d":["--", "$0.00"],
            "ddsm_priorintention_d":["--", "$0.00"],
            "ddsm_optremovalmethod_d":["--", "$0.00"],
            "ddsm_checknumber_d":["--", "$0.00"],
            "ddsm_checkreissuedate_d":["--", "$0.00"],
            "ddsm_incentivetype_d":["--", "$0.00"],
            "ddsm_accountdisposition_d":["--", "$0.00"],
            "ddsm_pickupzone_d":["--", "$0.00"],
            "ddsm_sgczone_d":["--", "$0.00"],
            "ddsm_initialcontactorigin_d":["--", "$0.00"],
            "ddsm_icrepresentative_d":["--", "$0.00"],
            "ddsm_residenttype_d":["--", "$0.00"],
            "ddsm_multifamily_d":["--", "$0.00"],
            "ddsm_propertymanager_d":["--", "$0.00"]
  },
  "transist": [ ],
  "visibleElements": [ ],
  "invisibleFields": [],
  "tabs": [  ],
  "visibleTabs": [
    "General"
  ],
  "fieldsCorrectFormat": [ ]
} 